Challenge 1 Instructions
…
library(readxl)

wild_bird_data2 <- read_xlsx( "_data/wild_bird_data.xlsx", skip = 2, col_names = c("wet_weight_g", "pop_size"))

sapply(wild_bird_data2, class)

wet_weight_g     pop_size 
   "numeric"    "numeric" 

Code

arrange(wild_bird_data2,wet_weight_g)

# A tibble: 146 × 2
   wet_weight_g pop_size
          <dbl>    <dbl>
 1         5.46  532194.
 2         7.42  389806.
 3         7.76 3165107.
 4         8.04  192361.
 5         8.64 2592997.
 6         8.70  250452.
 7         8.89   16997.
 8         9.12  604766.
 9         9.52     595.
10        10.1    74386.
# … with 136 more rows
…
Provide the following information:

- Print of first 23 observations

- Print of last 23 observations

- Filter on presence of missing values for wet_weight_g or pop_size

- Summarize numeric variables

Code

slice(wild_bird_data2, 1:23)

# A tibble: 23 × 2
   wet_weight_g pop_size
          <dbl>    <dbl>
 1         5.46  532194.
 2         7.76 3165107.
 3         8.64 2592997.
 4        10.7  3524193.
 5         7.42  389806.
 6         9.12  604766.
 7         8.04  192361.
 8         8.70  250452.
 9         8.89   16997.
10         9.52     595.
# … with 13 more rows

Code

slice(wild_bird_data2, 124:146)

# A tibble: 23 × 2
   wet_weight_g pop_size
          <dbl>    <dbl>
 1         821.     253.
 2         645.     386.
 3         757.     612.
 4         604.    1162.
 5        1008.     908.
 6         528.   40510.
 7         766.   57460.
 8         923.   34547.
 9         887.   13391.
10         955.   12526.
# … with 13 more rows
…
