DACSS 601 Final Project Spring 2023
…
We can see that there are some NA values right from the start. Since our focus of study is to based different occ_title, we need to first analyze this column

Code

combined_files %>% dplyr::count(occ_title)

# A tibble: 2,567 × 2
   occ_title                                                         n
   <chr>                                                         <int>
 1 Able Seamen                                                       2
 2 Accountants and auditors                                          7
 3 Accountants and Auditors                                         22
 4 Actors                                                           20
 5 Actors, Producers, and Directors                                  7
 6 Actuaries                                                        29
 7 Adhesive Bonding Machine Operators and Tenders                    9
 8 Adjudicators, Hearings Officers, and Judicial Reviewers           2
 9 Adjustment Clerks                                                 2
10 Administrative law judges, adjudicators, and hearing officers     7
# … with 2,557 more rows
…
The data looks almost ready after this step but we still need to check occ_title.

Code

grouped_data %>% dplyr::ungroup() %>% count(occ_title) %>% print(n= 30)

# A tibble: 50 × 2
   occ_title                                                      n
   <chr>                                                      <int>
 1 All Occupations                                                1
 2 Architecture and engineering occupations                       7
 3 Architecture and Engineering Occupations                      13
 4 Arts, design, entertainment, sports, and media occupations     7
 5 Arts, Design, Entertainment, Sports, and Media Occupations    13
 6 Building and grounds cleaning and maintenance occupations      7
 7 Building and Grounds Cleaning and Maintenance Occupations     13
 8 Business and financial operations occupations                  7
 9 Business and Financial Operations Occupations                 13
10 Community and Social Service Occupations                       9
11 Community and social services occupations                      7
12 Community and Social Services Occupations                      4
13 Computer and mathematical occupations                          5
14 Computer and Mathematical Occupations                         12
15 Computer and mathematical science occupations                  2
16 Computer and Mathematical Science Occupations                  1
17 Construction and extraction occupations                        7
18 Construction and Extraction Occupations                       13
19 Education, training, and library occupations                   7
20 Education, Training, and Library Occupations                  13
21 Farming, fishing, and forestry occupations                     7
22 Farming, Fishing, and Forestry Occupations                    13
23 Food preparation and serving related occupations               7
24 Food Preparation and Serving Related Occupations              13
25 Healthcare practitioner and technical occupations              1
26 Healthcare Practitioner and Technical Occupations              1
27 Healthcare practitioners and technical occupations             6
28 Healthcare Practitioners and Technical Occupations            12
29 Healthcare support occupations                                 7
30 Healthcare Support Occupations                                13
# … with 20 more rows
…
