Challenge 2 Instructions
…
Provide Grouped Summary Statistics

Conduct some exploratory data analysis, using dplyr commands such as group_by(), select(), filter(), and summarise(). Find the central tendency (mean, median, mode) and dispersion (standard deviation, mix/max/quantile) for different subgroups within the data set.

Total employees per state state:

Code

state_wise = select(railroad, state, total_employees)
state_wise %>% 
  group_by(state) %>%
  summarize(totalEmployees=sum(total_employees))

# A tibble: 53 × 2
   state totalEmployees
   <chr>          <int>
 1 AE                 2
 2 AK               103
 3 AL              4257
 4 AP                 1
 5 AR              3871
 6 AZ              3153
 7 CA             13137
 8 CO              3650
 9 CT              2592
10 DC               279
# ℹ 43 more rows

Median number per county in every state:

Code

state_wise = select(railroad, state, total_employees)
state_wise %>% 
  group_by(state) %>%
  summarize(meanEmployees=mean(total_employees),medianEmployees=median(total_employees),standardDeviation = sd(total_employees))

# A tibble: 53 × 4
   state meanEmployees medianEmployees standardDeviation
   <chr>         <dbl>           <dbl>             <dbl>
 1 AE              2               2                NA  
 2 AK             17.2             2.5              34.8
 3 AL             63.5            26               130. 
 4 AP              1               1                NA  
 5 AR             53.8            16.5             131. 
 6 AZ            210.             94               228. 
 7 CA            239.             61               549. 
 8 CO             64.0            10               128. 
 9 CT            324             125               520. 
10 DC            279             279                NA  
# ℹ 43 more rows

State wise employees in the descending order:

Code

state_wise_grouped <- state_wise %>% 
  group_by(state) %>%
  summarize(Sum = sum(total_employees))

sorted <- state_wise_grouped %>%
  arrange(desc(Sum))

sorted

# A tibble: 53 × 2
   state   Sum
   <chr> <int>
 1 TX    19839
 2 IL    19131
 3 NY    17050
 4 NE    13176
 5 CA    13137
 6 PA    12769
 7 OH     9056
 8 GA     8605
 9 IN     8537
10 MO     8419
# ℹ 43 more rows
…
