Final Project Report
…
To obtain a simplified measure of resistance for each Pokémon, we can sum up the values across the 18 columns labeled “against_X.” As there are a total of 18 different attack types, a Pokémon that receives neutral damage from all attacks would have a total resistance score of 18. Consequently, a lower total resistance value indicates a more defensive Pokémon, as it will sustain less damage from attacks in general.

pkmn = pkmn %>% 
  mutate(tot_resist = against_bug+against_dark+against_dragon+against_electric+against_fairy+against_fight+against_fire+against_flying+against_ghost+against_grass+against_ground+against_ice+against_normal+against_poison+against_psychic+against_rock+against_steel+against_water)

Analysing resistance is a little more complex as we are unable to aggregate by type, since pokemon typing can synergise with each other to confer different resistances to a pokemon. We can however perform some other analyses to have a rough sense.

pkmn %>%
  arrange(min_rank(tot_resist)) %>% 
  dplyr::select(name, tot_resist, type1, type2) %>%
  print(n=20)

# A tibble: 801 × 4
   name       tot_resist type1    type2   
   <chr>           <dbl> <chr>    <chr>   
 1 Mawile           13.2 steel    fairy   
 2 Klefki           13.2 steel    fairy   
 3 Magearna         13.2 steel    fairy   
 4 Skarmory         13.5 steel    flying  
 5 Celesteela       13.5 steel    flying  
 6 Dialga           14.2 steel    dragon  
 7 Honedge          14.2 steel    ghost   
 8 Doublade         14.2 steel    ghost   
 9 Aegislash        14.2 steel    ghost   
10 Empoleon         14.5 water    steel   
11 Registeel        15   steel    <NA>    
12 Klink            15   steel    <NA>    
13 Klang            15   steel    <NA>    
14 Klinklang        15   steel    <NA>    
15 Sableye          15.5 dark     ghost   
16 Spiritomb        15.5 ghost    dark    
17 Lucario          15.5 fighting steel   
18 Cobalion         15.5 steel    fighting
19 Forretress       15.8 bug      steel   
20 Steelix          15.8 steel    ground  
# ℹ 781 more rows

pkmn %>%
  arrange(min_rank(desc(tot_resist))) %>% 
  dplyr::select(name, tot_resist, type1, type2) %>%
  print(n=20)

# A tibble: 801 × 4
   name      tot_resist type1  type2  
   <chr>          <dbl> <chr>  <chr>  
 1 Amaura          26   rock   ice    
 2 Aurorus         26   rock   ice    
 3 Paras           25   bug    grass  
 4 Parasect        25   bug    grass  
 5 Wormadam        25   bug    grass  
 6 Snover          25   grass  ice    
 7 Abomasnow       25   grass  ice    
 8 Sewaddle        25   bug    grass  
 9 Swadloon        25   bug    grass  
10 Leavanny        25   bug    grass  
11 Geodude         24.2 rock   ground 
12 Graveler        24.2 rock   ground 
13 Golem           24.2 rock   ground 
14 Onix            24.2 rock   ground 
15 Rhyhorn         24.2 ground rock   
16 Rhydon          24.2 ground rock   
17 Larvitar        24.2 rock   ground 
18 Pupitar         24.2 rock   ground 
19 Rhyperior       24.2 ground rock   
20 Exeggcute       24   grass  psychic
# ℹ 781 more rows
…
