Challenge 2
…
Read in one (or more) of the following data sets, available in the posts/_data folder, using the correct R package and command.

railroad*.csv or StateCounty2012.xls ⭐

FAOstat*.csv or birds.csv ⭐⭐⭐

hotel_bookings.csv ⭐⭐⭐⭐

Code

df <- read_csv("_data/birds.csv")
df

# A tibble: 30,977 × 14
   `Domain Code` Domain     `Area Code` Area  `Element Code` Element `Item Code`
   <chr>         <chr>            <dbl> <chr>          <dbl> <chr>         <dbl>
 1 QA            Live Anim…           2 Afgh…           5112 Stocks         1057
 2 QA            Live Anim…           2 Afgh…           5112 Stocks         1057
 3 QA            Live Anim…           2 Afgh…           5112 Stocks         1057
 4 QA            Live Anim…           2 Afgh…           5112 Stocks         1057
 5 QA            Live Anim…           2 Afgh…           5112 Stocks         1057
 6 QA            Live Anim…           2 Afgh…           5112 Stocks         1057
 7 QA            Live Anim…           2 Afgh…           5112 Stocks         1057
 8 QA            Live Anim…           2 Afgh…           5112 Stocks         1057
 9 QA            Live Anim…           2 Afgh…           5112 Stocks         1057
10 QA            Live Anim…           2 Afgh…           5112 Stocks         1057
# ℹ 30,967 more rows
# ℹ 7 more variables: Item <chr>, `Year Code` <dbl>, Year <dbl>, Unit <chr>,
#   Value <dbl>, Flag <chr>, `Flag Description` <chr>
…
Explain and Interpret

We try to understand the sizes of the five livestock in the datset and which countries have how much poultry during the given time frame. By grouping in the following way, it can be seen that the countries have a lot more chicken as livestock compared to the other poultry.

Code

df_cleaned %>%
  group_by(Area)%>%
  summarize(avg_stocks = mean(Value, na.rm = TRUE))

# A tibble: 248 × 2
   Area                avg_stocks
   <chr>                    <dbl>
 1 Afghanistan             8099. 
 2 Africa                196561. 
 3 Albania                 2278. 
 4 Algeria                17621. 
 5 American Samoa            41.4
 6 Americas              856356. 
 7 Angola                  9453. 
 8 Antigua and Barbuda       93.6
 9 Argentina              18844. 
10 Armenia                 2062. 
# ℹ 238 more rows
…
