Challenge 3
…
Pivoting the Data

Challenge: Pivoting the Chosen Data

The new case again is a month year unit. However, the data is now in a long format instead of wide. It satisfies the requirement of tidy data.

Code

clean_eggs<-pivot_longer(clean_eggs, col = c("Extra Large Dozen", "Extra Large Half Dozen", "Large Dozen", "Large Half Dozen"),
                 names_to="Type of packaging",
                 values_to = "Price of Cartons")
clean_eggs

# A tibble: 480 × 4
   month     year `Type of packaging`    `Price of Cartons`
   <chr>    <dbl> <chr>                               <dbl>
 1 January   2004 Extra Large Dozen                    230 
 2 January   2004 Extra Large Half Dozen               132 
 3 January   2004 Large Dozen                          230 
 4 January   2004 Large Half Dozen                     126 
 5 February  2004 Extra Large Dozen                    230 
 6 February  2004 Extra Large Half Dozen               134.
 7 February  2004 Large Dozen                          226.
 8 February  2004 Large Half Dozen                     128.
 9 March     2004 Extra Large Dozen                    230 
10 March     2004 Extra Large Half Dozen               137 
# … with 470 more rows
…
