Challenge 2
…
Provide Grouped Summary Statistics

Conduct some exploratory data analysis, using dplyr commands such as group_by(), select(), filter(), and summarise(). Find the central tendency (mean, median, mode) and dispersion (standard deviation, mix/max/quantile) for different subgroups within the data set.

Code

livestockdata %>% 
  group_by(Area) %>% 
  summarise(averge_value = mean(Value), Max_value=max(Value), Min_value=min(Value))

# A tibble: 253 × 4
   Area                averge_value Max_value Min_value
   <chr>                      <dbl>     <dbl>     <dbl>
 1 Afghanistan             3597216.  21500000     20000
 2 Africa                 78159910. 438110974    706338
 3 Albania                      NA         NA        NA
 4 Algeria                 2575444.  28693330      2000
 5 American Samoa             5399.     14600        88
 6 Americas               95795716. 522867113     66000
 7 Angola                  1123117.   5044019       800
 8 Antigua and Barbuda        7877.     36000       400
 9 Argentina              12879607.  61053808     85198
10 Armenia                  167587.   1000000        25
# … with 243 more rows
…
Summary_Year <- na.omit(livestockdata) %>%
  group_by(Year) %>%
  summarize(
    mean_Value = mean(Value, na.rm = TRUE),
    median_Value = median(Value, na.rm = TRUE),
    min_Value = min(Value, na.rm = TRUE),
    max_Value = max(Value, na.rm = TRUE),
    sd_Value = sd(Value, na.rm = TRUE),
    var_Value = var(Value, na.rm = TRUE),
    IQR_Value = IQR(Value, na.rm = TRUE)
  )
Summary_Year

# A tibble: 58 × 8
    Year mean_Value median_Value min_Value  max_Value  sd_Value var_Va…¹ IQR_V…²
   <dbl>      <dbl>        <dbl>     <dbl>      <dbl>     <dbl>    <dbl>   <dbl>
 1  1961  14080955.      129000         10  994268736 66803024.  4.46e15  2.14e6
 2  1962  14085663.      130000         10  997193122 66008462.  4.36e15  2.01e6
 3  1963  14568714.      154000         10  999696719 67268611.  4.53e15  2.49e6
 4  1964  15101322.      160000         10 1013486149 68974136.  4.76e15  2.61e6
 5  1965  15558689.      140000         10 1030878735 70820667.  5.02e15  2.75e6
 6  1966  15481029.      155000         10 1040688491 72204592.  5.21e15  2.42e6
 7  1967  15804831.      148000         10 1059154631 72456707.  5.25e15  2.54e6
 8  1968  15526705.      105850         10 1074022618 72343610.  5.23e15  2.25e6
 9  1969  15203756.      116412.        12 1080720926 71629580.  5.13e15  2.15e6
10  1970  15475993.      103000         12 1081641464 72217288.  5.22e15  2.24e6
# … with 48 more rows, and abbreviated variable names ¹​var_Value, ²​IQR_Value
…
Summary_Area <- na.omit(livestockdata) %>%
  group_by(Area) %>%
  summarize(
    mean_Value = mean(Value, na.rm = TRUE),
    median_Value = median(Value, na.rm = TRUE),
    min_Value = min(Value, na.rm = TRUE),
    max_Value = max(Value, na.rm = TRUE),
    sd_Value = sd(Value, na.rm = TRUE),
    var_Value = var(Value, na.rm = TRUE),
    IQR_Value = IQR(Value, na.rm = TRUE)
  )
Summary_Area

# A tibble: 240 × 8
   Area                mean_Va…¹ media…² min_V…³ max_V…⁴ sd_Va…⁵ var_V…⁶ IQR_V…⁷
   <chr>                   <dbl>   <dbl>   <dbl>   <dbl>   <dbl>   <dbl>   <dbl>
 1 Afghanistan          2571604.  4.1 e5   20000  1.96e7  4.69e6 2.20e13  2.46e6
 2 Africa              78159910.  1.45e7  706338  4.38e8  1.08e8 1.17e16  1.49e8
 3 Albania               181722.  5.5 e4      93  1.35e6  3.24e5 1.05e11  9.35e4
 4 Algeria                22361.  5   e3    2000  7   e5  9.26e4 8.58e 9  1.5 e3
 5 American Samoa          5858.  9.6 e3      95  1.46e4  5.35e3 2.86e 7  1.04e4
 6 Americas            95795716.  3.22e7   66000  5.23e8  1.39e8 1.93e16  1.26e8
 7 Angola                867412.  2.4 e5     800  5.04e6  1.28e6 1.63e12  1.17e6
 8 Antigua and Barbuda     7426.  3   e3     400  3.6 e4  8.42e3 7.09e 7  1.1 e4
 9 Argentina            3685037.  2.4 e6   88000  4.9 e7  8.14e6 6.63e13  3.52e6
10 Armenia               330230.  3.83e4    6415  1   e6  4.11e5 1.69e11  5.95e5
# … with 230 more rows, and abbreviated variable names ¹​mean_Value,
#   ²​median_Value, ³​min_Value, ⁴​max_Value, ⁵​sd_Value, ⁶​var_Value, ⁷​IQR_Value
…
