Challenge 3
…
Yes, once it is pivoted long, our resulting data are \(12x5\) - exactly what we expected!

Challenge: Pivot the Chosen Data

Document your work here. What will a new “case” be once you have pivoted the data? How does it meet requirements for tidy data?

We will perform a pivot operation on columns 2 through 17 that describe animal weights. This will create a new column called “Animals” which will contain the names of each animal column (e.g., Cattle - dairy, Cattle - non-dairy, etc.). The original column values will be moved to a new column titled “Weight”.

Code

pivoted_data<-weightdata %>% 
pivot_longer(col = c(2:17),names_to="Animals",values_to = "Weight")
pivoted_data

# A tibble: 144 × 3
   `IPCC Area`         Animals            Weight
   <chr>               <chr>               <dbl>
 1 Indian Subcontinent Cattle - dairy      275  
 2 Indian Subcontinent Cattle - non-dairy  110  
 3 Indian Subcontinent Buffaloes           295  
 4 Indian Subcontinent Swine - market       28  
 5 Indian Subcontinent Swine - breeding     28  
 6 Indian Subcontinent Chicken - Broilers    0.9
 7 Indian Subcontinent Chicken - Layers      1.8
 8 Indian Subcontinent Ducks                 2.7
 9 Indian Subcontinent Turkeys               6.8
10 Indian Subcontinent Sheep                28  
# … with 134 more rows
…
