Challenge 4
…
Are there any variables that require mutation to be usable in your analysis stream? For example, are all time variables correctly coded as dates? Are all string variables reduced and cleaned to sensible categories? Do you need to turn any variables into factors and reorder for ease of graphics and visualization?

Document your work here.

Code

mutated_data <- hotelbookdata %>%
    mutate(month = case_when(arrival_date_month == "January" ~ 1,arrival_date_month == "February" ~ 2,arrival_date_month == "March" ~ 3,arrival_date_month == "April" ~ 4,arrival_date_month == "May" ~ 5,arrival_date_month == "June" ~ 6,arrival_date_month == "July" ~ 7,arrival_date_month == "August" ~ 8,arrival_date_month == "September" ~ 9,arrival_date_month == "October" ~ 10,arrival_date_month == "November" ~ 11,arrival_date_month == "December" ~ 12,)) %>%
    mutate(date_of_arrrival = make_date(arrival_date_year, month, arrival_date_day_of_month)) %>%
    select(-c(arrival_date_year, arrival_date_month, arrival_date_day_of_month, month, arrival_date_week_number))

mutated_data

# A tibble: 119,390 × 29
   hotel     is_ca…¹ lead_…² stays…³ stays…⁴ adults child…⁵ babies meal  country
   <chr>       <dbl>   <dbl>   <dbl>   <dbl>  <dbl>   <dbl>  <dbl> <chr> <chr>  
 1 Resort H…       0     342       0       0      2       0      0 BB    PRT    
 2 Resort H…       0     737       0       0      2       0      0 BB    PRT    
 3 Resort H…       0       7       0       1      1       0      0 BB    GBR    
 4 Resort H…       0      13       0       1      1       0      0 BB    GBR    
 5 Resort H…       0      14       0       2      2       0      0 BB    GBR    
 6 Resort H…       0      14       0       2      2       0      0 BB    GBR    
 7 Resort H…       0       0       0       2      2       0      0 BB    PRT    
 8 Resort H…       0       9       0       2      2       0      0 FB    PRT    
 9 Resort H…       1      85       0       3      2       0      0 BB    PRT    
10 Resort H…       1      75       0       3      2       0      0 HB    PRT    
# … with 119,380 more rows, 19 more variables: market_segment <chr>,
#   distribution_channel <chr>, is_repeated_guest <dbl>,
#   previous_cancellations <dbl>, previous_bookings_not_canceled <dbl>,
#   reserved_room_type <chr>, assigned_room_type <chr>, booking_changes <dbl>,
#   deposit_type <chr>, agent <chr>, company <chr>, days_in_waiting_list <dbl>,
#   customer_type <chr>, adr <dbl>, required_car_parking_spaces <dbl>,
#   total_of_special_requests <dbl>, reservation_status <chr>, …
…
