Challenge 1
…
 colnames(wild_birds)

 [1] "Domain Code"      "Domain"           "Area Code"        "Area"            
 [5] "Element Code"     "Element"          "Item Code"        "Item"            
 [9] "Year Code"        "Year"             "Unit"             "Value"           
[13] "Flag"             "Flag Description"

the dataset’s column names.

Code

 filter(wild_birds, `Area`=="Afghanistan" & `Element`=="Laying")

# A tibble: 58 × 14
   Domain Cod…¹ Domain Area …² Area  Eleme…³ Element Item …⁴ Item  Year …⁵  Year
   <chr>        <chr>    <dbl> <chr>   <dbl> <chr>     <dbl> <chr>   <dbl> <dbl>
 1 QL           Lives…       2 Afgh…    5313 Laying     1062 Eggs…    1961  1961
 2 QL           Lives…       2 Afgh…    5313 Laying     1062 Eggs…    1962  1962
 3 QL           Lives…       2 Afgh…    5313 Laying     1062 Eggs…    1963  1963
 4 QL           Lives…       2 Afgh…    5313 Laying     1062 Eggs…    1964  1964
 5 QL           Lives…       2 Afgh…    5313 Laying     1062 Eggs…    1965  1965
 6 QL           Lives…       2 Afgh…    5313 Laying     1062 Eggs…    1966  1966
 7 QL           Lives…       2 Afgh…    5313 Laying     1062 Eggs…    1967  1967
 8 QL           Lives…       2 Afgh…    5313 Laying     1062 Eggs…    1968  1968
 9 QL           Lives…       2 Afgh…    5313 Laying     1062 Eggs…    1969  1969
10 QL           Lives…       2 Afgh…    5313 Laying     1062 Eggs…    1970  1970
# … with 48 more rows, 4 more variables: Unit <chr>, Value <dbl>, Flag <chr>,
#   `Flag Description` <chr>, and abbreviated variable names ¹​`Domain Code`,
#   ²​`Area Code`, ³​`Element Code`, ⁴​`Item Code`, ⁵​`Year Code`
…
 wild_birds%>%
  select(`Area`) %>%
  n_distinct(.)

[1] 245

There are 245 distinct areas.

Code

 wild_birds%>%
  select(`Area`) %>%
  distinct(.)

# A tibble: 245 × 1
   Area               
   <chr>              
 1 Afghanistan        
 2 Albania            
 3 Algeria            
 4 American Samoa     
 5 Angola             
 6 Antigua and Barbuda
 7 Argentina          
 8 Armenia            
 9 Australia          
10 Austria            
# … with 235 more rows
…
