Challenge 4 submission
…
library(tidyverse)
library(summarytools)
library(readr)
library(readxl)
library(lubridate)

knitr::opts_chunk$set(echo = TRUE, warning=FALSE, message=FALSE)

Code

#displaying the dataset
eggs_data<- read_csv("B:/Needels/Documents/DACCS 601/DACSS_601_New/posts/_data/poultry_tidy.csv")
eggs_data

# A tibble: 600 × 4
   Product  Year Month     Price_Dollar
   <chr>   <dbl> <chr>            <dbl>
 1 Whole    2013 January           2.38
 2 Whole    2013 February          2.38
 3 Whole    2013 March             2.38
 4 Whole    2013 April             2.38
 5 Whole    2013 May               2.38
 6 Whole    2013 June              2.38
 7 Whole    2013 July              2.38
 8 Whole    2013 August            2.38
 9 Whole    2013 September         2.38
10 Whole    2013 October           2.38
# … with 590 more rows
…
#convert Month -> numbers
eggs_mutate <- eggs_data %>%
  mutate(Month_num = recode(Month, "January" = 1, "February" = 2, "March" = 3, "April" = 4, "May" = 5, "June" = 6, "July" = 7, "August" = 8, "September" = 9, "October" = 10, "November" = 11, "December" = 12))

#assigning IDs to chicken types
eggs_mutate <- eggs_mutate %>%
  mutate(Chicken_ID = recode(Product, "B/S Breast" = 1, 
                             "Bone-in Breast" = 2, 
                             "Thighs" = 3, 
                             "Whole" = 4, 
                             "Whole Legs" = 5))
eggs_mutate

# A tibble: 600 × 6
   Product  Year Month     Price_Dollar Month_num Chicken_ID
   <chr>   <dbl> <chr>            <dbl>     <dbl>      <dbl>
 1 Whole    2013 January           2.38         1          4
 2 Whole    2013 February          2.38         2          4
 3 Whole    2013 March             2.38         3          4
 4 Whole    2013 April             2.38         4          4
 5 Whole    2013 May               2.38         5          4
 6 Whole    2013 June              2.38         6          4
 7 Whole    2013 July              2.38         7          4
 8 Whole    2013 August            2.38         8          4
 9 Whole    2013 September         2.38         9          4
10 Whole    2013 October           2.38        10          4
# … with 590 more rows
…
