Challenge 3 Submission
…
With 120 rows in the current data set and 6 columns. 2 columns describe the case of the data set which include the month and year. The remainder of the 4 describe the carton and size of eggs.

After creating the carton_type column and the price_per_pound column there are 4 columns total. We should now expect to see 480 columns total because the old 4 columns merged into new rows multiplying the 120 by four times.

Pivot the Data

Code

eggs_data <-pivot_longer(eggs_data, col = c(large_half_dozen, large_dozen, extra_large_half_dozen, extra_large_dozen),
                         names_to= "carton_size",
                         values_to= "price_per_pound")
eggs_data

# A tibble: 480 × 4
   month     year carton_size            price_per_pound
   <chr>    <int> <chr>                            <dbl>
 1 January   2004 large_half_dozen                  126 
 2 January   2004 large_dozen                       230 
 3 January   2004 extra_large_half_dozen            132 
 4 January   2004 extra_large_dozen                 230 
 5 February  2004 large_half_dozen                  128.
 6 February  2004 large_dozen                       226.
 7 February  2004 extra_large_half_dozen            134.
 8 February  2004 extra_large_dozen                 230 
 9 March     2004 large_half_dozen                  131 
10 March     2004 large_dozen                       225 
# … with 470 more rows
…
