Challenge 6
…
04:Q2
5.967
0.367
0.743
0.697
0.2629
0.4231
8.4600

Here is a preview of the data we will be using.

# A tibble: 518 × 4
    Year Quarter Type.of.Debt Value
   <dbl> <chr>   <chr>        <dbl>
 1     3 Q1      Mortgage     4.94 
 2     3 Q1      HE.Revolving 0.242
 3     3 Q1      Auto.Loan    0.641
 4     3 Q1      Credit.Card  0.688
 5     3 Q1      Student.Loan 0.241
 6     3 Q1      Other        0.478
 7     3 Q1      Total        7.23 
 8     3 Q2      Mortgage     5.08 
 9     3 Q2      HE.Revolving 0.26 
10     3 Q2      Auto.Loan    0.622
# ℹ 508 more rows
…
