Challenge 3
…
December
2013
extra_large
half_dozen
188.130

December
2013
extra_large
dozen
290.000

# A tibble: 480 × 4
   month     year size_quantity          price
   <chr>    <int> <chr>                  <dbl>
 1 January   2004 large half_dozen        126 
 2 January   2004 large dozen             230 
 3 January   2004 extra_large half_dozen  132 
 4 January   2004 extra_large dozen       230 
 5 February  2004 large half_dozen        128.
 6 February  2004 large dozen             226.
 7 February  2004 extra_large half_dozen  134.
 8 February  2004 extra_large dozen       230 
 9 March     2004 large half_dozen        131 
10 March     2004 large dozen             225 
# … with 470 more rows
