Challenge 6 Solutions
…
year_unemploy <- fed_rates %>%
  pivot_wider(names_from = variable, values_from = value) %>%
  mutate(year=year(date)) %>%
  group_by(year) %>%
  summarise(median_rate=median(unemploy)/100) %>%
  ungroup()
year_unemploy

# A tibble: 64 × 2
    year median_rate
   <dbl>       <dbl>
 1  1954      0.0575
 2  1955      0.0425
 3  1956      0.0415
 4  1957      0.042 
 5  1958      0.069 
 6  1959      0.054 
 7  1960      0.0545
 8  1961      0.068 
 9  1962      0.0555
10  1963      0.0565
# … with 54 more rows
…
ushh_orig <- here("posts","_data","USA Households by Total Money Income, Race, and Hispanic Origin of Householder 1967 to 2019.xlsx") %>%
  read_excel(skip=5,
         n_max = 352,
         col_names = c("year", "hholds", "del",
                       str_c("income",1:9,sep="_i"),
                       "median_inc", "median_se", 
                       "mean_inc","mean_se"))%>%
  select(-del)
ushh_orig 

# A tibble: 352 × 15
   year   hholds incom…¹ incom…² incom…³ incom…⁴ incom…⁵ incom…⁶ incom…⁷ incom…⁸
   <chr>  <chr>    <dbl>   <dbl>   <dbl>   <dbl>   <dbl>   <dbl>   <dbl>   <dbl>
 1 ALL R… <NA>      NA      NA      NA      NA      NA      NA      NA      NA  
 2 2019   128451     9.1     8       8.3    11.7    16.5    12.3    15.5     8.3
 3 2018   128579    10.1     8.8     8.7    12      17      12.5    15       7.2
 4 2017 2 127669    10       9.1     9.2    12      16.4    12.4    14.7     7.3
 5 2017   127586    10.1     9.1     9.2    11.9    16.3    12.6    14.8     7.5
 6 2016   126224    10.4     9       9.2    12.3    16.7    12.2    15       7.2
 7 2015   125819    10.6    10       9.6    12.1    16.1    12.4    14.9     7.1
 8 2014   124587    11.4    10.5     9.6    12.6    16.4    12.1    14       6.6
 9 2013 3 123931    11.4    10.3     9.5    12.5    16.8    12      13.9     6.7
10 2013 4 122952    11.3    10.4     9.7    13.1    17      12.5    13.6     6.3
# … with 342 more rows, 5 more variables: income_i9 <dbl>, median_inc <dbl>,
#   median_se <dbl>, mean_inc <chr>, mean_se <chr>, and abbreviated variable
#   names ¹​income_i1, ²​income_i2, ³​income_i3, ⁴​income_i4, ⁵​income_i5,
#   ⁶​income_i6, ⁷​income_i7, ⁸​income_i8
…
ushh_id<-ushh_id%>%
  separate(year, into=c("year", "delete"), sep=" ")%>%
  mutate(identity = str_remove(identity, " [0-9]+"),
         across(any_of(c("hholds", "mean_inc", "mean_se", "year")), 
                as.numeric))%>%
  select(-delete)

ushh_id

# A tibble: 340 × 16
    year hholds income…¹ incom…² incom…³ incom…⁴ incom…⁵ incom…⁶ incom…⁷ incom…⁸
   <dbl>  <dbl>    <dbl>   <dbl>   <dbl>   <dbl>   <dbl>   <dbl>   <dbl>   <dbl>
 1  2019 128451      9.1     8       8.3    11.7    16.5    12.3    15.5     8.3
 2  2018 128579     10.1     8.8     8.7    12      17      12.5    15       7.2
 3  2017 127669     10       9.1     9.2    12      16.4    12.4    14.7     7.3
 4  2017 127586     10.1     9.1     9.2    11.9    16.3    12.6    14.8     7.5
 5  2016 126224     10.4     9       9.2    12.3    16.7    12.2    15       7.2
 6  2015 125819     10.6    10       9.6    12.1    16.1    12.4    14.9     7.1
 7  2014 124587     11.4    10.5     9.6    12.6    16.4    12.1    14       6.6
 8  2013 123931     11.4    10.3     9.5    12.5    16.8    12      13.9     6.7
 9  2013 122952     11.3    10.4     9.7    13.1    17      12.5    13.6     6.3
10  2012 122459     11.4    10.6    10.1    12.5    17.4    12      13.9     6.3
# … with 330 more rows, 6 more variables: income_i9 <dbl>, median_inc <dbl>,
#   median_se <dbl>, mean_inc <dbl>, mean_se <dbl>, identity <chr>, and
#   abbreviated variable names ¹​income_i1, ²​income_i2, ³​income_i3, ⁴​income_i4,
#   ⁵​income_i5, ⁶​income_i6, ⁷​income_i7, ⁸​income_i8
…
bookings_cumul <- bookings %>%
  group_by(date_arrival) %>%
  summarise(n=n()) %>%
  ungroup() %>%
  mutate(n_cumul=cumsum(n))
bookings_cumul

# A tibble: 793 × 3
   date_arrival     n n_cumul
   <date>       <int>   <int>
 1 2015-07-01     122     122
 2 2015-07-02      93     215
 3 2015-07-03      56     271
 4 2015-07-04      88     359
 5 2015-07-05      53     412
 6 2015-07-06      75     487
 7 2015-07-07      54     541
 8 2015-07-08      69     610
 9 2015-07-09      80     690
10 2015-07-10      51     741
# … with 783 more rows
…
bookings_month_n <- bookings %>%
  mutate(month=floor_date(date_arrival,unit="month")) %>%
  group_by(month) %>%
  summarise(n=n()) %>%
  ungroup()

bookings_month_n

# A tibble: 26 × 2
   month          n
   <date>     <int>
 1 2015-07-01  2776
 2 2015-08-01  3889
 3 2015-09-01  5114
 4 2015-10-01  4957
 5 2015-11-01  2340
 6 2015-12-01  2920
 7 2016-01-01  2248
 8 2016-02-01  3891
 9 2016-03-01  4824
10 2016-04-01  5428
# … with 16 more rows
…
bookings_month_hotel_n <- bookings %>%
  mutate(month=floor_date(date_arrival,unit="month")) %>%
  group_by(month, hotel) %>%
  summarise(n=n()) %>%
  ungroup()
bookings_month_hotel_n

# A tibble: 52 × 3
   month      hotel            n
   <date>     <chr>        <int>
 1 2015-07-01 City Hotel    1398
 2 2015-07-01 Resort Hotel  1378
 3 2015-08-01 City Hotel    2480
 4 2015-08-01 Resort Hotel  1409
 5 2015-09-01 City Hotel    3529
 6 2015-09-01 Resort Hotel  1585
 7 2015-10-01 City Hotel    3386
 8 2015-10-01 Resort Hotel  1571
 9 2015-11-01 City Hotel    1235
10 2015-11-01 Resort Hotel  1105
# … with 42 more rows
…
