Challenge 1
…
Code

# get unique area fields and items
area_unique <- unique(df_birds[ , c("Area Code", "Area")])
area_unique

# A tibble: 248 × 2
   `Area Code` Area               
         <dbl> <chr>              
 1           2 Afghanistan        
 2           3 Albania            
 3           4 Algeria            
 4           5 American Samoa     
 5           7 Angola             
 6           8 Antigua and Barbuda
 7           9 Argentina          
 8           1 Armenia            
 9          22 Aruba              
10          10 Australia          
# … with 238 more rows
…
#get range of year column
year <- select(df_birds, Year)
range_year <- c(min(year),max(year))
range_year

[1] 1961 2018

Code

#Get Unique flags with all variables
flags_unique <- unique(df_birds[ , c("Domain", "Area","Item","Year","Flag","Flag Description")])
flags_unique

# A tibble: 30,977 × 6
   Domain       Area        Item      Year Flag  `Flag Description`
   <chr>        <chr>       <chr>    <dbl> <chr> <chr>             
 1 Live Animals Afghanistan Chickens  1961 F     FAO estimate      
 2 Live Animals Afghanistan Chickens  1962 F     FAO estimate      
 3 Live Animals Afghanistan Chickens  1963 F     FAO estimate      
 4 Live Animals Afghanistan Chickens  1964 F     FAO estimate      
 5 Live Animals Afghanistan Chickens  1965 F     FAO estimate      
 6 Live Animals Afghanistan Chickens  1966 F     FAO estimate      
 7 Live Animals Afghanistan Chickens  1967 F     FAO estimate      
 8 Live Animals Afghanistan Chickens  1968 <NA>  Official data     
 9 Live Animals Afghanistan Chickens  1969 F     FAO estimate      
10 Live Animals Afghanistan Chickens  1970 F     FAO estimate      
# … with 30,967 more rows
…
