Challenge 2 Instructions
…
Read Birds.csv and get summary for each item

Code

df_birds <- read_csv("_data/birds.csv")
df_birds_select <- df_birds %>%
  select('Area', 'Item', 'Year', 'Unit', 'Value', 'Flag', 'Flag Description')

df_birds_select %>%
  filter(Value != "") %>%
  group_by(Year, Item) %>%
  summarize(mean = mean(Value),
            median = median(Value))

# A tibble: 290 × 4
# Groups:   Year [58]
    Year Item                     mean median
   <dbl> <chr>                   <dbl>  <dbl>
 1  1961 Chickens               74060.  4184 
 2  1961 Ducks                   7232.   380 
 3  1961 Geese and guinea fowls  2364.   336.
 4  1961 Pigeons, other birds    3307.  2270 
 5  1961 Turkeys                10610.   312 
 6  1962 Chickens               76753.  4300 
 7  1962 Ducks                   7520.   345 
 8  1962 Geese and guinea fowls  2435.   311 
 9  1962 Pigeons, other birds    3771.  3000 
10  1962 Turkeys                 9043    329 
# … with 280 more rows
…
Code

df_birds_select %>%
  group_by(Item, Year) %>%
  summarise(mean = mean(Value, na.rm = TRUE),
            median = median(Value, na.rm = TRUE))

# A tibble: 290 × 4
# Groups:   Item [5]
   Item      Year   mean median
   <chr>    <dbl>  <dbl>  <dbl>
 1 Chickens  1961 74060.  4184 
 2 Chickens  1962 76753.  4300 
 3 Chickens  1963 78922.  4500 
 4 Chickens  1964 80213.  4600 
 5 Chickens  1965 82458.  4930 
 6 Chickens  1966 83880.  5208.
 7 Chickens  1967 88047.  5056 
 8 Chickens  1968 91003.  5250 
 9 Chickens  1969 94121.  6000 
10 Chickens  1970 98297.  6070.
# … with 280 more rows
…
