Challenge 2 Instructions
…
railroad*.csv or StateCounty2012.xls ⭐

FAOstat*.csv or birds.csv ⭐⭐⭐

hotel_bookings.csv ⭐⭐⭐⭐

Code

library(tidyverse)
railroads <- read_csv('_data/railroad_2012_clean_county.csv', show_col_types = FALSE)
railroads <- rename(railroads, counties = county)
railroads

# A tibble: 2,930 × 3
   state counties             total_employees
   <chr> <chr>                          <dbl>
 1 AE    APO                                2
 2 AK    ANCHORAGE                          7
 3 AK    FAIRBANKS NORTH STAR               2
 4 AK    JUNEAU                             3
 5 AK    MATANUSKA-SUSITNA                  2
 6 AK    SITKA                              1
 7 AK    SKAGWAY MUNICIPALITY              88
 8 AL    AUTAUGA                          102
 9 AL    BALDWIN                          143
10 AL    BARBOUR                            1
# ℹ 2,920 more rows
…
# A tibble: 1 × 3
  state counties total_employees
  <dbl>    <dbl>           <dbl>
1    NA       NA              21

Total count of employees for each state:

Code

state_wise_ct = select(railroads, state, total_employees)
state_wise_ct %>% 
  group_by(state) %>%
  summarize(totalEmployees=sum(total_employees))

# A tibble: 53 × 2
   state totalEmployees
   <chr>          <dbl>
 1 AE                 2
 2 AK               103
 3 AL              4257
 4 AP                 1
 5 AR              3871
 6 AZ              3153
 7 CA             13137
 8 CO              3650
 9 CT              2592
10 DC               279
# ℹ 43 more rows

Code

state_wise_ct

# A tibble: 2,930 × 2
   state total_employees
   <chr>           <dbl>
 1 AE                  2
 2 AK                  7
 3 AK                  2
 4 AK                  3
 5 AK                  2
 6 AK                  1
 7 AK                 88
 8 AL                102
 9 AL                143
10 AL                  1
# ℹ 2,920 more rows

Median, Mean and standard deviation of employee counts in every state:

Code

state_wise_ct = select(railroads, state, total_employees)
state_wise_ct %>% 
  group_by(state) %>%
  summarize(meanEmployees=mean(total_employees),medianEmployees=median(total_employees),standardDeviation = sd(total_employees))

# A tibble: 53 × 4
   state meanEmployees medianEmployees standardDeviation
   <chr>         <dbl>           <dbl>             <dbl>
 1 AE              2               2                NA  
 2 AK             17.2             2.5              34.8
 3 AL             63.5            26               130. 
 4 AP              1               1                NA  
 5 AR             53.8            16.5             131. 
 6 AZ            210.             94               228. 
 7 CA            239.             61               549. 
 8 CO             64.0            10               128. 
 9 CT            324             125               520. 
10 DC            279             279                NA  
# ℹ 43 more rows

State wise employees count arranged and displayed in descending order :

Code

state_wise_grouped_cts <- state_wise_ct %>% 
  group_by(state) %>%
  summarize(Sum = sum(total_employees))

sorted_counts <- state_wise_grouped_cts %>%
  arrange(desc(Sum))

sorted_counts

# A tibble: 53 × 2
   state   Sum
   <chr> <dbl>
 1 TX    19839
 2 IL    19131
 3 NY    17050
 4 NE    13176
 5 CA    13137
 6 PA    12769
 7 OH     9056
 8 GA     8605
 9 IN     8537
10 MO     8419
# ℹ 43 more rows
…
