Challenge 2
…
Error in railroad(.): could not find function "railroad"

Code

railroad %>%
  group_by(state)%>%
  select (`total_employees`)%>%
  summarize_all(mean, na.rm=TRUE) %>%
  print(n=50)

# A tibble: 53 × 2
   state total_employees
   <chr>           <dbl>
 1 AE               2   
 2 AK              17.2 
 3 AL              63.5 
 4 AP               1   
 5 AR              53.8 
 6 AZ             210.  
 7 CA             239.  
 8 CO              64.0 
 9 CT             324   
10 DC             279   
11 DE             498.  
12 FL             111.  
13 GA              56.6 
14 HI               1.33
15 IA              40.6 
16 ID              43.4 
17 IL             186.  
18 IN              92.8 
19 KS              64.1 
20 KY              40.4 
21 LA              62.1 
22 MA             282.  
23 MD             196.  
24 ME              40.9 
25 MI              50.4 
26 MN              63.6 
27 MO              73.2 
28 MS              27.1 
29 MT              62.8 
30 NC              33.4 
31 ND              45.0 
32 NE             148.  
33 NH              39.3 
34 NJ             397.  
35 NM              67.5 
36 NV              62.2 
37 NY             280.  
38 OH             103.  
39 OK              31.8 
40 OR              70.4 
41 PA             196.  
42 RI              97.4 
43 SC              49.9 
44 SD              18.2 
45 TN              54.4 
46 TX              89.8 
47 UT              76.7 
48 VA              82.1 
49 VT              18.5 
50 WA             134.  
# … with 3 more rows
…
Error in `geom_point()`:
! Problem while computing aesthetics.
ℹ Error occurred in the 1st layer.
Caused by error in `FUN()`:
! object 'mean_employees' not found

Code

railroad%>%
  group_by(county, total_employees)%>%
  select (`total_employees`)%>%
  summarize_all(sum, na.rm=TRUE)

# A tibble: 2,860 × 2
# Groups:   county [1,709]
   county    total_employees
   <chr>               <int>
 1 ABBEVILLE             124
 2 ACADIA                 13
 3 ACCOMACK                4
 4 ADA                    81
 5 ADAIR                   1
 6 ADAIR                   2
 7 ADAIR                   5
 8 ADAIR                  21
 9 ADAMS                   2
10 ADAMS                   3
# … with 2,850 more rows
…
