Challenge 3 - Eggs
…
ncol(eggs)

[1] 6

Lets see if this works with a simple example.

Code

eggs_pivotlong <- eggs %>%
  pivot_longer(col = c(large_half_dozen, large_dozen, extra_large_half_dozen, extra_large_dozen),
               names_to = "Type_of_Carton",
               values_to = "price_per_pound")
eggs_pivotlong

# A tibble: 480 × 4
   month     year Type_of_Carton         price_per_pound
   <chr>    <int> <chr>                            <dbl>
 1 January   2004 large_half_dozen                  126 
 2 January   2004 large_dozen                       230 
 3 January   2004 extra_large_half_dozen            132 
 4 January   2004 extra_large_dozen                 230 
 5 February  2004 large_half_dozen                  128.
 6 February  2004 large_dozen                       226.
 7 February  2004 extra_large_half_dozen            134.
 8 February  2004 extra_large_dozen                 230 
 9 March     2004 large_half_dozen                  131 
10 March     2004 large_dozen                       225 
# … with 470 more rows
…
