Pivioting Poultry
…
library(tidyverse)
library(lubridate)

knitr::opts_chunk$set(echo = TRUE)

Read in the Data

Code

poultry_data <-readxl::read_excel("_data/poultry_tidy.xlsx")

poultry_data

# A tibble: 600 × 4
   Product  Year Month     Price_Dollar
   <chr>   <dbl> <chr>            <dbl>
 1 Whole    2013 January           2.38
 2 Whole    2013 February          2.38
 3 Whole    2013 March             2.38
 4 Whole    2013 April             2.38
 5 Whole    2013 May               2.38
 6 Whole    2013 June              2.38
 7 Whole    2013 July              2.38
 8 Whole    2013 August            2.38
 9 Whole    2013 September         2.38
10 Whole    2013 October           2.38
# … with 590 more rows
…
