Challenge 3: Australian Marriages
…
Code

#A clean version of the federal_electoral_division data
clean_fed <- federal_electoral_divison %>% 
        select(!c("White Space", "Clear Count", "Clear Total Count") & !contains("%")) %>%
        filter(!grepl("(Total)", Zone)) %>%
        mutate(Division = case_when(str_ends(Zone, "Divisions") ~ Zone,
                                    TRUE ~ NA_character_ )) %>%
        fill(Division, .direction = "down") %>%
        filter(!is.na(`Total Count`))
  
clean_fed

# A tibble: 150 × 7
   Zone      `Yes Count` `No Count` `Unclear Count` Non-respon…¹ Total…² Divis…³
   <chr>           <dbl>      <dbl>           <dbl>        <dbl>   <dbl> <chr>  
 1 Banks           37736      46343             247        20928  105254 New So…
 2 Barton          37153      47984             226        24008  109371 New So…
 3 Bennelong       42943      43215             244        19973  106375 New So…
 4 Berowra         48471      40369             212        16038  105090 New So…
 5 Blaxland        20406      57926             220        25883  104435 New So…
 6 Bradfield       53681      34927             202        17261  106071 New So…
 7 Calare          54091      35779             285        25342  115497 New So…
 8 Chifley         32871      46702             263        28180  108016 New So…
 9 Cook            47505      38804             229        18713  105251 New So…
10 Cowper          57493      38317             315        25197  121322 New So…
# … with 140 more rows, and abbreviated variable names ¹​`Non-response Count`,
#   ²​`Total Count`, ³​Division
…
With the data frames clean we can see our starting tibble dimensions are 9x12 for the states and territories (S.a.T.) table and 150x12 for the federal electoral division (F.E.D.) table. For the S.a.T. table in order to make it tidy We want each row to contain one observation. I plan on pivoting the table longer so that each observation consist of the count for one type of response, with 4 responses total (Yes, No, Unclear, Unresponsive, or total) for each Division. This will leave me with 3 total columns and 45 rows.

For the F.E.D. table we will do the same pivot except we will add an extra column for division, so that each electoral zone can be group by which territory division they fall into. This should leave the F.E.D table with dimensions 750x4.

Code

tidy_sat <- clean_sat %>%
        pivot_longer(-c(`Division`),
        names_to = c('Vote Type', '.value'),
        names_sep = ('\\s')
        )

tidy_sat

# A tibble: 45 × 3
   Division        `Vote Type`    Count
   <chr>           <chr>          <dbl>
 1 New South Wales Yes          2374362
 2 New South Wales No           1736838
 3 New South Wales Unclear        11036
 4 New South Wales Non-response 1065445
 5 New South Wales Total        5187681
 6 Victoria        Yes          2145629
 7 Victoria        No           1161098
 8 Victoria        Unclear        11028
 9 Victoria        Non-response  743634
10 Victoria        Total        4061389
# … with 35 more rows

Code

tidy_fed <- clean_fed %>%
        pivot_longer(-c(`Zone`, `Division`),
        names_to = c('Vote Type', '.value'),
        names_sep = ('\\s')
        )

tidy_fed

# A tibble: 750 × 4
   Zone   Division                  `Vote Type`   Count
   <chr>  <chr>                     <chr>         <dbl>
 1 Banks  New South Wales Divisions Yes           37736
 2 Banks  New South Wales Divisions No            46343
 3 Banks  New South Wales Divisions Unclear         247
 4 Banks  New South Wales Divisions Non-response  20928
 5 Banks  New South Wales Divisions Total        105254
 6 Barton New South Wales Divisions Yes           37153
 7 Barton New South Wales Divisions No            47984
 8 Barton New South Wales Divisions Unclear         226
 9 Barton New South Wales Divisions Non-response  24008
10 Barton New South Wales Divisions Total        109371
# … with 740 more rows
…
