Challenge 2: Railroad Wrangling
…
Code

#A data frame of just totals
state_totals <- railroad_data %>%
                filter(grepl("Total", STATE)) %>%
                select(!COUNTY)

#A data frame of no totals 
removed_state_totals <- railroad_data %>%
                        filter(!grepl("Total", STATE))

state_totals

# A tibble: 54 × 2
   STATE     TOTAL
   <chr>     <dbl>
 1 AE Total1     2
 2 AK Total    103
 3 AL Total   4257
 4 AP Total1     1
 5 AR Total   3871
 6 AZ Total   3153
 7 CA Total  13137
 8 CO Total   3650
 9 CT Total   2592
10 DC Total    279
# … with 44 more rows
…
