Cereal Visualization
…
The data set shows the sugar (g) and sodium (mg) content per serving for 20 different cereals. It also categorizes the cereals as children cereals or adult cereals (in the type column).

Tidy the Data

In order to make the data tidy, I pivoted it longer to a 40x4 tibble so that each row can be a separate observation, either the sugar content or the sodium content.

Code

cereal_tidy <- pivot_longer(cereal, c(Sodium, Sugar), names_to = "Chemical", values_to = "Amount")
cereal_tidy

# A tibble: 40 × 4
   Cereal              Type  Chemical Amount
   <chr>               <chr> <chr>     <int>
 1 Frosted Mini Wheats A     Sodium        0
 2 Frosted Mini Wheats A     Sugar        11
 3 Raisin Bran         A     Sodium      340
 4 Raisin Bran         A     Sugar        18
 5 All Bran            A     Sodium       70
 6 All Bran            A     Sugar         5
 7 Apple Jacks         C     Sodium      140
 8 Apple Jacks         C     Sugar        14
 9 Captain Crunch      C     Sodium      200
10 Captain Crunch      C     Sugar        12
# … with 30 more rows
…
