SNL Joining
…
Code

seasons <- casts %>%     #Create a Gender Percent breakdown for each season
        group_by(sid) %>%
        add_count(name = "total") %>%
        group_by(sid, gender)%>%
        add_count(name = "gender_total") %>%
        mutate(gender_percent = gender_total/total) %>%
        select(sid, gender, gender_percent) %>%
        slice(1) %>%
        full_join(seasons, by= "sid")

seasons

# A tibble: 102 × 7
# Groups:   sid, gender [102]
     sid gender gender_percent  year first_epid last_epid  n_episodes
   <int> <chr>           <dbl> <int> <date>     <date>          <int>
 1     1 female          0.333  1975 1975-10-11 1976-07-31         24
 2     1 male            0.667  1975 1975-10-11 1976-07-31         24
 3     2 female          0.375  1976 1976-09-18 1977-05-21         22
 4     2 male            0.625  1976 1976-09-18 1977-05-21         22
 5     3 female          0.333  1977 1977-09-24 1978-05-20         20
 6     3 male            0.667  1977 1977-09-24 1978-05-20         20
 7     4 female          0.333  1978 1978-10-07 1979-05-26         20
 8     4 male            0.667  1978 1978-10-07 1979-05-26         20
 9     5 female          0.2    1979 1979-10-13 1980-05-24         20
10     5 male            0.8    1979 1979-10-13 1980-05-24         20
# … with 92 more rows
…
