Tidying and Pivoting: Challenge 3
…
# fill in missing values in Year column
cleanpoultry <- fill(cleanpoultry, Year)

#remove unnecessary column
cleanpoultry <- cleanpoultry[, -which(names(cleanpoultry) == " ")]

## make all datatypes the same
cleanpoultry <- cleanpoultry %>%
  mutate(Boneinbreast = as.numeric(Boneinbreast),
         Thighs = as.numeric(Thighs))

cleanpoultry

# A tibble: 120 × 11
   Month      Year Xtral…¹ Xtral_6 Large…² Large_6 Whole Bsbre…³ Bonei…⁴ Whole…⁵
   <chr>     <int>   <dbl>   <dbl>   <dbl>   <dbl> <dbl>   <dbl>   <dbl>   <dbl>
 1 Jan        2004    230     132     230     126   198.    646.     NA     194.
 2 February   2004    230     134.    226.    128.  198.    642.     NA     194.
 3 March      2004    230     137     225     131   209     642.     NA     194.
 4 April      2004    234.    137     225     131   212     642.     NA     194.
 5 May        2004    236     137     225     131   214.    642.     NA     194.
 6 June       2004    241     137     231.    134.  216.    641      NA     202.
 7 July       2004    241     137     234.    134.  217     642.    390.    204.
 8 August     2004    241     137     234.    134.  217     642.    390.    204.
 9 September  2004    241     136.    234.    130.  217     642.    390.    204.
10 October    2004    241     136.    234.    128.  217     642.    390.    204.
# … with 110 more rows, 1 more variable: Thighs <dbl>, and abbreviated variable
#   names ¹​Xtral_12, ²​Large_12, ³​Bsbreast, ⁴​Boneinbreast, ⁵​Wholelegs
…
[1] 1080

Code

# expected columns 
ncol(cleanpoultry) - 9 + 2

[1] 4

Code

cleanpoultry

# A tibble: 120 × 11
   Month      Year Xtral…¹ Xtral_6 Large…² Large_6 Whole Bsbre…³ Bonei…⁴ Whole…⁵
   <chr>     <int>   <dbl>   <dbl>   <dbl>   <dbl> <dbl>   <dbl>   <dbl>   <dbl>
 1 Jan        2004    230     132     230     126   198.    646.     NA     194.
 2 February   2004    230     134.    226.    128.  198.    642.     NA     194.
 3 March      2004    230     137     225     131   209     642.     NA     194.
 4 April      2004    234.    137     225     131   212     642.     NA     194.
 5 May        2004    236     137     225     131   214.    642.     NA     194.
 6 June       2004    241     137     231.    134.  216.    641      NA     202.
 7 July       2004    241     137     234.    134.  217     642.    390.    204.
 8 August     2004    241     137     234.    134.  217     642.    390.    204.
 9 September  2004    241     136.    234.    130.  217     642.    390.    204.
10 October    2004    241     136.    234.    128.  217     642.    390.    204.
# … with 110 more rows, 1 more variable: Thighs <dbl>, and abbreviated variable
#   names ¹​Xtral_12, ²​Large_12, ³​Bsbreast, ⁴​Boneinbreast, ⁵​Wholelegs

Pivot the Data

Code

#now we pivot the data

cleanpoultry <-pivot_longer(cleanpoultry, col = c("Xtral_12", "Xtral_6", "Large_12", "Large_6", "Whole", "Bsbreast", "Boneinbreast", "Wholelegs", "Thighs"),
                 names_to="Eggs & Poultry Type",
                 values_to = "Cost")
cleanpoultry

# A tibble: 1,080 × 4
   Month     Year `Eggs & Poultry Type`  Cost
   <chr>    <int> <chr>                 <dbl>
 1 Jan       2004 Xtral_12               230 
 2 Jan       2004 Xtral_6                132 
 3 Jan       2004 Large_12               230 
 4 Jan       2004 Large_6                126 
 5 Jan       2004 Whole                  198.
 6 Jan       2004 Bsbreast               646.
 7 Jan       2004 Boneinbreast            NA 
 8 Jan       2004 Wholelegs              194.
 9 Jan       2004 Thighs                  NA 
10 February  2004 Xtral_12               230 
# … with 1,070 more rows
…
