Challenge 2
…
library(dplyr)

birds_grouped <- df %>%
  group_by(Year)
  
print("Data grouped by year:")

[1] "Data grouped by year:"

Code

print(birds_grouped)

# A tibble: 30,977 × 14
# Groups:   Year [58]
   `Domain Code` Domain     `Area Code` Area  `Element Code` Element `Item Code`
   <chr>         <chr>            <dbl> <chr>          <dbl> <chr>         <dbl>
 1 QA            Live Anim…           2 Afgh…           5112 Stocks         1057
 2 QA            Live Anim…           2 Afgh…           5112 Stocks         1057
 3 QA            Live Anim…           2 Afgh…           5112 Stocks         1057
 4 QA            Live Anim…           2 Afgh…           5112 Stocks         1057
 5 QA            Live Anim…           2 Afgh…           5112 Stocks         1057
 6 QA            Live Anim…           2 Afgh…           5112 Stocks         1057
 7 QA            Live Anim…           2 Afgh…           5112 Stocks         1057
 8 QA            Live Anim…           2 Afgh…           5112 Stocks         1057
 9 QA            Live Anim…           2 Afgh…           5112 Stocks         1057
10 QA            Live Anim…           2 Afgh…           5112 Stocks         1057
# ℹ 30,967 more rows
# ℹ 7 more variables: Item <chr>, `Year Code` <dbl>, Year <dbl>, Unit <chr>,
#   Value <dbl>, Flag <chr>, `Flag Description` <chr>
Code

# Filter the data to include only chickens
chickens_only <- birds_grouped %>%
  filter(Item == "Chickens")
  
print("Data filtered to include only chickens:")

[1] "Data filtered to include only chickens:"

Code

print(chickens_only)

# A tibble: 13,074 × 14
# Groups:   Year [58]
   `Domain Code` Domain     `Area Code` Area  `Element Code` Element `Item Code`
   <chr>         <chr>            <dbl> <chr>          <dbl> <chr>         <dbl>
 1 QA            Live Anim…           2 Afgh…           5112 Stocks         1057
 2 QA            Live Anim…           2 Afgh…           5112 Stocks         1057
 3 QA            Live Anim…           2 Afgh…           5112 Stocks         1057
 4 QA            Live Anim…           2 Afgh…           5112 Stocks         1057
 5 QA            Live Anim…           2 Afgh…           5112 Stocks         1057
 6 QA            Live Anim…           2 Afgh…           5112 Stocks         1057
 7 QA            Live Anim…           2 Afgh…           5112 Stocks         1057
 8 QA            Live Anim…           2 Afgh…           5112 Stocks         1057
 9 QA            Live Anim…           2 Afgh…           5112 Stocks         1057
10 QA            Live Anim…           2 Afgh…           5112 Stocks         1057
# ℹ 13,064 more rows
# ℹ 7 more variables: Item <chr>, `Year Code` <dbl>, Year <dbl>, Unit <chr>,
#   Value <dbl>, Flag <chr>, `Flag Description` <chr>
…
# Calculate the mean, median, and mode of chicken stocks for each year
chicken_summary <- chickens_only %>%
  summarise(mean_stocks = mean(Value, na.rm = TRUE),
            median_stocks = median(Value, na.rm = TRUE),
            mode_stocks = as.numeric(names(sort(-table(Value))))[1])

print("Summary statistics of chicken stocks:")

[1] "Summary statistics of chicken stocks:"

Code

print(chicken_summary)

# A tibble: 58 × 4
    Year mean_stocks median_stocks mode_stocks
   <dbl>       <dbl>         <dbl>       <dbl>
 1  1961      74060.         4184         1400
 2  1962      76753.         4300           10
 3  1963      78922.         4500            2
 4  1964      80213.         4600           10
 5  1965      82458.         4930           10
 6  1966      83880.         5208.          45
 7  1967      88047.         5056           50
 8  1968      91003.         5250           60
 9  1969      94121.         6000           40
10  1970      98297.         6070.          90
# ℹ 48 more rows
…
print("Range of chicken stocks:")

[1] "Range of chicken stocks:"

Code

print(chicken_range)

# A tibble: 58 × 5
    Year min_stocks max_stocks q1_stocks q3_stocks
   <dbl>      <dbl>      <dbl>     <dbl>     <dbl>
 1  1961          1    3906690      314.    22016 
 2  1962          1    4048728      326.    22298 
 3  1963          2    4163131      330     25000 
 4  1964          2    4231221      372     25305 
 5  1965          2    4349674      392.    26000 
 6  1966          2    4445629      377.    24091.
 7  1967          2    4666511      401.    26213.
 8  1968          2    4823170      428.    25729.
 9  1969          2    4988438      450     26237 
10  1970          2    5209733      488.    28497.
# ℹ 48 more rows
…
