Challenge 8
…
dim(livestock_df)

[1] 42545    14

dim(dairy_df)

[1] 26331    14

##Join Data

dairy_livestock_df <-full_join(dairy_df,livestock_df)

dairy_livestock_df

# A tibble: 68,876 × 14
   `Domain Code` Domain     `Area Code` Area  `Element Code` Element `Item Code`
   <chr>         <chr>            <dbl> <chr>          <dbl> <chr>         <dbl>
 1 QL            Livestock…           2 Afgh…           5318 Milk A…         882
 2 QL            Livestock…           2 Afgh…           5420 Yield           882
 3 QL            Livestock…           2 Afgh…           5510 Produc…         882
 4 QL            Livestock…           2 Afgh…           5318 Milk A…         882
 5 QL            Livestock…           2 Afgh…           5420 Yield           882
 6 QL            Livestock…           2 Afgh…           5510 Produc…         882
 7 QL            Livestock…           2 Afgh…           5318 Milk A…         882
 8 QL            Livestock…           2 Afgh…           5420 Yield           882
 9 QL            Livestock…           2 Afgh…           5510 Produc…         882
10 QL            Livestock…           2 Afgh…           5318 Milk A…         882
# ℹ 68,866 more rows
# ℹ 7 more variables: Item <chr>, `Year Code` <dbl>, Year <dbl>, Unit <chr>,
#   Value <dbl>, Flag <chr>, `Flag Description` <chr>
…
colnames(dairy_livestock_df)

 [1] "Domain Code"      "Domain"           "Area Code"        "Area"            
 [5] "Element Code"     "Element"          "Item Code"        "Item"            
 [9] "Year Code"        "Year"             "Unit"             "Value"           
[13] "Flag"             "Flag Description"

dim(dairy_livestock_df)

[1] 68876    14

dairy_livestock_eggschicken_df <- full_join(dairy_livestock_df,eggs_chicken_df)
dairy_livestock_eggschicken_df

# A tibble: 99,458 × 14
   `Domain Code` Domain     `Area Code` Area  `Element Code` Element `Item Code`
   <chr>         <chr>            <dbl> <chr>          <dbl> <chr>         <dbl>
 1 QL            Livestock…           2 Afgh…           5318 Milk A…         882
 2 QL            Livestock…           2 Afgh…           5420 Yield           882
 3 QL            Livestock…           2 Afgh…           5510 Produc…         882
 4 QL            Livestock…           2 Afgh…           5318 Milk A…         882
 5 QL            Livestock…           2 Afgh…           5420 Yield           882
 6 QL            Livestock…           2 Afgh…           5510 Produc…         882
 7 QL            Livestock…           2 Afgh…           5318 Milk A…         882
 8 QL            Livestock…           2 Afgh…           5420 Yield           882
 9 QL            Livestock…           2 Afgh…           5510 Produc…         882
10 QL            Livestock…           2 Afgh…           5318 Milk A…         882
# ℹ 99,448 more rows
# ℹ 7 more variables: Item <chr>, `Year Code` <dbl>, Year <dbl>, Unit <chr>,
#   Value <dbl>, Flag <chr>, `Flag Description` <chr>
…
