Challenge 6
…
fed_rate ⭐⭐

abc_poll ⭐⭐⭐

usa_hh ⭐⭐⭐

hotel_bookings ⭐⭐⭐⭐

AB_NYC ⭐⭐⭐⭐⭐

fed_funds <- read_csv("_data/FedFundsRate.csv")
fed_funds

# A tibble: 904 × 10
    Year Month   Day `Federal Funds Target Rate` `Federal Funds Upper Target`
   <dbl> <dbl> <dbl>                       <dbl>                        <dbl>
 1  1954     7     1                          NA                           NA
 2  1954     8     1                          NA                           NA
 3  1954     9     1                          NA                           NA
 4  1954    10     1                          NA                           NA
 5  1954    11     1                          NA                           NA
 6  1954    12     1                          NA                           NA
 7  1955     1     1                          NA                           NA
 8  1955     2     1                          NA                           NA
 9  1955     3     1                          NA                           NA
10  1955     4     1                          NA                           NA
# ℹ 894 more rows
# ℹ 5 more variables: `Federal Funds Lower Target` <dbl>,
#   `Effective Federal Funds Rate` <dbl>, `Real GDP (Percent Change)` <dbl>,
#   `Unemployment Rate` <dbl>, `Inflation Rate` <dbl>
…
diff_obsv <- filter(fed_funds, `Year` == 1988)
diff_obsv

# A tibble: 24 × 10
    Year Month   Day `Federal Funds Target Rate` `Federal Funds Upper Target`
   <dbl> <dbl> <dbl>                       <dbl>                        <dbl>
 1  1988     1     1                        6.81                           NA
 2  1988     1    28                        6.62                           NA
 3  1988     2     1                        6.62                           NA
 4  1988     2    11                        6.5                            NA
 5  1988     3     1                        6.5                            NA
 6  1988     3    30                        6.75                           NA
 7  1988     4     1                        6.75                           NA
 8  1988     5     1                        6.75                           NA
 9  1988     5     9                        7                              NA
10  1988     5    25                        7.25                           NA
# ℹ 14 more rows
# ℹ 5 more variables: `Federal Funds Lower Target` <dbl>,
#   `Effective Federal Funds Rate` <dbl>, `Real GDP (Percent Change)` <dbl>,
#   `Unemployment Rate` <dbl>, `Inflation Rate` <dbl>
…
Is your data already tidy, or is there work to be done? Be sure to anticipate your end result to provide a sanity check, and document your work here.

This dataset is not tidy because the year, month, and day are in separate columns. These are all observances of one variable: the date, and hence they should be compressed into one column. I have done this below.

Are there any variables that require mutation to be usable in your analysis stream? For example, do you need to calculate new values in order to graph them? Can string values be represented numerically? Do you need to turn any variables into factors and reorder for ease of graphics and visualization?

Document your work here.

fed_funds_tidy <- fed_funds %>%
  mutate(Date = ymd(str_c(Year, Month, Day, sep="-"))) %>%
  select(11, 4:10)
fed_funds_tidy

# A tibble: 904 × 8
   Date       `Federal Funds Target Rate` `Federal Funds Upper Target`
   <date>                           <dbl>                        <dbl>
 1 1954-07-01                          NA                           NA
 2 1954-08-01                          NA                           NA
 3 1954-09-01                          NA                           NA
 4 1954-10-01                          NA                           NA
 5 1954-11-01                          NA                           NA
 6 1954-12-01                          NA                           NA
 7 1955-01-01                          NA                           NA
 8 1955-02-01                          NA                           NA
 9 1955-03-01                          NA                           NA
10 1955-04-01                          NA                           NA
# ℹ 894 more rows
# ℹ 5 more variables: `Federal Funds Lower Target` <dbl>,
#   `Effective Federal Funds Rate` <dbl>, `Real GDP (Percent Change)` <dbl>,
#   `Unemployment Rate` <dbl>, `Inflation Rate` <dbl>
…
This graph depicts the general trend of the EFFR (Effective Federal Funds Rate) and unemployment rate from 1954 to 2017. This is an important relationship to consider because we can get insights as to how EFFR has affected unemployment and vice-versa historically. This could be used to make predictions about both in the future if a relationship between them is found. As we can see from the plots, although the EFFR shows more dramatic spikes than the unemployment rate, it is usually observed that as the unemployment peaks, the EFFR peaks as well. The maximas of these plots are both observed at the start of the 1980-1990 decade. These similar trends hint at a correlation between these variables. I chose line plots for this visualization because I can easily see rate fluctuations, peaks, and dips.

Visualizing Part-Whole Relationships

compress_rates <- fed_funds_tidy %>%
  select(1, 2, 5) %>%
  pivot_longer(2:3, names_to = "Target and Effective Rates", values_to = "Rate")
compress_rates

# A tibble: 1,808 × 3
   Date       `Target and Effective Rates`  Rate
   <date>     <chr>                        <dbl>
 1 1954-07-01 Federal Funds Target Rate    NA   
 2 1954-07-01 Effective Federal Funds Rate  0.8 
 3 1954-08-01 Federal Funds Target Rate    NA   
 4 1954-08-01 Effective Federal Funds Rate  1.22
 5 1954-09-01 Federal Funds Target Rate    NA   
 6 1954-09-01 Effective Federal Funds Rate  1.06
 7 1954-10-01 Federal Funds Target Rate    NA   
 8 1954-10-01 Effective Federal Funds Rate  0.85
 9 1954-11-01 Federal Funds Target Rate    NA   
10 1954-11-01 Effective Federal Funds Rate  0.83
# ℹ 1,798 more rows
…
