Challenge 7
…
australian_marriage ⭐⭐

hotel_bookings ⭐⭐⭐

air_bnb ⭐⭐⭐

us_hh ⭐⭐⭐⭐

faostat ⭐⭐⭐⭐⭐

ab_nyc <- read_csv("_data/AB_NYC_2019.csv")
ab_nyc

# A tibble: 48,895 × 16
      id name       host_id host_name neighbourhood_group neighbourhood latitude
   <dbl> <chr>        <dbl> <chr>     <chr>               <chr>            <dbl>
 1  2539 Clean & q…    2787 John      Brooklyn            Kensington        40.6
 2  2595 Skylit Mi…    2845 Jennifer  Manhattan           Midtown           40.8
 3  3647 THE VILLA…    4632 Elisabeth Manhattan           Harlem            40.8
 4  3831 Cozy Enti…    4869 LisaRoxa… Brooklyn            Clinton Hill      40.7
 5  5022 Entire Ap…    7192 Laura     Manhattan           East Harlem       40.8
 6  5099 Large Coz…    7322 Chris     Manhattan           Murray Hill       40.7
 7  5121 BlissArts…    7356 Garon     Brooklyn            Bedford-Stuy…     40.7
 8  5178 Large Fur…    8967 Shunichi  Manhattan           Hell's Kitch…     40.8
 9  5203 Cozy Clea…    7490 MaryEllen Manhattan           Upper West S…     40.8
10  5238 Cute & Co…    7549 Ben       Manhattan           Chinatown         40.7
# ℹ 48,885 more rows
# ℹ 9 more variables: longitude <dbl>, room_type <chr>, price <dbl>,
#   minimum_nights <dbl>, number_of_reviews <dbl>, last_review <date>,
#   reviews_per_month <dbl>, calculated_host_listings_count <dbl>,
#   availability_365 <dbl>

Briefly describe the data

latest_dates <- select(arrange(ab_nyc, desc(last_review)), "last_review")
latest_dates

# A tibble: 48,895 × 1
   last_review
   <date>     
 1 2019-07-08 
 2 2019-07-08 
 3 2019-07-08 
 4 2019-07-08 
 5 2019-07-08 
 6 2019-07-08 
 7 2019-07-08 
 8 2019-07-08 
 9 2019-07-08 
10 2019-07-08 
# ℹ 48,885 more rows
…
