Challenge 3
…
eggs_tidy.csv ⭐⭐ or organiceggpoultry.xls ⭐⭐⭐

australian_marriage*.xls ⭐⭐⭐

USA Households*.xlsx ⭐⭐⭐⭐

sce_labor_chart_data_public.xlsx 🌟🌟🌟🌟🌟

Code

eggs <- read_csv("_data/eggs_tidy.csv")
eggs

# A tibble: 120 × 6
   month      year large_half_dozen large_dozen extra_large_half_dozen
   <chr>     <dbl>            <dbl>       <dbl>                  <dbl>
 1 January    2004             126         230                    132 
 2 February   2004             128.        226.                   134.
 3 March      2004             131         225                    137 
 4 April      2004             131         225                    137 
 5 May        2004             131         225                    137 
 6 June       2004             134.        231.                   137 
 7 July       2004             134.        234.                   137 
 8 August     2004             134.        234.                   137 
 9 September  2004             130.        234.                   136.
10 October    2004             128.        234.                   136.
# ℹ 110 more rows
# ℹ 1 more variable: extra_large_dozen <dbl>
…
Pivot the Data

Now we will pivot the data, and compare our pivoted data dimensions to the dimensions calculated above as a “sanity” check.

Challenge: Pivot the Chosen Data

Document your work here. What will a new “case” be once you have pivoted the data? How does it meet requirements for tidy data?

Code

eggs_tidy <- pivot_longer(eggs, 3:6, names_to = "dozen_type", values_to = "Value")
eggs_tidy

# A tibble: 480 × 4
   month     year dozen_type             Value
   <chr>    <dbl> <chr>                  <dbl>
 1 January   2004 large_half_dozen        126 
 2 January   2004 large_dozen             230 
 3 January   2004 extra_large_half_dozen  132 
 4 January   2004 extra_large_dozen       230 
 5 February  2004 large_half_dozen        128.
 6 February  2004 large_dozen             226.
 7 February  2004 extra_large_half_dozen  134.
 8 February  2004 extra_large_dozen       230 
 9 March     2004 large_half_dozen        131 
10 March     2004 large_dozen             225 
# ℹ 470 more rows
…
