Challenge 4
…
poultry_tidy.xlsx or organiceggpoultry.xls⭐⭐

FedFundsRate.csv⭐⭐⭐

hotel_bookings.csv⭐⭐⭐⭐

debt_in_trillions.xlsx ⭐⭐⭐⭐⭐

Code

fed_funds <- read_csv("_data/FedFundsRate.csv")
fed_funds

# A tibble: 904 × 10
    Year Month   Day `Federal Funds Target Rate` `Federal Funds Upper Target`
   <dbl> <dbl> <dbl>                       <dbl>                        <dbl>
 1  1954     7     1                          NA                           NA
 2  1954     8     1                          NA                           NA
 3  1954     9     1                          NA                           NA
 4  1954    10     1                          NA                           NA
 5  1954    11     1                          NA                           NA
 6  1954    12     1                          NA                           NA
 7  1955     1     1                          NA                           NA
 8  1955     2     1                          NA                           NA
 9  1955     3     1                          NA                           NA
10  1955     4     1                          NA                           NA
# ℹ 894 more rows
# ℹ 5 more variables: `Federal Funds Lower Target` <dbl>,
#   `Effective Federal Funds Rate` <dbl>, `Real GDP (Percent Change)` <dbl>,
#   `Unemployment Rate` <dbl>, `Inflation Rate` <dbl>
…
Code

diff_obsv <- filter(fed_funds, `Year` == 1988)
diff_obsv

# A tibble: 24 × 10
    Year Month   Day `Federal Funds Target Rate` `Federal Funds Upper Target`
   <dbl> <dbl> <dbl>                       <dbl>                        <dbl>
 1  1988     1     1                        6.81                           NA
 2  1988     1    28                        6.62                           NA
 3  1988     2     1                        6.62                           NA
 4  1988     2    11                        6.5                            NA
 5  1988     3     1                        6.5                            NA
 6  1988     3    30                        6.75                           NA
 7  1988     4     1                        6.75                           NA
 8  1988     5     1                        6.75                           NA
 9  1988     5     9                        7                              NA
10  1988     5    25                        7.25                           NA
# ℹ 14 more rows
# ℹ 5 more variables: `Federal Funds Lower Target` <dbl>,
#   `Effective Federal Funds Rate` <dbl>, `Real GDP (Percent Change)` <dbl>,
#   `Unemployment Rate` <dbl>, `Inflation Rate` <dbl>
…
Code

# Expected number of columns
new_cols

[1] 8

This dataset is not tidy because the federal funds target rate, upper and lower targets, and effective values are all observances of one variable: the federal funds rate type. We can compress these four columns into one, whose values are in a new column titled “Rate”. Hence, as a sanity check, I have calculated the expected dimensions of the transformed dataset.

Code

fed_funds_tidy <- pivot_longer(fed_funds, 4:7, names_to = "Federal Funds Rate Type", values_to = "Rate")
fed_funds_tidy

# A tibble: 3,616 × 8
    Year Month   Day Real GDP (Percent Ch…¹ `Unemployment Rate` `Inflation Rate`
   <dbl> <dbl> <dbl>                  <dbl>               <dbl>            <dbl>
 1  1954     7     1                    4.6                 5.8               NA
 2  1954     7     1                    4.6                 5.8               NA
 3  1954     7     1                    4.6                 5.8               NA
 4  1954     7     1                    4.6                 5.8               NA
 5  1954     8     1                   NA                   6                 NA
 6  1954     8     1                   NA                   6                 NA
 7  1954     8     1                   NA                   6                 NA
 8  1954     8     1                   NA                   6                 NA
 9  1954     9     1                   NA                   6.1               NA
10  1954     9     1                   NA                   6.1               NA
# ℹ 3,606 more rows
# ℹ abbreviated name: ¹​`Real GDP (Percent Change)`
# ℹ 2 more variables: `Federal Funds Rate Type` <chr>, Rate <dbl>
…
Identify variables that need to be mutated

Are there any variables that require mutation to be usable in your analysis stream? For example, are all time variables correctly coded as dates? Are all string variables reduced and cleaned to sensible categories? Do you need to turn any variables into factors and reorder for ease of graphics and visualization?

Document your work here.

Code

fed_funds_tidy <- fed_funds_tidy %>%
  mutate(Date = ymd(str_c(Year, Month, Day, sep="-"))) %>%
  select(Date, 7:8, 4:6)
fed_funds_tidy

# A tibble: 3,616 × 6
   Date       `Federal Funds Rate Type`     Rate `Real GDP (Percent Change)`
   <date>     <chr>                        <dbl>                       <dbl>
 1 1954-07-01 Federal Funds Target Rate    NA                            4.6
 2 1954-07-01 Federal Funds Upper Target   NA                            4.6
 3 1954-07-01 Federal Funds Lower Target   NA                            4.6
 4 1954-07-01 Effective Federal Funds Rate  0.8                          4.6
 5 1954-08-01 Federal Funds Target Rate    NA                           NA  
 6 1954-08-01 Federal Funds Upper Target   NA                           NA  
 7 1954-08-01 Federal Funds Lower Target   NA                           NA  
 8 1954-08-01 Effective Federal Funds Rate  1.22                        NA  
 9 1954-09-01 Federal Funds Target Rate    NA                           NA  
10 1954-09-01 Federal Funds Upper Target   NA                           NA  
# ℹ 3,606 more rows
# ℹ 2 more variables: `Unemployment Rate` <dbl>, `Inflation Rate` <dbl>
…
