Challenge 2
…
Code

birds <- read_csv("_data/birds.csv")

Add any comments or documentation as needed. More challenging data may require additional code chunks and documentation.

Describe the data

Using a combination of words and results of R commands, can you provide a high level description of the data? Describe as efficiently as possible where/how the data was (likely) gathered, indicate the cases and variables (both the interpretation and any details you deem useful to the reader to fully understand your chosen data).

Code

head(birds, 100)

# A tibble: 100 × 14
   `Domain Code` Domain     `Area Code` Area  `Element Code` Element `Item Code`
   <chr>         <chr>            <dbl> <chr>          <dbl> <chr>         <dbl>
 1 QA            Live Anim…           2 Afgh…           5112 Stocks         1057
 2 QA            Live Anim…           2 Afgh…           5112 Stocks         1057
 3 QA            Live Anim…           2 Afgh…           5112 Stocks         1057
 4 QA            Live Anim…           2 Afgh…           5112 Stocks         1057
 5 QA            Live Anim…           2 Afgh…           5112 Stocks         1057
 6 QA            Live Anim…           2 Afgh…           5112 Stocks         1057
 7 QA            Live Anim…           2 Afgh…           5112 Stocks         1057
 8 QA            Live Anim…           2 Afgh…           5112 Stocks         1057
 9 QA            Live Anim…           2 Afgh…           5112 Stocks         1057
10 QA            Live Anim…           2 Afgh…           5112 Stocks         1057
# ℹ 90 more rows
# ℹ 7 more variables: Item <chr>, `Year Code` <dbl>, Year <dbl>, Unit <chr>,
#   Value <dbl>, Flag <chr>, `Flag Description` <chr>
…
This tabulates general summary statistics for the birds dataset.

Code

highest <- birds %>%
  select("Area", "Year", "Item", "Value", "Unit") %>%
  filter(`Area` == "World", `Item` == "Chickens") %>%
  arrange(desc(Value))
highest

# A tibble: 58 × 5
   Area   Year Item        Value Unit     
   <chr> <dbl> <chr>       <dbl> <chr>    
 1 World  2018 Chickens 23707134 1000 Head
 2 World  2017 Chickens 23212565 1000 Head
 3 World  2016 Chickens 22826754 1000 Head
 4 World  2015 Chickens 21678753 1000 Head
 5 World  2014 Chickens 21118803 1000 Head
 6 World  2013 Chickens 20953583 1000 Head
 7 World  2012 Chickens 20489756 1000 Head
 8 World  2010 Chickens 20244638 1000 Head
 9 World  2011 Chickens 19950281 1000 Head
10 World  2009 Chickens 19720796 1000 Head
# ℹ 48 more rows
…
