Challenge 4
…
Document your work here.

Making two modifications to the dataset would enhance the analysis. Firstly, since the prices are currently discrete values, it would be advantageous to introduce price ranges, allowing for categorization into high, low, and medium price categories. This would provide a more meaningful representation of the data. Secondly, I suggest combining the variables “year” and “month” into a single column to facilitate direct analysis using the merged time information. This would streamline the analysis process and enable more comprehensive insights.

Code

poultrydata_mutated <- poultrydata %>%
  mutate(Price_Range = ifelse(Price_Dollar < 3, 'low', ifelse(Price_Dollar < 5, 'medium', 'high')))

poultrydata_mutated <- poultrydata_mutated %>%
  mutate(Date = as.Date(paste(Year, Month, '01'), format = '%Y %B %d'))

poultrydata_mutated

# A tibble: 600 × 6
   Product  Year Month     Price_Dollar Price_Range Date      
   <chr>   <dbl> <chr>            <dbl> <chr>       <date>    
 1 Whole    2013 January           2.38 low         2013-01-01
 2 Whole    2013 February          2.38 low         2013-02-01
 3 Whole    2013 March             2.38 low         2013-03-01
 4 Whole    2013 April             2.38 low         2013-04-01
 5 Whole    2013 May               2.38 low         2013-05-01
 6 Whole    2013 June              2.38 low         2013-06-01
 7 Whole    2013 July              2.38 low         2013-07-01
 8 Whole    2013 August            2.38 low         2013-08-01
 9 Whole    2013 September         2.38 low         2013-09-01
10 Whole    2013 October           2.38 low         2013-10-01
# ℹ 590 more rows
…
