Challenge 1
…
The birds which have the year as 1968 and the country as Africa.

Code

 birds%>%
  select("Area") %>%
  distinct(.)

# A tibble: 248 × 1
   Area               
   <chr>              
 1 Afghanistan        
 2 Albania            
 3 Algeria            
 4 American Samoa     
 5 Angola             
 6 Antigua and Barbuda
 7 Argentina          
 8 Armenia            
 9 Aruba              
10 Australia          
# ℹ 238 more rows
…
 birds%>%
  select("Area") %>%
  n_distinct(.)

[1] 248

The count distinct area names where the birds live.

Code

 birds.sm<-birds%>%
  select(-contains("Code"))
 birds.sm

# A tibble: 30,977 × 9
   Domain       Area    Element Item   Year Unit  Value Flag  `Flag Description`
   <chr>        <chr>   <chr>   <chr> <dbl> <chr> <dbl> <chr> <chr>             
 1 Live Animals Afghan… Stocks  Chic…  1961 1000…  4700 F     FAO estimate      
 2 Live Animals Afghan… Stocks  Chic…  1962 1000…  4900 F     FAO estimate      
 3 Live Animals Afghan… Stocks  Chic…  1963 1000…  5000 F     FAO estimate      
 4 Live Animals Afghan… Stocks  Chic…  1964 1000…  5300 F     FAO estimate      
 5 Live Animals Afghan… Stocks  Chic…  1965 1000…  5500 F     FAO estimate      
 6 Live Animals Afghan… Stocks  Chic…  1966 1000…  5800 F     FAO estimate      
 7 Live Animals Afghan… Stocks  Chic…  1967 1000…  6600 F     FAO estimate      
 8 Live Animals Afghan… Stocks  Chic…  1968 1000…  6290 <NA>  Official data     
 9 Live Animals Afghan… Stocks  Chic…  1969 1000…  6300 F     FAO estimate      
10 Live Animals Afghan… Stocks  Chic…  1970 1000…  6000 F     FAO estimate      
# ℹ 30,967 more rows
…
