Challenge 3
…
Challenge: Pivot the Chosen Data

Document your work here. What will a new “case” be once you have pivoted the data? How does it meet requirements for tidy data?

Code

eggs_pivot <- eggsdata %>%
  pivot_longer(cols = contains("dozen"),
               names_to= c("type", "quantity"),
               names_sep = '_',
               values_to = "price")
eggs_pivot

# A tibble: 480 × 5
   month     year type  quantity price
   <chr>    <dbl> <chr> <chr>    <dbl>
 1 January   2004 large half      126 
 2 January   2004 large dozen     230 
 3 January   2004 extra large     132 
 4 January   2004 extra large     230 
 5 February  2004 large half      128.
 6 February  2004 large dozen     226.
 7 February  2004 extra large     134.
 8 February  2004 extra large     230 
 9 March     2004 large half      131 
10 March     2004 large dozen     225 
# ℹ 470 more rows
…
