Challenge 2
…
# A tibble: 1 × 1
  Domain      
  <chr>       
1 Live Animals

Code

req_data<-select(birdsdata,Area,Item,Year,Value)
req_data %>%
  group_by(Year) %>%
  summarise(Total_sum=sum(Value,na.rm=TRUE)) %>% 
  arrange(desc(`Total_sum`))

# A tibble: 58 × 2
    Year Total_sum
   <dbl>     <dbl>
 1  2018 102772478
 2  2017 100702358
 3  2016  99205812
 4  2015  94430088
 5  2014  92055902
 6  2013  91572785
 7  2012  89857937
 8  2010  89244853
 9  2011  87518486
10  2009  86817163
# ℹ 48 more rows
…
Code

Area_group <-
birdsdata %>%
  group_by(`Area`) %>%
  summarise(mean_stock_value = mean(Value, na.rm=TRUE),
            median_stock_value = median(Value, na.rm=TRUE),
            stock_value_sd = sd(Value, na.rm=TRUE),
            min_stock_value = min(Value, na.rm=TRUE),
            max_stock_value = max(Value, na.rm=TRUE),
            first_quartile_stock_value = quantile(Value, 0.25, na.rm=TRUE),
            third_quartile_stock_value = quantile(Value, 0.75, na.rm=TRUE))
Area_group

# A tibble: 248 × 8
   Area       mean_stock_value median_stock_value stock_value_sd min_stock_value
   <chr>                 <dbl>              <dbl>          <dbl>           <dbl>
 1 Afghanist…           8099.              6700           2819.             4700
 2 Africa             196561.             12910.        435740.             1213
 3 Albania              2278.              1300           2268.              200
 4 Algeria             17621.                42.5        38830.               10
 5 American …             41.4               38             14.0              24
 6 Americas           856356.             66924.       1539316.              553
 7 Angola               9453.              6075           8928.             3400
 8 Antigua a…             93.6               85             39.7              43
 9 Argentina           18844.              2355          33620.               75
10 Armenia              2062.              1528.          2044.              120
# ℹ 238 more rows
# ℹ 3 more variables: max_stock_value <dbl>, first_quartile_stock_value <dbl>,
#   third_quartile_stock_value <dbl>

Code

Year_group <- birdsdata %>%
  group_by(`Year`) %>%
  summarise(mean_stock_value = mean(Value, na.rm=TRUE),
            median_stock_value = median(Value, na.rm=TRUE),
            stock_value_sd = sd(Value, na.rm=TRUE),
            min_stock_value = min(Value, na.rm=TRUE),
            max_stock_value = max(Value, na.rm=TRUE),
            first_quartile_stock_value = quantile(Value, 0.25, na.rm=TRUE),
            third_quartile_stock_value = quantile(Value, 0.75, na.rm=TRUE))
print(Year_group)

# A tibble: 58 × 8
    Year mean_stock_value median_stock_value stock_value_sd min_stock_value
   <dbl>            <dbl>              <dbl>          <dbl>           <dbl>
 1  1961           36752.              1033         216931.               1
 2  1962           37787.              1014         224935.               1
 3  1963           38736.              1106         230985.               1
 4  1964           39325.              1103         234108.               0
 5  1965           40334.              1104         240537.               0
 6  1966           41229.              1088.        245576.               0
 7  1967           43240.              1193         257592.               0
 8  1968           44420.              1252.        265750.               0
 9  1969           45607.              1267         273871.               0
10  1970           47706.              1259         285751.               0
# ℹ 48 more rows
# ℹ 3 more variables: max_stock_value <dbl>, first_quartile_stock_value <dbl>,
#   third_quartile_stock_value <dbl>

Explain and Interpret

Be sure to explain why you choose a specific group. Comment on the interpretation of any interesting differences between groups that you uncover. This section can be integrated with the exploratory data analysis, just be sure it is included.

Our objective was to analyze the sizes of the five livestock categories within the dataset and determine the poultry quantities in different countries within the specified time period. Through a specific grouping approach, we observed a notable disparity between the presence of chickens and other types of poultry in these countries. It became evident that the countries had significantly higher numbers of chicken livestock compared to other poultry varieties.

Code

birdsdata %>%
  group_by(Area)%>%
  summarize(mean_stock_value = mean(Value, na.rm = TRUE))

# A tibble: 248 × 2
   Area                mean_stock_value
   <chr>                          <dbl>
 1 Afghanistan                   8099. 
 2 Africa                      196561. 
 3 Albania                       2278. 
 4 Algeria                      17621. 
 5 American Samoa                  41.4
 6 Americas                    856356. 
 7 Angola                        9453. 
 8 Antigua and Barbuda             93.6
 9 Argentina                    18844. 
10 Armenia                       2062. 
# ℹ 238 more rows
…
