Challenge 6-debt
…
# The data includes 74 rows and 8 variables, includes quarterly measures of the total amount of household debt associated with 6 different types of loans - mortgage,HE revolving, auto, credit card, student, and other - plus a total household debt including all 6 loan types. 

Tidy Data (as needed)

Is your data already tidy, or is there work to be done? Be sure to anticipate your end result to provide a sanity check, and document your work here.

debt <- df %>%
  mutate(date = parse_date_time(`Year and Quarter`, 
                           orders="yq")) %>%
  select(date,everything())
  print(debt)

# A tibble: 74 × 9
   date                Year and …¹ Mortg…² HE Re…³ Auto …⁴ Credi…⁵ Stude…⁶ Other
   <dttm>              <chr>         <dbl>   <dbl>   <dbl>   <dbl>   <dbl> <dbl>
 1 2003-01-01 00:00:00 03:Q1          4.94   0.242   0.641   0.688   0.241 0.478
 2 2003-04-01 00:00:00 03:Q2          5.08   0.26    0.622   0.693   0.243 0.486
 3 2003-07-01 00:00:00 03:Q3          5.18   0.269   0.684   0.693   0.249 0.477
 4 2003-10-01 00:00:00 03:Q4          5.66   0.302   0.704   0.698   0.253 0.449
 5 2004-01-01 00:00:00 04:Q1          5.84   0.328   0.72    0.695   0.260 0.446
 6 2004-04-01 00:00:00 04:Q2          5.97   0.367   0.743   0.697   0.263 0.423
 7 2004-07-01 00:00:00 04:Q3          6.21   0.426   0.751   0.706   0.33  0.41 
 8 2004-10-01 00:00:00 04:Q4          6.36   0.468   0.728   0.717   0.346 0.423
 9 2005-01-01 00:00:00 05:Q1          6.51   0.502   0.725   0.71    0.364 0.394
10 2005-04-01 00:00:00 05:Q2          6.70   0.528   0.774   0.717   0.374 0.402
# … with 64 more rows, 1 more variable: Total <dbl>, and abbreviated variable
#   names ¹​`Year and Quarter`, ²​Mortgage, ³​`HE Revolving`, ⁴​`Auto Loan`,
#   ⁵​`Credit Card`, ⁶​`Student Loan`
…
