Challenge 3 by Jinxia Niu
…
Now we will pivot the data, and compare our pivoted data dimensions to the dimensions calculated above as a “sanity” check.

Code

eggs_new <- eggs%>%
  pivot_longer(cols=contains("large"),
               names_to = c("size","quantity"),
               names_sep = "_",
               values_to = "Price"
               )

print(eggs_new)

# A tibble: 480 × 5
   month     year size  quantity Price
   <chr>    <dbl> <chr> <chr>    <dbl>
 1 January   2004 large half      126 
 2 January   2004 large dozen     230 
 3 January   2004 extra large     132 
 4 January   2004 extra large     230 
 5 February  2004 large half      128.
 6 February  2004 large dozen     226.
 7 February  2004 extra large     134.
 8 February  2004 extra large     230 
 9 March     2004 large half      131 
10 March     2004 large dozen     225 
# … with 470 more rows
…
