Challenge 3 - Eggs
…
After combining the 4 price columns into a single “Price per Pound” column, we would expect to see 480 rows.

There will be 4 columns in the final data set, 2 existing descriptors (Year and Month) and 2 new columns (Carton Type and Price per Pound).

Challenge: Pivot the Chosen Data

Code

eggs_pivoted <- eggs %>%
  pivot_longer(col = c(large_half_dozen, large_dozen, extra_large_half_dozen, extra_large_dozen),
               names_to = "carton_type",
               values_to = "price_per_pound")
eggs_pivoted

# A tibble: 480 × 4
   month     year carton_type            price_per_pound
   <chr>    <dbl> <chr>                            <dbl>
 1 January   2004 large_half_dozen                  126 
 2 January   2004 large_dozen                       230 
 3 January   2004 extra_large_half_dozen            132 
 4 January   2004 extra_large_dozen                 230 
 5 February  2004 large_half_dozen                  128.
 6 February  2004 large_dozen                       226.
 7 February  2004 extra_large_half_dozen            134.
 8 February  2004 extra_large_dozen                 230 
 9 March     2004 large_half_dozen                  131 
10 March     2004 large_dozen                       225 
# … with 470 more rows
…
