Challenge 2 - FAOStat Cattle & Dairy (updated)
…
Both of these columns contain just one value for all observations, so we can remove them.

Let’s use the select() and contain() functions to create a new dataframe that removes all of the columns we have decided we don’t need: the columns with “Code” in the name and the columns with only one value throughout the dataset.

Code

FAOCD_subset <- FAOCD %>% 
  select(-contains("Code")) %>% 
  select(-contains("Domain")) %>% 
  select(-contains("Item"))
  
FAOCD_subset

# A tibble: 36,449 × 7
   Area        Element       Year Unit    Value Flag  `Flag Description`
   <chr>       <chr>        <dbl> <chr>   <dbl> <chr> <chr>             
 1 Afghanistan Milk Animals  1961 Head   700000 F     FAO estimate      
 2 Afghanistan Yield         1961 hg/An    5000 Fc    Calculated data   
 3 Afghanistan Production    1961 tonnes 350000 F     FAO estimate      
 4 Afghanistan Milk Animals  1962 Head   700000 F     FAO estimate      
 5 Afghanistan Yield         1962 hg/An    5000 Fc    Calculated data   
 6 Afghanistan Production    1962 tonnes 350000 F     FAO estimate      
 7 Afghanistan Milk Animals  1963 Head   780000 F     FAO estimate      
 8 Afghanistan Yield         1963 hg/An    5128 Fc    Calculated data   
 9 Afghanistan Production    1963 tonnes 400000 F     FAO estimate      
10 Afghanistan Milk Animals  1964 Head   780000 F     FAO estimate      
# ℹ 36,439 more rows
…
Let’s take a closer look at a particular element here. I’d like to see where the highest average Production is happening. We’ll use the filter(), group_by(), summarize() and arrange() functions.

Code

FAOCD_Production <- FAOCD_subset %>% 
  filter(Element == "Production") %>% 
  group_by(Area) %>% 
  summarize("mean" = mean(Value, na.rm = TRUE), 
            "median" = median(Value, na.rm = TRUE),
            "standard_deviation" = sd(Value, na.rm = TRUE)) %>% 
  arrange(desc(`mean`))

FAOCD_Production

# A tibble: 232 × 4
   Area                           mean     median standard_deviation
   <chr>                         <dbl>      <dbl>              <dbl>
 1 World                    470750957. 464550446.         102711714.
 2 Europe                   228904979. 220194403           26887876.
 3 Americas                 123817831. 115606130.          33846762.
 4 Eastern Europe            97495137.  92226154           23467137.
 5 USSR                      87525893.  90300000           13611099.
 6 Asia                      80628670.  55479513           59049221.
 7 Northern America          77052008.  74200213           14132238.
 8 Western Europe            75105368.  73757169            6644426.
 9 United States of America  69087431.  66390126.          14054757.
10 Southern Asia             39995745.  29330082.          29257149.
# ℹ 222 more rows
…
Code

FAOCD_Since2010 <- FAOCD_subset %>% 
  filter(Year > 2010) %>% 
  filter(Element == "Production") %>% 
  group_by(Area) %>% 
  summarize("mean" = mean(Value, na.rm = TRUE), 
            "median" = median(Value, na.rm = TRUE),
            "standard_deviation" = sd(Value, na.rm = TRUE)) %>% 
  arrange(desc(`mean`))

FAOCD_Since2010

# A tibble: 226 × 4
   Area                           mean     median standard_deviation
   <chr>                         <dbl>      <dbl>              <dbl>
 1 World                    653120252. 658338067           23726344.
 2 Europe                   215588432. 217574232.           5307525.
 3 Asia                     189924225. 189471380           14421624.
 4 Americas                 181531377  182933188.           3334320.
 5 Northern America         102217738. 102313027            3168627.
 6 Southern Asia             96623566.  95129610           13094625.
 7 United States of America  94026020.  94041764.           3455285.
 8 Western Europe            80955426.  81439856            3030278.
 9 Eastern Europe            72396074   72426114.            545233.
10 India                     71425625   70034420           11766081.
# ℹ 216 more rows
…
Code

FAOCD_before1980 <- FAOCD_subset %>% 
  filter(Year < 1980) %>% 
  filter(Element == "Production") %>% 
  group_by(Area) %>% 
  summarize("mean" = mean(Value, na.rm = TRUE), 
            "median" = median(Value, na.rm = TRUE),
            "standard_deviation" = sd(Value, na.rm = TRUE)) %>% 
  arrange(desc(`mean`))

FAOCD_before1980

# A tibble: 198 × 4
   Area                           mean    median standard_deviation
   <chr>                         <dbl>     <dbl>              <dbl>
 1 World                    361627060. 359280844          33639057.
 2 Europe                   224168181. 223718733          24023230.
 3 Eastern Europe           106068121. 107828820          14815809.
 4 Americas                  88434904.  86307319           4274964.
 5 USSR                      80172213.  82400000          11510128.
 6 Western Europe            69489343.  69892996           5758308.
 7 Northern America          62709675.  62469883           1896295.
 8 United States of America  54669493.  54442144           1777245.
 9 Northern Europe           30329690.  29435040           1860393.
10 Germany                   27842541.  28060608           1718558.
# ℹ 188 more rows
…
