Challenge 1 - Railroad Employment
…
Code

RailroadEmployment <- RailroadEmployment %>% 
  filter(!grepl("Total", STATE))

RailroadEmployment <- RailroadEmployment %>% 
  filter(!grepl("CANADA", STATE))

Finally, we noticed we had some NAs in both the STATE and the TOTAL columns. We can use the na.omit() function to remove these from the dataset.

Code

RailroadEmployment <- print(na.omit(RailroadEmployment))

# A tibble: 2,930 × 3
   STATE COUNTY               TOTAL
   <chr> <chr>                <dbl>
 1 AE    APO                      2
 2 AK    ANCHORAGE                7
 3 AK    FAIRBANKS NORTH STAR     2
 4 AK    JUNEAU                   3
 5 AK    MATANUSKA-SUSITNA        2
 6 AK    SITKA                    1
 7 AK    SKAGWAY MUNICIPALITY    88
 8 AL    AUTAUGA                102
 9 AL    BALDWIN                143
10 AL    BARBOUR                  1
# … with 2,920 more rows
…
Let’s take a closer look at this dataset to get a sense of which county and which state each have the most railraod employees. We can use piping and the arrange() function in R to see which counties have the most railroad employees:

Code

RailroadEmployment %>% 
  arrange(desc(TOTAL))

# A tibble: 2,930 × 3
   STATE COUNTY           TOTAL
   <chr> <chr>            <dbl>
 1 IL    COOK              8207
 2 TX    TARRANT           4235
 3 NE    DOUGLAS           3797
 4 NY    SUFFOLK           3685
 5 VA    INDEPENDENT CITY  3249
 6 FL    DUVAL             3073
 7 CA    SAN BERNARDINO    2888
 8 CA    LOS ANGELES       2545
 9 TX    HARRIS            2535
10 NE    LINCOLN           2289
# … with 2,920 more rows

This shows that Cook County in Illinois has the most railroad employees. Given that the major city, Chicago is located in Cook County, this is not surprising. It is interesting that Cook county has almost twice as many railroad employees as the next county on the list, Tarrant county in Texas.

This data can also shed light on which states have the most railroad employees. We can use piping and the group_by(), summarize(), sum() and arrange() functions to show the states with the most railroad employees:

Code

employees_by_state <- RailroadEmployment %>% 
  group_by(STATE) %>% 
  summarize(total_state_employees=sum(TOTAL))

employees_by_state %>% 
  arrange(desc(total_state_employees))

# A tibble: 53 × 2
   STATE total_state_employees
   <chr>                 <dbl>
 1 TX                    19839
 2 IL                    19131
 3 NY                    17050
 4 NE                    13176
 5 CA                    13137
 6 PA                    12769
 7 OH                     9056
 8 GA                     8605
 9 IN                     8537
10 MO                     8419
# … with 43 more rows
…
