Challenge 8: SNL
…
The following table shows which cast members worked the most seasons.

sca %>% 
  group_by(aid) %>% 
  count() %>% 
  arrange(desc(n))

# A tibble: 154 × 2
# Groups:   aid [154]
   aid                 n
   <chr>           <int>
 1 Kenan Thompson     18
 2 Darrell Hammond    14
 3 Seth Meyers        13
 4 Al Franken         11
 5 Fred Armisen       11
 6 Kate McKinnon      10
 7 Tim Meadows        10
 8 Aidy Bryant         9
 9 Bobby Moynihan      9
10 Cecily Strong       9
# … with 144 more rows
…
