Keith Martin Challenge 3
…
I decided to re-name the names of the columns so they we’re more easily identified. This will become helpful later when I pivot the data longer. Additionally, there is a row that needed to be removed from the data that split the egg prices and the chicken prices. By re-naming the cells it is easier to analyze the data.

Code

raw_poulty<-read_excel("_data/organiceggpoultry.xls", 
                         sheet = "Data",
                          range =cell_limits(c(6,2),c(NA,12)),
                          col_names = c("date", "XL_Dozen", "XL_1/2_Doz.", "L_Dozen", "L_1/2_Doz", "Remove", "Ckn_Whole", "Ckn_BS_Breast", "Ckn_Bone_Breast", "Ckn_Whole_legs", "Ckn_Thighs"),

                        )
raw_poulty %>%
  select(-c(Remove))

# A tibble: 120 × 10
   date  XL_Do…¹ XL_1/…² L_Dozen L_1/2…³ Ckn_W…⁴ Ckn_B…⁵ Ckn_B…⁶ Ckn_W…⁷ Ckn_T…⁸
   <chr>   <dbl>   <dbl>   <dbl>   <dbl>   <dbl>   <dbl> <chr>     <dbl> <chr>  
 1 Jan …    230     132     230     126     198.    646. too few    194. too few
 2 Febr…    230     134.    226.    128.    198.    642. too few    194. 203    
 3 March    230     137     225     131     209     642. too few    194. 203    
 4 April    234.    137     225     131     212     642. too few    194. 203    
 5 May      236     137     225     131     214.    642. too few    194. 203    
 6 June     241     137     231.    134.    216.    641  too few    202. 200.375
 7 July     241     137     234.    134.    217     642. 390.5      204. 199.5  
 8 Augu…    241     137     234.    134.    217     642. 390.5      204. 199.5  
 9 Sept…    241     136.    234.    130.    217     642. 390.5      204. 199.5  
10 Octo…    241     136.    234.    128.    217     642. 390.5      204. 199.5  
# … with 110 more rows, and abbreviated variable names ¹​XL_Dozen,
#   ²​`XL_1/2_Doz.`, ³​`L_1/2_Doz`, ⁴​Ckn_Whole, ⁵​Ckn_BS_Breast, ⁶​Ckn_Bone_Breast,
#   ⁷​Ckn_Whole_legs, ⁸​Ckn_Thighs

Code

### Display the months for cleaning purposes
raw_poulty %>%
  count(date)

# A tibble: 22 × 2
   date            n
   <chr>       <int>
 1 April          10
 2 August         10
 3 December       10
 4 February        8
 5 February /1     2
 6 Jan 2004        1
 7 Jan 2005        1
 8 Jan 2006        1
 9 Jan 2007        1
10 Jan 2008        1
# … with 12 more rows

Code

### remove that /1 from the February date
raw_poulty_clean <-raw_poulty %>% 
  mutate(date = str_remove(date, " /1"))
### Separate the month and the year, fill the years in for the rest of the months
raw_poulty_clean<-raw_poulty_clean %>%
  separate(date, into=c("month", "year"), sep =" ")%>%
  fill(year)
raw_poulty_clean       

# A tibble: 120 × 12
   month    year  XL_Do…¹ XL_1/…² L_Dozen L_1/2…³ Remove Ckn_W…⁴ Ckn_B…⁵ Ckn_B…⁶
   <chr>    <chr>   <dbl>   <dbl>   <dbl>   <dbl> <lgl>    <dbl>   <dbl> <chr>  
 1 Jan      2004     230     132     230     126  NA        198.    646. too few
 2 February 2004     230     134.    226.    128. NA        198.    642. too few
 3 March    2004     230     137     225     131  NA        209     642. too few
 4 April    2004     234.    137     225     131  NA        212     642. too few
 5 May      2004     236     137     225     131  NA        214.    642. too few
 6 June     2004     241     137     231.    134. NA        216.    641  too few
 7 July     2004     241     137     234.    134. NA        217     642. 390.5  
 8 August   2004     241     137     234.    134. NA        217     642. 390.5  
 9 Septemb… 2004     241     136.    234.    130. NA        217     642. 390.5  
10 October  2004     241     136.    234.    128. NA        217     642. 390.5  
# … with 110 more rows, 2 more variables: Ckn_Whole_legs <dbl>,
#   Ckn_Thighs <chr>, and abbreviated variable names ¹​XL_Dozen, ²​`XL_1/2_Doz.`,
#   ³​`L_1/2_Doz`, ⁴​Ckn_Whole, ⁵​Ckn_BS_Breast, ⁶​Ckn_Bone_Breast

This data did not include the year for each month entry. There was also a mistake in the data that needed to be removed.

Additionally, the Chicken Bone Breast and the Chicken Thighs data containted characters rather than numbers. First, I had to change those words to 0. Then, I had to change them to a numerical number, rather than just a character.

Code

ckn_edited<- raw_poulty_clean %>%
  mutate(Ckn_Bone_Breast = recode(Ckn_Bone_Breast, `too few` = "0"),
      Ckn_Thighs = recode(Ckn_Thighs, `too few`="0"))
ckn_edited

# A tibble: 120 × 12
   month    year  XL_Do…¹ XL_1/…² L_Dozen L_1/2…³ Remove Ckn_W…⁴ Ckn_B…⁵ Ckn_B…⁶
   <chr>    <chr>   <dbl>   <dbl>   <dbl>   <dbl> <lgl>    <dbl>   <dbl> <chr>  
 1 Jan      2004     230     132     230     126  NA        198.    646. 0      
 2 February 2004     230     134.    226.    128. NA        198.    642. 0      
 3 March    2004     230     137     225     131  NA        209     642. 0      
 4 April    2004     234.    137     225     131  NA        212     642. 0      
 5 May      2004     236     137     225     131  NA        214.    642. 0      
 6 June     2004     241     137     231.    134. NA        216.    641  0      
 7 July     2004     241     137     234.    134. NA        217     642. 390.5  
 8 August   2004     241     137     234.    134. NA        217     642. 390.5  
 9 Septemb… 2004     241     136.    234.    130. NA        217     642. 390.5  
10 October  2004     241     136.    234.    128. NA        217     642. 390.5  
# … with 110 more rows, 2 more variables: Ckn_Whole_legs <dbl>,
#   Ckn_Thighs <chr>, and abbreviated variable names ¹​XL_Dozen, ²​`XL_1/2_Doz.`,
#   ³​`L_1/2_Doz`, ⁴​Ckn_Whole, ⁵​Ckn_BS_Breast, ⁶​Ckn_Bone_Breast

Code

ckn_edited$Ckn_Bone_Breast<-as.numeric(ckn_edited$Ckn_Bone_Breast)
ckn_edited$Ckn_Thighs<-as.numeric(ckn_edited$Ckn_Thighs)
ckn_edited

# A tibble: 120 × 12
   month    year  XL_Do…¹ XL_1/…² L_Dozen L_1/2…³ Remove Ckn_W…⁴ Ckn_B…⁵ Ckn_B…⁶
   <chr>    <chr>   <dbl>   <dbl>   <dbl>   <dbl> <lgl>    <dbl>   <dbl>   <dbl>
 1 Jan      2004     230     132     230     126  NA        198.    646.      0 
 2 February 2004     230     134.    226.    128. NA        198.    642.      0 
 3 March    2004     230     137     225     131  NA        209     642.      0 
 4 April    2004     234.    137     225     131  NA        212     642.      0 
 5 May      2004     236     137     225     131  NA        214.    642.      0 
 6 June     2004     241     137     231.    134. NA        216.    641       0 
 7 July     2004     241     137     234.    134. NA        217     642.    390.
 8 August   2004     241     137     234.    134. NA        217     642.    390.
 9 Septemb… 2004     241     136.    234.    130. NA        217     642.    390.
10 October  2004     241     136.    234.    128. NA        217     642.    390.
# … with 110 more rows, 2 more variables: Ckn_Whole_legs <dbl>,
#   Ckn_Thighs <dbl>, and abbreviated variable names ¹​XL_Dozen, ²​`XL_1/2_Doz.`,
#   ³​`L_1/2_Doz`, ⁴​Ckn_Whole, ⁵​Ckn_BS_Breast, ⁶​Ckn_Bone_Breast
…
Briefly describe the data

I pivoted the data to make the type of item (egg, or chicken meat) show in one column rather than have each one in their own columns. This makes it much easier to analyse the summary statistics.

Code

###pivot the data to longer version for eggs data set
eggs_longer<- pivot_longer(ckn_edited,  cols=c("XL_Dozen", "XL_1/2_Doz.", "L_Dozen", "L_1/2_Doz", "Ckn_Whole", "Ckn_BS_Breast", "Ckn_Bone_Breast", "Ckn_Whole_legs", "Ckn_Thighs"), 
               names_to = "eggType/cknType",
               values_to = "avgPrice"
  )
eggs_longer

# A tibble: 1,080 × 5
   month    year  Remove `eggType/cknType` avgPrice
   <chr>    <chr> <lgl>  <chr>                <dbl>
 1 Jan      2004  NA     XL_Dozen              230 
 2 Jan      2004  NA     XL_1/2_Doz.           132 
 3 Jan      2004  NA     L_Dozen               230 
 4 Jan      2004  NA     L_1/2_Doz             126 
 5 Jan      2004  NA     Ckn_Whole             198.
 6 Jan      2004  NA     Ckn_BS_Breast         646.
 7 Jan      2004  NA     Ckn_Bone_Breast         0 
 8 Jan      2004  NA     Ckn_Whole_legs        194.
 9 Jan      2004  NA     Ckn_Thighs              0 
10 February 2004  NA     XL_Dozen              230 
# … with 1,070 more rows
…
