Poultry Production Around the World 1960-2018
…
### pull the data from the _data folder
library(readr)
birds <- read_csv ("_data/birds.csv")
view (birds)

Introduction:

I analyzed the birds.csv data set. This data set contains the information about the type, country of origin, and amount of poultry that was produced around the world. This data is relatively straight forward based on the data values. I have included the first few rows below for reference.

Code

select(birds, "Area", "Item", "Year", "Value")

# A tibble: 30,977 × 4
   Area        Item      Year Value
   <chr>       <chr>    <dbl> <dbl>
 1 Afghanistan Chickens  1961  4700
 2 Afghanistan Chickens  1962  4900
 3 Afghanistan Chickens  1963  5000
 4 Afghanistan Chickens  1964  5300
 5 Afghanistan Chickens  1965  5500
 6 Afghanistan Chickens  1966  5800
 7 Afghanistan Chickens  1967  6600
 8 Afghanistan Chickens  1968  6290
 9 Afghanistan Chickens  1969  6300
10 Afghanistan Chickens  1970  6000
# … with 30,967 more rows
…
