Challenge 3 Australian Marriage Pivot
…
Challenge: Pivot the Chosen Data

Document your work here. What will a new “case” be once you have pivoted the data? How does it meet requirements for tidy data?

A case correspondents to a single type of response (yes or no) in single district in a division in Australia. This meets the requirements for tidy data, because each column represents a variable, each row corresponds to a single observation, and each cell is a single value. The tidy data set contains 268 rows and 5 columns.

Code

aus_marriage_tidy <- aus_marriage2 %>%
    pivot_longer(-c('district', 'division'), names_to=c("resp", ".value"), names_sep = "\\d")

aus_marriage_tidy

# A tibble: 268 × 5
   district  division        resp  count percent
   <chr>     <chr>           <chr> <dbl>   <dbl>
 1 Banks     New South Wales yes   37736    44.9
 2 Banks     New South Wales no    46343    55.1
 3 Barton    New South Wales yes   37153    43.6
 4 Barton    New South Wales no    47984    56.4
 5 Bennelong New South Wales yes   42943    49.8
 6 Bennelong New South Wales no    43215    50.2
 7 Berowra   New South Wales yes   48471    54.6
 8 Berowra   New South Wales no    40369    45.4
 9 Blaxland  New South Wales yes   20406    26.1
10 Blaxland  New South Wales no    57926    73.9
# … with 258 more rows
…
