Challenge 5 Instructions
…
Is your data already tidy, or is there work to be done? Be sure to anticipate your end result to provide a sanity check, and document your work here.

data <-read_xls("./_data/StateCounty2012.xls",
                skip = 4,
                col_names= c("STATE", "_trash",  "COUNTY",
                          "_trash", "EMPLOYEES"))%>%
  select(!contains("_trash"))%>%
  filter(!str_detect(STATE, "Total"))

data<-head(data, -2)%>%
  mutate(COUNTY = ifelse(STATE=="CANADA", "CANADA", COUNTY))

data

# A tibble: 2,931 × 3
   STATE COUNTY               EMPLOYEES
   <chr> <chr>                    <dbl>
 1 AE    APO                          2
 2 AK    ANCHORAGE                    7
 3 AK    FAIRBANKS NORTH STAR         2
 4 AK    JUNEAU                       3
 5 AK    MATANUSKA-SUSITNA            2
 6 AK    SITKA                        1
 7 AK    SKAGWAY MUNICIPALITY        88
 8 AL    AUTAUGA                    102
 9 AL    BALDWIN                    143
10 AL    BARBOUR                      1
# … with 2,921 more rows

Are there any variables that require mutation to be usable in your analysis stream? For example, do you need to calculate new values in order to graph them? Can string values be represented numerically? Do you need to turn any variables into factors and reorder for ease of graphics and visualization?

Document your work here.

railroad_summaries <- data %>%
  group_by(STATE) %>%
  summarise("state_employees_average" = round(sum(EMPLOYEES)/ n_distinct(COUNTY)),
         "state_counties"= n_distinct(COUNTY)) 
railroad_summaries

# A tibble: 54 × 3
   STATE  state_employees_average state_counties
   <chr>                    <dbl>          <int>
 1 AE                           2              1
 2 AK                          17              6
 3 AL                          64             67
 4 AP                           1              1
 5 AR                          54             72
 6 AZ                         210             15
 7 CA                         239             55
 8 CANADA                     662              1
 9 CO                          64             57
10 CT                         324              8
# … with 44 more rows
…
