Challenge 1 Instructions
…
FAOstat*.csv ⭐⭐

wild_bird_data.xlsx ⭐⭐⭐

StateCounty2012.xls ⭐⭐⭐⭐

Find the _data folder, located inside the posts folder. Then you can read in the data, using either one of the readr standard tidy read commands, or a specialized package such as readxl.

Code

# reading data using readr
library(readr)
(data <- read_csv("../posts/_data/railroad_2012_clean_county.csv"))

# A tibble: 2,930 × 3
   state county               total_employees
   <chr> <chr>                          <dbl>
 1 AE    APO                                2
 2 AK    ANCHORAGE                          7
 3 AK    FAIRBANKS NORTH STAR               2
 4 AK    JUNEAU                             3
 5 AK    MATANUSKA-SUSITNA                  2
 6 AK    SITKA                              1
 7 AK    SKAGWAY MUNICIPALITY              88
 8 AL    AUTAUGA                          102
 9 AL    BALDWIN                          143
10 AL    BARBOUR                            1
# … with 2,920 more rows
…
Code

data_with_col_types <- read_csv("../posts/_data/railroad_2012_clean_county.csv",
                  col_types = cols(
                  state = col_character(),
                  county = col_character(),
                  total_employees = col_double()
                ))
# printing data
data_with_col_types

# A tibble: 2,930 × 3
   state county               total_employees
   <chr> <chr>                          <dbl>
 1 AE    APO                                2
 2 AK    ANCHORAGE                          7
 3 AK    FAIRBANKS NORTH STAR               2
 4 AK    JUNEAU                             3
 5 AK    MATANUSKA-SUSITNA                  2
 6 AK    SITKA                              1
 7 AK    SKAGWAY MUNICIPALITY              88
 8 AL    AUTAUGA                          102
 9 AL    BALDWIN                          143
10 AL    BARBOUR                            1
# … with 2,920 more rows
…
The graphic describes the total employees per county for each state regarless the county(later we wil focus on the county). We can observe that Illinois has the highest number of employees. Let’s check more in detail that state.

Filtering the data w have the following data

Code

vars <- c("state")
cond <- c("IL")
data_IL <- data %>%
  filter(
    .data[[vars[[1]]]] == cond[[1]]
  )
data_IL

# A tibble: 103 × 3
   state county    total_employees
   <chr> <chr>               <dbl>
 1 IL    ADAMS                 116
 2 IL    ALEXANDER               2
 3 IL    BOND                   23
 4 IL    BOONE                  44
 5 IL    BROWN                   7
 6 IL    BUREAU                 35
 7 IL    CALHOUN                 4
 8 IL    CARROLL                96
 9 IL    CASS                   66
10 IL    CHAMPAIGN             131
# … with 93 more rows
…
