Challenge 6 Instructions
…
usa_hh ⭐⭐⭐

hotel_bookings ⭐⭐⭐⭐

AB_NYC ⭐⭐⭐⭐⭐

airb <- here("posts","_data","AB_NYC_2019.csv") %>%
  read_csv()
# ordering the coloumns 
ab_subset<-subset(airb, select = c(1:11)) 
ab_subset<-ab_subset[,c(3,4, 9,10, 1:2, 5:8, 11)] 
ab_subset

# A tibble: 48,895 × 11
   host_id host_name   room_…¹ price    id name  neigh…² neigh…³ latit…⁴ longi…⁵
     <dbl> <chr>       <chr>   <dbl> <dbl> <chr> <chr>   <chr>     <dbl>   <dbl>
 1    2787 John        Privat…   149  2539 Clea… Brookl… Kensin…    40.6   -74.0
 2    2845 Jennifer    Entire…   225  2595 Skyl… Manhat… Midtown    40.8   -74.0
 3    4632 Elisabeth   Privat…   150  3647 THE … Manhat… Harlem     40.8   -73.9
 4    4869 LisaRoxanne Entire…    89  3831 Cozy… Brookl… Clinto…    40.7   -74.0
 5    7192 Laura       Entire…    80  5022 Enti… Manhat… East H…    40.8   -73.9
 6    7322 Chris       Entire…   200  5099 Larg… Manhat… Murray…    40.7   -74.0
 7    7356 Garon       Privat…    60  5121 Blis… Brookl… Bedfor…    40.7   -74.0
 8    8967 Shunichi    Privat…    79  5178 Larg… Manhat… Hell's…    40.8   -74.0
 9    7490 MaryEllen   Privat…    79  5203 Cozy… Manhat… Upper …    40.8   -74.0
10    7549 Ben         Entire…   150  5238 Cute… Manhat… Chinat…    40.7   -74.0
# … with 48,885 more rows, 1 more variable: minimum_nights <dbl>, and
#   abbreviated variable names ¹​room_type, ²​neighbourhood_group,
#   ³​neighbourhood, ⁴​latitude, ⁵​longitude
…
