Challenge 2 Instructions
…
The information is getting to started to make more sense than the provious summary. There are 53 different states plus Canada(as state), in total 54 states; however, the number of counties might be duplicated. Let’s group the data by states and see the number of counties and total employees.

Code

grouped_by_state <- railroad%>%
  group_by(STATE)%>%
  summarise("num_employees" = sum(TOTAL),
            "total_counties"= n())%>%
  arrange(desc(num_employees))
grouped_by_state

# A tibble: 54 × 3
   STATE num_employees total_counties
   <chr>         <dbl>          <int>
 1 TX            19839            221
 2 IL            19131            103
 3 NY            17050             61
 4 NE            13176             89
 5 CA            13137             55
 6 PA            12769             65
 7 OH             9056             88
 8 GA             8605            152
 9 IN             8537             92
10 MO             8419            115
# … with 44 more rows

Now let’s check the counties that has the highest number of employees, using simple division criterion: the number of total employees per state divided by its total number of counties.

Code

grouped_by_state%>%
  group_by(STATE)%>%
  summarise("num_of_employees_per_county" = num_employees/total_counties)%>%
  arrange(desc(num_of_employees_per_county))

# A tibble: 54 × 2
   STATE  num_of_employees_per_county
   <chr>                        <dbl>
 1 CANADA                        662 
 2 DE                            498.
 3 NJ                            397.
 4 CT                            324 
 5 MA                            282.
 6 NY                            280.
 7 DC                            279 
 8 CA                            239.
 9 AZ                            210.
10 PA                            196.
# … with 44 more rows
…
