Challenge 4 Instructions
…
#remove missing values
#pivot longer of the federal fund rate columns, removed NA values
clean_FedFundsRate <-pivot_longer(df, col = c("Federal.Funds.Target.Rate" , "Federal.Funds.Lower.Target" , "Effective.Federal.Funds.Rate"),
                 names_to="Federal Fund Type",
                 values_to = "Federal Fund Rate",
                 values_drop_na = TRUE)

Code

#pivot longer of the federal fund rate columns, removed NA values. 

clean_FedFundsRate

# A tibble: 1,317 × 9
    Year Month   Day Federal.Funds.Upp…¹ Real.…² Unemp…³ Infla…⁴ Feder…⁵ Feder…⁶
   <int> <int> <int>               <dbl>   <dbl>   <dbl>   <dbl> <chr>     <dbl>
 1  1954     7     1                  NA     4.6     5.8      NA Effect…    0.8 
 2  1954     8     1                  NA    NA       6        NA Effect…    1.22
 3  1954     9     1                  NA    NA       6.1      NA Effect…    1.06
 4  1954    10     1                  NA     8       5.7      NA Effect…    0.85
 5  1954    11     1                  NA    NA       5.3      NA Effect…    0.83
 6  1954    12     1                  NA    NA       5        NA Effect…    1.28
 7  1955     1     1                  NA    11.9     4.9      NA Effect…    1.39
 8  1955     2     1                  NA    NA       4.7      NA Effect…    1.29
 9  1955     3     1                  NA    NA       4.6      NA Effect…    1.35
10  1955     4     1                  NA     6.7     4.7      NA Effect…    1.43
# … with 1,307 more rows, and abbreviated variable names
#   ¹​Federal.Funds.Upper.Target, ²​Real.GDP..Percent.Change.,
#   ³​Unemployment.Rate, ⁴​Inflation.Rate, ⁵​`Federal Fund Type`,
#   ⁶​`Federal Fund Rate`

Code

clean_FedFundsRate <-p<-pivot_longer(df, col = c("Real.GDP..Percent.Change.", "Unemployment.Rate", "Inflation.Rate"),
                 names_to="GDP Condition",
                 values_to = "GDP Rate",
                 values_drop_na = TRUE)

clean_FedFundsRate

# A tibble: 1,712 × 9
    Year Month   Day Federal.Funds.Tar…¹ Feder…² Feder…³ Effec…⁴ GDP C…⁵ GDP R…⁶
   <int> <int> <int>               <dbl>   <dbl>   <dbl>   <dbl> <chr>     <dbl>
 1  1954     7     1                  NA      NA      NA    0.8  Real.G…     4.6
 2  1954     7     1                  NA      NA      NA    0.8  Unempl…     5.8
 3  1954     8     1                  NA      NA      NA    1.22 Unempl…     6  
 4  1954     9     1                  NA      NA      NA    1.06 Unempl…     6.1
 5  1954    10     1                  NA      NA      NA    0.85 Real.G…     8  
 6  1954    10     1                  NA      NA      NA    0.85 Unempl…     5.7
 7  1954    11     1                  NA      NA      NA    0.83 Unempl…     5.3
 8  1954    12     1                  NA      NA      NA    1.28 Unempl…     5  
 9  1955     1     1                  NA      NA      NA    1.39 Real.G…    11.9
10  1955     1     1                  NA      NA      NA    1.39 Unempl…     4.9
# … with 1,702 more rows, and abbreviated variable names
#   ¹​Federal.Funds.Target.Rate, ²​Federal.Funds.Upper.Target,
#   ³​Federal.Funds.Lower.Target, ⁴​Effective.Federal.Funds.Rate,
#   ⁵​`GDP Condition`, ⁶​`GDP Rate`
…
