Challenge 8
…
us_hh ⭐⭐⭐⭐

snl ⭐⭐⭐⭐⭐

# read in snl actors dataset
Actors <- read_csv("_data/snl_actors.csv")
# read in snl casts dataset
Cast <- read_csv("_data/snl_casts.csv")
# read in snl seasons dataset
Season <- read_csv("_data/snl_seasons.csv")
# view datasets
Actors

# A tibble: 2,306 × 4
   aid            url           type  gender 
   <chr>          <chr>         <chr> <chr>  
 1 Kate McKinnon  /Cast/?KaMc   cast  female 
 2 Alex Moffat    /Cast/?AlMo   cast  male   
 3 Ego Nwodim     /Cast/?EgNw   cast  unknown
 4 Chris Redd     /Cast/?ChRe   cast  male   
 5 Kenan Thompson /Cast/?KeTh   cast  male   
 6 Carey Mulligan /Guests/?3677 guest andy   
 7 Marcus Mumford /Guests/?3679 guest male   
 8 Aidy Bryant    /Cast/?AiBr   cast  female 
 9 Steve Higgins  /Crew/?StHi   crew  male   
10 Mikey Day      /Cast/?MiDa   cast  male   
# ℹ 2,296 more rows
…
The three datasets related to SNL(Saturday Night Live)consist of the actors, casts, and seasons of Saturday Night Live (SNL) from 1975 to 2020.

The snl_seasons dataset. It describes when the season started and ended and how many episodes each season consisted of. The snl_casts dataset describes the number of episodes each cast member was there for and their name. These Actor datasets consist of 2,306 observations and 4 variables (aid, url, type, gender) describing the actors in the dataset.The ‘aid’ column serves as a primary key for the data set, the ‘type’ column describes what type of actor. The values in this column are categorical and take on one four possible values: ‘cast’, ‘crew’, ‘guest’, and ‘unknown’. The ‘url’ column appears to be a combination of the ‘type’ column followed by an additional identifier for the actor.

The cast dataset has 614 observations and 8 variables (aid, sid, featured, first_epid, last_epid, update_anchor, n_episodes, season_fraction) The seasons dataset consists of 46 observations and 5 variables (sid, year, first_epid, last_epid, n_episodes) Within 46 seasons, there are records of the date of each actor’s (aid) first episode (first_epid) and last episode (last_epid) along with the date of the beginning (first_epid) and ending (last_epid) of each season. There is also sid which represents the season ID and featured which says whether the cast member was featured or not.

The mean number of episodes from the n_episodes variable is 19.7 per season and 18.7 per cast member. Out of all the cast members in the casts dataset, Kenan Thompson was involved in SNL the most often at 18 times with Darrell Hammond (14 times) and Seth Meyers (13 times) following after him.

###filtering the Actor dataset for gender

Actors %>%
  filter(gender == "female")

# A tibble: 671 × 4
   aid                url         type  gender
   <chr>              <chr>       <chr> <chr> 
 1 Kate McKinnon      /Cast/?KaMc cast  female
 2 Aidy Bryant        /Cast/?AiBr cast  female
 3 Heidi Gardner      /Cast/?HeGa cast  female
 4 Lauren Holt        /Cast/?LaHo cast  female
 5 Chloe Fineman      /Cast/?ChFi cast  female
 6 Cecily Strong      /Cast/?CeSt cast  female
 7 Maya Rudolph       /Cast/?MaRu cast  female
 8 Melissa Villasenor /Cast/?MeVi cast  female
 9 Rachel Dratch      /Cast/?RaDr cast  female
10 Tina Fey           /Cast/?TiFe cast  female
# ℹ 661 more rows
…
seasons1

# A tibble: 46 × 5
     sid  year first_epid last_epid  n_episodes
   <dbl> <dbl> <date>     <date>          <dbl>
 1     1  1975 1975-10-11 1976-07-31         24
 2     2  1976 1976-09-18 1977-05-21         22
 3     3  1977 1977-09-24 1978-05-20         20
 4     4  1978 1978-10-07 1979-05-26         20
 5     5  1979 1979-10-13 1980-05-24         20
 6     6  1980 1980-11-15 1981-04-11         13
 7     7  1981 1981-10-03 1982-05-22         20
 8     8  1982 1982-09-25 1983-05-14         20
 9     9  1983 1983-10-08 1984-05-12         19
10    10  1984 1984-10-06 1985-04-13         17
# ℹ 36 more rows

casts1

# A tibble: 614 × 8
   aid               sid featured first_epid last_epid update_anchor n_episodes
   <chr>           <dbl> <lgl>    <date>     <date>    <lgl>              <dbl>
 1 A. Whitney Bro…    11 TRUE     1986-02-22 NA        FALSE                  8
 2 A. Whitney Bro…    12 TRUE     NA         NA        FALSE                 20
 3 A. Whitney Bro…    13 TRUE     NA         NA        FALSE                 13
 4 A. Whitney Bro…    14 TRUE     NA         NA        FALSE                 20
 5 A. Whitney Bro…    15 TRUE     NA         NA        FALSE                 20
 6 A. Whitney Bro…    16 TRUE     NA         NA        FALSE                 20
 7 Alan Zweibel        5 TRUE     1980-04-09 NA        FALSE                  5
 8 Sasheer Zamata     39 TRUE     2014-01-18 NA        FALSE                 11
 9 Sasheer Zamata     40 TRUE     NA         NA        FALSE                 21
10 Sasheer Zamata     41 FALSE    NA         NA        FALSE                 21
# ℹ 604 more rows
# ℹ 1 more variable: season_fraction <dbl>

actors1

# A tibble: 2,306 × 4
   aid            url           type  gender 
   <chr>          <chr>         <fct> <fct>  
 1 Kate McKinnon  /Cast/?KaMc   cast  female 
 2 Alex Moffat    /Cast/?AlMo   cast  male   
 3 Ego Nwodim     /Cast/?EgNw   cast  unknown
 4 Chris Redd     /Cast/?ChRe   cast  male   
 5 Kenan Thompson /Cast/?KeTh   cast  male   
 6 Carey Mulligan /Guests/?3677 guest andy   
 7 Marcus Mumford /Guests/?3679 guest male   
 8 Aidy Bryant    /Cast/?AiBr   cast  female 
 9 Steve Higgins  /Crew/?StHi   crew  male   
10 Mikey Day      /Cast/?MiDa   cast  male   
# ℹ 2,296 more rows
…
Actor_mutate

# A tibble: 2,306 × 5
   aid            url           type  gender Type          
   <chr>          <chr>         <fct> <chr>  <chr>         
 1 Kate McKinnon  /Cast/?KaMc   cast  F      Cast          
 2 Alex Moffat    /Cast/?AlMo   cast  M      Cast          
 3 Ego Nwodim     /Cast/?EgNw   cast  NA     Musician/Celeb
 4 Chris Redd     /Cast/?ChRe   cast  M      Cast          
 5 Kenan Thompson /Cast/?KeTh   cast  M      Cast          
 6 Carey Mulligan /Guests/?3677 guest NA     Guest         
 7 Marcus Mumford /Guests/?3679 guest M      Guest         
 8 Aidy Bryant    /Cast/?AiBr   cast  F      Cast          
 9 Steve Higgins  /Crew/?StHi   crew  M      Crew          
10 Mikey Day      /Cast/?MiDa   cast  M      Cast          
# ℹ 2,296 more rows

snl_seasons1_casts1 <- casts1 %>% 
  inner_join(seasons1, by = "sid")
snl_seasons1_casts1

# A tibble: 614 × 12
   aid          sid featured first_epid.x last_epid.x update_anchor n_episodes.x
   <chr>      <dbl> <lgl>    <date>       <date>      <lgl>                <dbl>
 1 A. Whitne…    11 TRUE     1986-02-22   NA          FALSE                    8
 2 A. Whitne…    12 TRUE     NA           NA          FALSE                   20
 3 A. Whitne…    13 TRUE     NA           NA          FALSE                   13
 4 A. Whitne…    14 TRUE     NA           NA          FALSE                   20
 5 A. Whitne…    15 TRUE     NA           NA          FALSE                   20
 6 A. Whitne…    16 TRUE     NA           NA          FALSE                   20
 7 Alan Zwei…     5 TRUE     1980-04-09   NA          FALSE                    5
 8 Sasheer Z…    39 TRUE     2014-01-18   NA          FALSE                   11
 9 Sasheer Z…    40 TRUE     NA           NA          FALSE                   21
10 Sasheer Z…    41 FALSE    NA           NA          FALSE                   21
# ℹ 604 more rows
# ℹ 5 more variables: season_fraction <dbl>, year <dbl>, first_epid.y <date>,
#   last_epid.y <date>, n_episodes.y <dbl>

####The values of first and last episode of the seasons1 and cast1 datasets into readable dates. So the format of these dates are year-month-day. For the casts dataset, since a lot of the rows have N/A for both first and last episode date. I deleted those conditions and only kept the ones in which at least one value( first episode or last episode) doesn’t have N/A as the value.

snl2 <- snl_seasons1_casts1 %>% 
  inner_join(actors1, by = "aid")
snl2

# A tibble: 614 × 15
   aid          sid featured first_epid.x last_epid.x update_anchor n_episodes.x
   <chr>      <dbl> <lgl>    <date>       <date>      <lgl>                <dbl>
 1 A. Whitne…    11 TRUE     1986-02-22   NA          FALSE                    8
 2 A. Whitne…    12 TRUE     NA           NA          FALSE                   20
 3 A. Whitne…    13 TRUE     NA           NA          FALSE                   13
 4 A. Whitne…    14 TRUE     NA           NA          FALSE                   20
 5 A. Whitne…    15 TRUE     NA           NA          FALSE                   20
 6 A. Whitne…    16 TRUE     NA           NA          FALSE                   20
 7 Alan Zwei…     5 TRUE     1980-04-09   NA          FALSE                    5
 8 Sasheer Z…    39 TRUE     2014-01-18   NA          FALSE                   11
 9 Sasheer Z…    40 TRUE     NA           NA          FALSE                   21
10 Sasheer Z…    41 FALSE    NA           NA          FALSE                   21
# ℹ 604 more rows
# ℹ 8 more variables: season_fraction <dbl>, year <dbl>, first_epid.y <date>,
#   last_epid.y <date>, n_episodes.y <dbl>, url <chr>, type <fct>, gender <fct>
…
actorCasts

Error in eval(expr, envir, enclos): object 'actorCasts' not found

join_snl2_casts2 <- casts1 %>% 
  inner_join(seasons1, by = "sid")

join_snl2_casts2$first_epid.x[is.na(join_snl2_casts2$first_epid.x)] <- join_snl2_casts2$first_epid.y
join_snl2_casts2$last_epid.x[is.na(join_snl2_casts2$last_epid.x)] <- join_snl2_casts2$last_epid.y
  
colnames(join_snl2_casts2) <- c("aid", "sid", "featured", "first_epid_actor", "last_epid_actor", "upload_anchor", "n_episodes_actor", "%_apperance", "year", "first_epid_season", "last_epid_season", "n_episodes_season")

join_snl2_casts2

# A tibble: 614 × 12
   aid               sid featured first_epid_actor last_epid_actor upload_anchor
   <chr>           <dbl> <lgl>    <date>           <date>          <lgl>        
 1 A. Whitney Bro…    11 TRUE     1986-02-22       1986-05-24      FALSE        
 2 A. Whitney Bro…    12 TRUE     1985-11-09       1987-05-23      FALSE        
 3 A. Whitney Bro…    13 TRUE     1986-10-11       1988-02-27      FALSE        
 4 A. Whitney Bro…    14 TRUE     1987-10-17       1989-05-20      FALSE        
 5 A. Whitney Bro…    15 TRUE     1988-10-08       1990-05-19      FALSE        
 6 A. Whitney Bro…    16 TRUE     1989-09-30       1991-05-18      FALSE        
 7 Alan Zweibel        5 TRUE     1980-04-09       1980-05-24      FALSE        
 8 Sasheer Zamata     39 TRUE     2014-01-18       2014-05-17      FALSE        
 9 Sasheer Zamata     40 TRUE     1990-09-29       2015-05-16      FALSE        
10 Sasheer Zamata     41 FALSE    1979-10-13       2016-05-21      FALSE        
# ℹ 604 more rows
# ℹ 6 more variables: n_episodes_actor <dbl>, `%_apperance` <dbl>, year <dbl>,
#   first_epid_season <date>, last_epid_season <date>, n_episodes_season <dbl>
…
