Challenge 2
…
Generated by summarytools 1.0.1 (R version 4.2.2)
2023-03-15

Add any comments or documentation as needed. More challenging data may require additional code chunks and documentation.

Describe the data

Using a combination of words and results of R commands, can you provide a high level description of the data? Describe as efficiently as possible where/how the data was (likely) gathered, indicate the cases and variables (both the interpretation and any details you deem useful to the reader to fully understand your chosen data).

Code

bookings%>% select(arrival_date_year, arrival_date_month)%>% distinct()

# A tibble: 26 × 2
   arrival_date_year arrival_date_month
               <dbl> <chr>             
 1              2015 July              
 2              2015 August            
 3              2015 September         
 4              2015 October           
 5              2015 November          
 6              2015 December          
 7              2016 January           
 8              2016 February          
 9              2016 March             
10              2016 April             
# … with 16 more rows
…
