Challenge 7
…
australian_marriage ⭐⭐

hotel_bookings ⭐⭐⭐

air_bnb ⭐⭐⭐

us_hh ⭐⭐⭐⭐

faostat ⭐⭐⭐⭐⭐

data <- read_csv('./_data/hotel_bookings.csv')
data

# A tibble: 119,390 × 32
   hotel        is_canceled lead_time arrival_date_year arrival_date_month
   <chr>              <dbl>     <dbl>             <dbl> <chr>             
 1 Resort Hotel           0       342              2015 July              
 2 Resort Hotel           0       737              2015 July              
 3 Resort Hotel           0         7              2015 July              
 4 Resort Hotel           0        13              2015 July              
 5 Resort Hotel           0        14              2015 July              
 6 Resort Hotel           0        14              2015 July              
 7 Resort Hotel           0         0              2015 July              
 8 Resort Hotel           0         9              2015 July              
 9 Resort Hotel           1        85              2015 July              
10 Resort Hotel           1        75              2015 July              
# ℹ 119,380 more rows
# ℹ 27 more variables: arrival_date_week_number <dbl>,
#   arrival_date_day_of_month <dbl>, stays_in_weekend_nights <dbl>,
#   stays_in_week_nights <dbl>, adults <dbl>, children <dbl>, babies <dbl>,
#   meal <chr>, country <chr>, market_segment <chr>,
#   distribution_channel <chr>, is_repeated_guest <dbl>,
#   previous_cancellations <dbl>, previous_bookings_not_canceled <dbl>, …
…
hotel <- data %>% unite(arrival_date_year, arrival_date_month, arrival_date_day_of_month,
        col = arrival_date, sep = "-")
# view new hotel data
hotel

# A tibble: 119,390 × 31
   hotel        is_canceled lead_time arrival_date arrival_date_week_number
   <chr>              <dbl>     <dbl> <chr>                           <dbl>
 1 Resort Hotel           0       342 2015-July-1                        27
 2 Resort Hotel           0       737 2015-July-1                        27
 3 Resort Hotel           0         7 2015-July-1                        27
 4 Resort Hotel           0        13 2015-July-1                        27
 5 Resort Hotel           0        14 2015-July-1                        27
 6 Resort Hotel           0        14 2015-July-1                        27
 7 Resort Hotel           0         0 2015-July-1                        27
 8 Resort Hotel           0         9 2015-July-1                        27
 9 Resort Hotel           1        85 2015-July-1                        27
10 Resort Hotel           1        75 2015-July-1                        27
# ℹ 119,380 more rows
# ℹ 26 more variables: stays_in_weekend_nights <dbl>,
#   stays_in_week_nights <dbl>, adults <dbl>, children <dbl>, babies <dbl>,
#   meal <chr>, country <chr>, market_segment <chr>,
#   distribution_channel <chr>, is_repeated_guest <dbl>,
#   previous_cancellations <dbl>, previous_bookings_not_canceled <dbl>,
#   reserved_room_type <chr>, assigned_room_type <chr>, …

plot1_data <- data %>% select(hotel,stays_in_weekend_nights, arrival_date_month) %>%
  group_by(hotel, arrival_date_month) %>%
  summarise(stays_in_weekend_nights = sum(stays_in_weekend_nights, na.rm=TRUE))

plot1_data

# A tibble: 24 × 3
# Groups:   hotel [2]
   hotel      arrival_date_month stays_in_weekend_nights
   <chr>      <chr>                                <dbl>
 1 City Hotel April                                 6398
 2 City Hotel August                                7539
 3 City Hotel December                              3468
 4 City Hotel February                              4161
 5 City Hotel January                               2947
 6 City Hotel July                                  7346
 7 City Hotel June                                  5521
 8 City Hotel March                                 4958
 9 City Hotel May                                   6045
10 City Hotel November                              3155
# ℹ 14 more rows
…
