Challenge 2 Using dataset ‘railroads’
…
Railroads dataset contains distinct observations of total employee counts, by counties within US states/principalities.

Let’s review some of the basics of this dataset: it’s overall size, its content in its columns and rows (which are the variables and observations, respectively, and how this dataset might have been compiled. We can do this by looking at the dataset itself:

Code

railroad <-read_csv("_data/railroad_2012_clean_county.csv")
library(modeest)

Code

select(railroad, state, county, total_employees)

# A tibble: 2,930 × 3
   state county               total_employees
   <chr> <chr>                          <dbl>
 1 AE    APO                                2
 2 AK    ANCHORAGE                          7
 3 AK    FAIRBANKS NORTH STAR               2
 4 AK    JUNEAU                             3
 5 AK    MATANUSKA-SUSITNA                  2
 6 AK    SITKA                              1
 7 AK    SKAGWAY MUNICIPALITY              88
 8 AL    AUTAUGA                          102
 9 AL    BALDWIN                          143
10 AL    BARBOUR                            1
# … with 2,920 more rows
…
The 2nd quantile of the count of employees by county begins at 7 and ends with 20.

The 3rd quantile of the count of employees by county begins at 21 and ends with 64.

The 4th quantile of the count of employees by county begins at 65 and ends with 8207.

We are seeing that the dataset has some very large counts of employees, and some very low counts of employees. From what we see in the ranges of employee counts in the quantile output, the 4th quantile of counts of employees by county has a very large range of employee counts, from 65 employees to 8,207 employees. The range of 65 employees to 8,207 employees is a very large range of employee counts, given the other 3 quantiles of occurrences of employee counts by county span only the count of 1 to the count of 64. The 4th quantile requires more examination, that will likely be best done through creating a new dataframe of only the 4th quantile to allow statistical calculations to examine the larger range of the 4th quantile, to provide more meaningful analysis of all of the original dataframe, since the first 3 quantiles have reltaively little variation in employee counts in comparison to the 4th quantile.

This makes us curious about the standard deviation of the individual counts of employees by county. Like the name conveys, the standard deviation ‘standardizes’ the variance of each observation’s difference from the dataset mean of 87.17816. Or, said differently, the standard deviation helps make the variances of each employee count from the employee mean more comparable.

Code

select(railroad,`total_employees`)

# A tibble: 2,930 × 1
   total_employees
             <dbl>
 1               2
 2               7
 3               2
 4               3
 5               2
 6               1
 7              88
 8             102
 9             143
10               1
# … with 2,920 more rows
…
Grouped Summary Statistics - Looking at our Dataset by State totals

Often, viewers of data like this dataset, want to know information by state, which this dataset doesn’t provide in summary. We can now look at some descriptive statistical measures of the states. We look at the highest employee count by state, the lowest employee count by state, the mean (or average) of each state in alphbetical order, and median of each state in alphbetical order.

Below we have the number of employees summarizing the county employee counts of each state, in alphabetical order of state.

Code

railroad%>%
  group_by(state)%>%
  select (`total_employees`)%>%
  summarize_all(sum, na.rm=TRUE)

# A tibble: 53 × 2
   state total_employees
   <chr>           <dbl>
 1 AE                  2
 2 AK                103
 3 AL               4257
 4 AP                  1
 5 AR               3871
 6 AZ               3153
 7 CA              13137
 8 CO               3650
 9 CT               2592
10 DC                279
# … with 43 more rows

Knowing the states with the highest number of employees and the lowest number of employees might be of interest. What follows are those two summarized listings of the highest and lowest counts of employees among the counties by state, in alphabetic order of states. A rank order of the highest and lowest employee counts is in the works for the future.

Code

railroad%>%
  group_by(state)%>%
  select (`total_employees`)%>%
  summarize_all(max, na.rm=TRUE)

# A tibble: 53 × 2
   state total_employees
   <chr>           <dbl>
 1 AE                  2
 2 AK                 88
 3 AL                990
 4 AP                  1
 5 AR                972
 6 AZ                749
 7 CA               2888
 8 CO                553
 9 CT               1561
10 DC                279
# … with 43 more rows

Code

railroad%>%
  group_by(state)%>%
  select (`total_employees`)%>%
  summarize_all(min, na.rm=TRUE)

# A tibble: 53 × 2
   state total_employees
   <chr>           <dbl>
 1 AE                  2
 2 AK                  1
 3 AL                  1
 4 AP                  1
 5 AR                  1
 6 AZ                  3
 7 CA                  1
 8 CO                  1
 9 CT                 26
10 DC                279
# … with 43 more rows

The mean of each state’s county employee counts, or, the average number of employees of all the counties within each state. The list is in alphabetical order of the states.

Code

railroad%>%
  group_by(state)%>%
  select (`total_employees`)%>%
  summarize_all(mean, na.rm=TRUE) 

# A tibble: 53 × 2
   state total_employees
   <chr>           <dbl>
 1 AE                2  
 2 AK               17.2
 3 AL               63.5
 4 AP                1  
 5 AR               53.8
 6 AZ              210. 
 7 CA              239. 
 8 CO               64.0
 9 CT              324  
10 DC              279  
# … with 43 more rows

The median of each state’s county employee counts, or, the median number of employees among the counties within each state, listed in alphabetical order of states.

Code

railroad%>%
  group_by(state)%>%
  select (`total_employees`)%>%
  summarize_all(median, na.rm=TRUE)

# A tibble: 53 × 2
   state total_employees
   <chr>           <dbl>
 1 AE                2  
 2 AK                2.5
 3 AL               26  
 4 AP                1  
 5 AR               16.5
 6 AZ               94  
 7 CA               61  
 8 CO               10  
 9 CT              125  
10 DC              279  
# … with 43 more rows
…
