Challenge 4
…
Let’s look at the dataframe in RStudio, and see what data types it includes, and what changes need to be made so it is “tidy” and easily manipulated for analysis. (We know from past challenges that how the dataframe appears in RStudio and on html is slightly different than how it appears in a .csv or .xls file, so we’ll keep taht and mind and touch on it later). At the bottom of the display of the dataframe, a list of the columns follows that details the datatypes within the dataset.

Code

ffr<-read_csv("_data/FedFundsRate.csv")
dim(ffr)

[1] 904  10

Code

ffr

# A tibble: 904 × 10
    Year Month   Day Federal F…¹ Feder…² Feder…³ Effec…⁴ Real …⁵ Unemp…⁶ Infla…⁷
   <dbl> <dbl> <dbl>       <dbl>   <dbl>   <dbl>   <dbl>   <dbl>   <dbl>   <dbl>
 1  1954     7     1          NA      NA      NA    0.8      4.6     5.8      NA
 2  1954     8     1          NA      NA      NA    1.22    NA       6        NA
 3  1954     9     1          NA      NA      NA    1.06    NA       6.1      NA
 4  1954    10     1          NA      NA      NA    0.85     8       5.7      NA
 5  1954    11     1          NA      NA      NA    0.83    NA       5.3      NA
 6  1954    12     1          NA      NA      NA    1.28    NA       5        NA
 7  1955     1     1          NA      NA      NA    1.39    11.9     4.9      NA
 8  1955     2     1          NA      NA      NA    1.29    NA       4.7      NA
 9  1955     3     1          NA      NA      NA    1.35    NA       4.6      NA
10  1955     4     1          NA      NA      NA    1.43     6.7     4.7      NA
# … with 894 more rows, and abbreviated variable names
#   ¹​`Federal Funds Target Rate`, ²​`Federal Funds Upper Target`,
#   ³​`Federal Funds Lower Target`, ⁴​`Effective Federal Funds Rate`,
#   ⁵​`Real GDP (Percent Change)`, ⁶​`Unemployment Rate`, ⁷​`Inflation Rate`
…
Now the 3 columns with year, month and date need to be changed to allow easier analysis. We will combine the day, month and year into one column. Because date-related calculations can be very complex there are a variety of ways to code dates. For this dataset, we will use a relatively simplistic coding of the date, as we are not concerned with the time of the particular date, or the time zone of the date of the indicators.

Using Mutate to Create Changes That Convert Data for Easier Analysis

Let’s use a mutate function to clear away the “NA” and make those cells blank. This will help clean up the look of this dataframe when it is viewed. We may need to consider another option to remove the “NA” if this choice causes issues with future calculations. In HTML, the blank appears as ““, which is the code used to create the blank in the on screen representation of dataframe. I guess you’ll just have to believe me that the blanks appeared in place of the NA on my screen in RStudio….

The end of the dataframe is also displayed to show additional lines of indicator values, as the first 10 lines of the dataframe has relatively few indicator values because of when in time the various indicators began to be reported, which result in blank cells for those dates.

Code

ffrpl$`Rates of Specified Date`[is.na(ffrpl$`Rates of Specified Date`)] <- ""
ffrpl

# A tibble: 6,328 × 5
    Year Month   Day `Economic Indicator`         `Rates of Specified Date`
   <dbl> <dbl> <dbl> <chr>                        <chr>                    
 1  1954     7     1 Federal Funds Target Rate    ""                       
 2  1954     7     1 Federal Funds Upper Target   ""                       
 3  1954     7     1 Federal Funds Lower Target   ""                       
 4  1954     7     1 Effective Federal Funds Rate "0.8"                    
 5  1954     7     1 Real GDP (Percent Change)    "4.6"                    
 6  1954     7     1 Unemployment Rate            "5.8"                    
 7  1954     7     1 Inflation Rate               ""                       
 8  1954     8     1 Federal Funds Target Rate    ""                       
 9  1954     8     1 Federal Funds Upper Target   ""                       
10  1954     8     1 Federal Funds Lower Target   ""                       
# … with 6,318 more rows
…
ffrpl$`Rates of Specified Date` <- as.numeric(as.character(ffrpl$`Rates of Specified Date`))

sapply(ffrpl, class)

                   Year                   Month                     Day 
              "numeric"               "numeric"               "numeric" 
     Economic Indicator Rates of Specified Date 
            "character"               "numeric" 

Code

ffrpl

# A tibble: 6,328 × 5
    Year Month   Day `Economic Indicator`         `Rates of Specified Date`
   <dbl> <dbl> <dbl> <chr>                                            <dbl>
 1  1954     7     1 Federal Funds Target Rate                         NA  
 2  1954     7     1 Federal Funds Upper Target                        NA  
 3  1954     7     1 Federal Funds Lower Target                        NA  
 4  1954     7     1 Effective Federal Funds Rate                       0.8
 5  1954     7     1 Real GDP (Percent Change)                          4.6
 6  1954     7     1 Unemployment Rate                                  5.8
 7  1954     7     1 Inflation Rate                                    NA  
 8  1954     8     1 Federal Funds Target Rate                         NA  
 9  1954     8     1 Federal Funds Upper Target                        NA  
10  1954     8     1 Federal Funds Lower Target                        NA  
# … with 6,318 more rows
After changing the datatype of the Rate of Specified Date column using a function in R, it is now “numeric” in the display of column headings and datatype. The column is labelled  under the column heading in the dataframe display.

We also see the NA is back, after making this datatype change to numeric. This issue will require further problem solving in another challenge.

Now we move on to making a data column that combines the month, day and year into Month/Day/Year format.

Code

date_cols <- c("Month", "Day", "Year")

ffrpl$MonthDayYear <- do.call(paste, c(ffrpl[date_cols], sep = "/"))

ffrpl

# A tibble: 6,328 × 6
    Year Month   Day `Economic Indicator`         Rates of Specified D…¹ Month…²
   <dbl> <dbl> <dbl> <chr>                                         <dbl> <chr>  
 1  1954     7     1 Federal Funds Target Rate                      NA   7/1/19…
 2  1954     7     1 Federal Funds Upper Target                     NA   7/1/19…
 3  1954     7     1 Federal Funds Lower Target                     NA   7/1/19…
 4  1954     7     1 Effective Federal Funds Rate                    0.8 7/1/19…
 5  1954     7     1 Real GDP (Percent Change)                       4.6 7/1/19…
 6  1954     7     1 Unemployment Rate                               5.8 7/1/19…
 7  1954     7     1 Inflation Rate                                 NA   7/1/19…
 8  1954     8     1 Federal Funds Target Rate                      NA   8/1/19…
 9  1954     8     1 Federal Funds Upper Target                     NA   8/1/19…
10  1954     8     1 Federal Funds Lower Target                     NA   8/1/19…
# … with 6,318 more rows, and abbreviated variable names
#   ¹​`Rates of Specified Date`, ²​MonthDayYear

The Month/Day/Year column appears on the right side of the dataframe as expected. It is a character datatype as-is, so to enable date calculations in future analysis, we’ll change the datatype of the new combined date column to date as our next step.

Use of Lubridate for Month/Day/Year Column

Code

ffrpl$MonthDayYear <- mdy(ffrpl$MonthDayYear)

ffrpl

# A tibble: 6,328 × 6
    Year Month   Day `Economic Indicator`         Rates of Specifie…¹ MonthDay…²
   <dbl> <dbl> <dbl> <chr>                                      <dbl> <date>    
 1  1954     7     1 Federal Funds Target Rate                   NA   1954-07-01
 2  1954     7     1 Federal Funds Upper Target                  NA   1954-07-01
 3  1954     7     1 Federal Funds Lower Target                  NA   1954-07-01
 4  1954     7     1 Effective Federal Funds Rate                 0.8 1954-07-01
 5  1954     7     1 Real GDP (Percent Change)                    4.6 1954-07-01
 6  1954     7     1 Unemployment Rate                            5.8 1954-07-01
 7  1954     7     1 Inflation Rate                              NA   1954-07-01
 8  1954     8     1 Federal Funds Target Rate                   NA   1954-08-01
 9  1954     8     1 Federal Funds Upper Target                  NA   1954-08-01
10  1954     8     1 Federal Funds Lower Target                  NA   1954-08-01
# … with 6,318 more rows, and abbreviated variable names
#   ¹​`Rates of Specified Date`, ²​MonthDayYear
…
