challenge_3
…
knitr::opts_chunk$set(echo = TRUE, warning=FALSE, message=FALSE)

#####reposted 3/26/2023 to correct missing date in YML. Originally posted 3/8/23.

DataSet Used

Code

eggs_tidy<-read_csv("_data/eggs_tidy.csv")

Code

select(eggs_tidy, month,year,large_half_dozen,large_dozen,extra_large_half_dozen,extra_large_dozen)

# A tibble: 120 × 6
   month      year large_half_dozen large_dozen extra_large_half_dozen extra_l…¹
   <chr>     <dbl>            <dbl>       <dbl>                  <dbl>     <dbl>
 1 January    2004             126         230                    132       230 
 2 February   2004             128.        226.                   134.      230 
 3 March      2004             131         225                    137       230 
 4 April      2004             131         225                    137       234.
 5 May        2004             131         225                    137       236 
 6 June       2004             134.        231.                   137       241 
 7 July       2004             134.        234.                   137       241 
 8 August     2004             134.        234.                   137       241 
 9 September  2004             130.        234.                   136.      241 
10 October    2004             128.        234.                   136.      241 
# … with 110 more rows, and abbreviated variable name ¹​extra_large_dozen
…
Suppose you have a dataset with \(n\) 120 rows and \(k\) 6 variables. In our example, 2 of the variables are used to identify a case, so you will be pivoting \(k-2\) variables into a longer format where the \(k-2\) variable names will move into the names_to variable and the current values in each of those columns will move into the values_to variable. Therefore, we would expect \(n * (k-4)\) rows in the pivoted dataframe!

Eggs_Tidy example has \(n =120\) rows and \(k - 2 = 4\) variables being pivoted, so we expect a new dataframe to have \(n * 4 = 480\) rows x \(2 + 2 = 4\) columns.

Eggs_Tidy After Using Pivot_Longer Function

Code

eggs_tidy %>%
  pivot_longer(
    cols = ends_with("dozen"),
    names_to = "carton type",
    values_to = "units")

# A tibble: 480 × 4
   month     year `carton type`          units
   <chr>    <dbl> <chr>                  <dbl>
 1 January   2004 large_half_dozen        126 
 2 January   2004 large_dozen             230 
 3 January   2004 extra_large_half_dozen  132 
 4 January   2004 extra_large_dozen       230 
 5 February  2004 large_half_dozen        128.
 6 February  2004 large_dozen             226.
 7 February  2004 extra_large_half_dozen  134.
 8 February  2004 extra_large_dozen       230 
 9 March     2004 large_half_dozen        131 
10 March     2004 large_dozen             225 
# … with 470 more rows
…
