Challenge_6: Fed Funds Rate
…
knitr::opts_chunk$set(echo = TRUE, warning=FALSE, message=FALSE)

Bringing in the Dataset as a Chart to Initially Review Its Content and Structure

We’ll look at the dataset, Fed Funds Rate, as we did in Challenge 4. As-is, the dataset has 894 lines and 10 columns.

ffr<-read_csv("_data/FedFundsRate.csv")

ffr

# A tibble: 904 × 10
    Year Month   Day Federal F…¹ Feder…² Feder…³ Effec…⁴ Real …⁵ Unemp…⁶ Infla…⁷
   <dbl> <dbl> <dbl>       <dbl>   <dbl>   <dbl>   <dbl>   <dbl>   <dbl>   <dbl>
 1  1954     7     1          NA      NA      NA    0.8      4.6     5.8      NA
 2  1954     8     1          NA      NA      NA    1.22    NA       6        NA
 3  1954     9     1          NA      NA      NA    1.06    NA       6.1      NA
 4  1954    10     1          NA      NA      NA    0.85     8       5.7      NA
 5  1954    11     1          NA      NA      NA    0.83    NA       5.3      NA
 6  1954    12     1          NA      NA      NA    1.28    NA       5        NA
 7  1955     1     1          NA      NA      NA    1.39    11.9     4.9      NA
 8  1955     2     1          NA      NA      NA    1.29    NA       4.7      NA
 9  1955     3     1          NA      NA      NA    1.35    NA       4.6      NA
10  1955     4     1          NA      NA      NA    1.43     6.7     4.7      NA
# … with 894 more rows, and abbreviated variable names
#   ¹​`Federal Funds Target Rate`, ²​`Federal Funds Upper Target`,
#   ³​`Federal Funds Lower Target`, ⁴​`Effective Federal Funds Rate`,
#   ⁵​`Real GDP (Percent Change)`, ⁶​`Unemployment Rate`, ⁷​`Inflation Rate`

The dataset requires some steps to tidy it. Seven of the fed fund rates and economic indicator rates are listed in columms and must be moved to lines to ease use of this dataset for analysis and graphing. We use the function pivot_longer to move the seven columns to lines and add back a column for the corresponding rates of each line. We now have a dataset with 6,328 lines and 5 columns.

##Let’s Tidy the Data

ffrpl<-ffr %>% pivot_longer(
  cols = "Federal Funds Target Rate":"Inflation Rate",
  names_to = "Economic Indicator",
  values_to = "Rates of Specified Date")
ffrpl

# A tibble: 6,328 × 5
    Year Month   Day `Economic Indicator`         `Rates of Specified Date`
   <dbl> <dbl> <dbl> <chr>                                            <dbl>
 1  1954     7     1 Federal Funds Target Rate                         NA  
 2  1954     7     1 Federal Funds Upper Target                        NA  
 3  1954     7     1 Federal Funds Lower Target                        NA  
 4  1954     7     1 Effective Federal Funds Rate                       0.8
 5  1954     7     1 Real GDP (Percent Change)                          4.6
 6  1954     7     1 Unemployment Rate                                  5.8
 7  1954     7     1 Inflation Rate                                    NA  
 8  1954     8     1 Federal Funds Target Rate                         NA  
 9  1954     8     1 Federal Funds Upper Target                        NA  
10  1954     8     1 Federal Funds Lower Target                        NA  
# … with 6,318 more rows

The dataset looks better, although the 3 columns for the date (year, month, day) won’t always be the most helpful way to look at the date or use the date for graphing. For these reasons, we’ll made a data column that combines the 3 columns into one column, and makes the datatype of the new combined column a ‘date’ datatype, whereas the 3 columns have dataype of  or double.

Mutate and lubridate are the functions used to combine the 3 columns into one for the date. The date has a format of yyyy-mm-dd.

##Make a Combined Date Column to Ease Reading the Date in the Chart

ffrpl_dates<-ffrpl%>%
  mutate(date = str_c(Year, Month, Day, sep="-"),
         date = ymd(date))

ffrpl_dates

# A tibble: 6,328 × 6
    Year Month   Day `Economic Indicator`         Rates of Specifie…¹ date      
   <dbl> <dbl> <dbl> <chr>                                      <dbl> <date>    
 1  1954     7     1 Federal Funds Target Rate                   NA   1954-07-01
 2  1954     7     1 Federal Funds Upper Target                  NA   1954-07-01
 3  1954     7     1 Federal Funds Lower Target                  NA   1954-07-01
 4  1954     7     1 Effective Federal Funds Rate                 0.8 1954-07-01
 5  1954     7     1 Real GDP (Percent Change)                    4.6 1954-07-01
 6  1954     7     1 Unemployment Rate                            5.8 1954-07-01
 7  1954     7     1 Inflation Rate                              NA   1954-07-01
 8  1954     8     1 Federal Funds Target Rate                   NA   1954-08-01
 9  1954     8     1 Federal Funds Upper Target                  NA   1954-08-01
10  1954     8     1 Federal Funds Lower Target                  NA   1954-08-01
# … with 6,318 more rows, and abbreviated variable name
#   ¹​`Rates of Specified Date`
…
