Challenge 3: Create a tidy organiceggpoultry dataset
…
Code

orig_organiceggpoultry <- read_xls(  "_data/organiceggpoultry.xls"
                                     , sheet = "Data"
                                     , col_names =  FALSE)

orig_organiceggpoultry <- read_xls(  "_data/organiceggpoultry.xls"
                                     , sheet = "Data"
                                     , col_names = c("yearmonth", "eggcost_xl_12", "eggcost_xl_6", "eggcost_l_12", "eggcost_l_6", "delete", "chix_whole", "chix_boneskin_breast", "chix_bone_breast", "chix_whole_leg", "chix_thigh" ) 
                                     , skip = 5)

orig_organiceggpoultry

# A tibble: 120 × 11
   yearmonth eggcost_xl…¹ eggco…² eggco…³ eggco…⁴ delete chix_…⁵ chix_…⁶ chix_…⁷
   <chr>            <dbl>   <dbl>   <dbl>   <dbl> <lgl>    <dbl>   <dbl> <chr>  
 1 Jan 2004          230     132     230     126  NA        198.    646. too few
 2 February          230     134.    226.    128. NA        198.    642. too few
 3 March             230     137     225     131  NA        209     642. too few
 4 April             234.    137     225     131  NA        212     642. too few
 5 May               236     137     225     131  NA        214.    642. too few
 6 June              241     137     231.    134. NA        216.    641  too few
 7 July              241     137     234.    134. NA        217     642. 390.5  
 8 August            241     137     234.    134. NA        217     642. 390.5  
 9 September         241     136.    234.    130. NA        217     642. 390.5  
10 October           241     136.    234.    128. NA        217     642. 390.5  
# … with 110 more rows, 2 more variables: chix_whole_leg <dbl>,
#   chix_thigh <chr>, and abbreviated variable names ¹​eggcost_xl_12,
#   ²​eggcost_xl_6, ³​eggcost_l_12, ⁴​eggcost_l_6, ⁵​chix_whole,
#   ⁶​chix_boneskin_breast, ⁷​chix_bone_breast
Code

orig_organiceggpoultry%>%
    select(yearmonth)%>%
    n_distinct

[1] 22

Code

orig_organiceggpoultry%>%
    select(yearmonth)%>%
    distinct

# A tibble: 22 × 1
   yearmonth
   <chr>    
 1 Jan 2004 
 2 February 
 3 March    
 4 April    
 5 May      
 6 June     
 7 July     
 8 August   
 9 September
10 October  
# … with 12 more rows
…
