Challenge 4: FedFundRate.csv Clean Up
…
[1] 904

Code

  # evaluate the count of records per year/month & distribution of day 
  fedfundrate_pretidy  %>%
    group_by(year,month) %>%
       summarise(   n = n()
                  , min(day, na.rm=T)
                  , max_day = max(day, na.rm=T))%>%
          arrange(year, month)

# A tibble: 753 × 5
# Groups:   year [64]
    year month     n `min(day, na.rm = T)` max_day
   <dbl> <dbl> <int>                 <dbl>   <dbl>
 1  1954     7     1                     1       1
 2  1954     8     1                     1       1
 3  1954     9     1                     1       1
 4  1954    10     1                     1       1
 5  1954    11     1                     1       1
 6  1954    12     1                     1       1
 7  1955     1     1                     1       1
 8  1955     2     1                     1       1
 9  1955     3     1                     1       1
10  1955     4     1                     1       1
# … with 743 more rows
Code

  # evaluate the missingness of measures by year;
    fedfundrate_pretidy  %>%
    group_by(year) %>%
       summarise( n = n(),
                  na_count_fedfunds_targetrate    = sum(is.na(fedfunds_targetrate )),
                  na_count_fedfunds_targetupper   = sum(is.na(fedfunds_targetupper)),
                  na_count_fedfunds_targetlower   = sum(is.na(fedfunds_targetlower)), 
                  na_count_fedfunds_effectiverate = sum(is.na(fedfunds_effectiverate )), 
                  na_count_realgdp_percentchange  = sum(is.na(realgdp_percentchange)), 
                  na_count_unemployment_rate      = sum(is.na(unemployment_rate )), 
                  na_count_inflation_rate         = sum(is.na(inflation_rate)) )

# A tibble: 64 × 9
    year     n na_count_fedfun…¹ na_co…² na_co…³ na_co…⁴ na_co…⁵ na_co…⁶ na_co…⁷
   <dbl> <int>             <int>   <int>   <int>   <int>   <int>   <int>   <int>
 1  1954     6                 6       6       6       0       4       0       6
 2  1955    12                12      12      12       0       8       0      12
 3  1956    12                12      12      12       0       8       0      12
 4  1957    12                12      12      12       0       8       0      12
 5  1958    12                12      12      12       0       8       0       0
 6  1959    12                12      12      12       0       8       0       0
 7  1960    12                12      12      12       0       8       0       0
 8  1961    12                12      12      12       0       8       0       0
 9  1962    12                12      12      12       0       8       0       0
10  1963    12                12      12      12       0       8       0       0
# … with 54 more rows, and abbreviated variable names
#   ¹​na_count_fedfunds_targetrate, ²​na_count_fedfunds_targetupper,
#   ³​na_count_fedfunds_targetlower, ⁴​na_count_fedfunds_effectiverate,
#   ⁵​na_count_realgdp_percentchange, ⁶​na_count_unemployment_rate,
#   ⁷​na_count_inflation_rate
…
                   avg_fedfunds_effectiverate = mean(fedfunds_effectiverate, na.rm=TRUE),
                   med_fedfunds_effectiverate = median(fedfunds_effectiverate, na.rm=TRUE),
                 
                   avg_realgdp_percentchange= mean(realgdp_percentchange, na.rm=TRUE),
                   med_realgdp_percentchange = median(realgdp_percentchange, na.rm=TRUE),
                 
                   avg_unemployment_rate = mean(unemployment_rate, na.rm=TRUE),
                   med_unemployment_rate = median(unemployment_rate, na.rm=TRUE),
                 
                   avg_inflation_rate = mean(inflation_rate, na.rm=TRUE),
                   med_inflation_rate = median(inflation_rate, na.rm=TRUE) )

# A tibble: 64 × 15
    year avg_f…¹ med_f…² avg_f…³ med_f…⁴ avg_f…⁵ med_f…⁶ avg_f…⁷ med_f…⁸ avg_r…⁹
   <dbl>   <dbl>   <dbl>   <dbl>   <dbl>   <dbl>   <dbl>   <dbl>   <dbl>   <dbl>
 1  1954     NaN      NA     NaN      NA     NaN      NA    1.01   0.955   6.3  
 2  1955     NaN      NA     NaN      NA     NaN      NA    1.78   1.66    6.62 
 3  1956     NaN      NA     NaN      NA     NaN      NA    2.73   2.74    2.08 
 4  1957     NaN      NA     NaN      NA     NaN      NA    3.10   3       0.425
 5  1958     NaN      NA     NaN      NA     NaN      NA    1.57   1.6     2.97 
 6  1959     NaN      NA     NaN      NA     NaN      NA    3.30   3.43    4.65 
 7  1960     NaN      NA     NaN      NA     NaN      NA    3.22   3.28    0.975
 8  1961     NaN      NA     NaN      NA     NaN      NA    1.96   1.99    6.35 
 9  1962     NaN      NA     NaN      NA     NaN      NA    2.71   2.82    4.32 
10  1963     NaN      NA     NaN      NA     NaN      NA    3.18   3.01    5.18 
# … with 54 more rows, 5 more variables: med_realgdp_percentchange <dbl>,
#   avg_unemployment_rate <dbl>, med_unemployment_rate <dbl>,
#   avg_inflation_rate <dbl>, med_inflation_rate <dbl>, and abbreviated
#   variable names ¹​avg_fedfunds_targetrate, ²​med_fedfunds_targetrate,
#   ³​avg_fedfunds_targetupper, ⁴​med_fedfunds_targetupper,
#   ⁵​avg_fedfunds_targetlower, ⁶​med_fedfunds_targetlower,
#   ⁷​avg_fedfunds_effectiverate, ⁸​med_fedfunds_effectiverate, …
…
