Challenge 8
…
   # Sanity check 
   nrow(debt_mutate)

[1] 74

   nrow(rate_debt)

[1] 74

   rate_debt

# A tibble: 74 × 4
    year quarter total_debt mean_unemployment_rate
   <dbl>   <dbl>      <dbl>                  <dbl>
 1  2003       1       7.23                   5.87
 2  2003       2       7.38                  NA   
 3  2003       3       7.56                   6.13
 4  2003       4       8.07                   5.83
 5  2004       1       8.29                   5.7 
 6  2004       2       8.46                  NA   
 7  2004       3       8.83                  NA   
 8  2004       4       9.04                  NA   
 9  2005       1       9.21                  NA   
10  2005       2       9.49                  NA   
# … with 64 more rows
…
