Challenge 6
…
 pivot_longer(abc_poll_2021, cols = ppstaten, names_to = "variable", values_to = "ppstaten")

# A tibble: 527 × 32
        id xspanish comple…¹ ppage ppeduc5 ppedu…² ppgen…³ ppethm pphhs…⁴ ppinc7
     <int> <chr>    <chr>    <int> <chr>   <chr>   <chr>   <chr>  <chr>   <chr> 
 1 7230001 English  qualifi…    68 "High … High s… Female  White… 2       $25,0…
 2 7230002 English  qualifi…    85 "Bache… Bachel… Male    White… 2       $150,…
 3 7230003 English  qualifi…    69 "High … High s… Male    White… 2       $100,…
 4 7230004 English  qualifi…    74 "Bache… Bachel… Female  White… 1       $25,0…
 5 7230005 English  qualifi…    77 "High … High s… Male    White… 3       $10,0…
 6 7230006 English  qualifi…    70 "Bache… Bachel… Male    White… 2       $75,0…
 7 7230007 English  qualifi…    26 "Maste… Bachel… Male    Other… 3       $150,…
 8 7230008 English  qualifi…    76 "Bache… Bachel… Male    Black… 2       $50,0…
 9 7230009 English  qualifi…    78 "Bache… Bachel… Female  White… 2       $150,…
10 7230010 English  qualifi…    47 "Maste… Bachel… Male    Other… 4       $150,…
# … with 517 more rows, 22 more variables: ppmarit5 <chr>, ppmsacat <chr>,
#   ppreg4 <chr>, pprent <chr>, PPWORKA <chr>, ppemploy <chr>, Q1_a <chr>,
#   Q1_b <chr>, Q1_c <chr>, Q1_d <chr>, Q1_e <chr>, Q1_f <chr>, Q2 <chr>,
#   Q3 <chr>, Q4 <chr>, Q5 <chr>, QPID <chr>, ABCAGE <chr>, Contact <chr>,
#   weights_pid <dbl>, variable <chr>, ppstaten <chr>, and abbreviated variable
#   names ¹​complete_status, ²​ppeducat, ³​ppgender, ⁴​pphhsize

Pivot wider function from ppeducat from abcage.

pivot_wider(abc_poll_2021, names_from = 'ppeducat', values_from = "ABCAGE" )

# A tibble: 527 × 33
        id xspanish comple…¹ ppage ppeduc5 ppgen…² ppethm pphhs…³ ppinc7 ppmar…⁴
     <int> <chr>    <chr>    <int> <chr>   <chr>   <chr>  <chr>   <chr>  <chr>  
 1 7230001 English  qualifi…    68 "High … Female  White… 2       $25,0… Now Ma…
 2 7230002 English  qualifi…    85 "Bache… Male    White… 2       $150,… Now Ma…
 3 7230003 English  qualifi…    69 "High … Male    White… 2       $100,… Now Ma…
 4 7230004 English  qualifi…    74 "Bache… Female  White… 1       $25,0… Divorc…
 5 7230005 English  qualifi…    77 "High … Male    White… 3       $10,0… Now Ma…
 6 7230006 English  qualifi…    70 "Bache… Male    White… 2       $75,0… Now Ma…
 7 7230007 English  qualifi…    26 "Maste… Male    Other… 3       $150,… Never …
 8 7230008 English  qualifi…    76 "Bache… Male    Black… 2       $50,0… Now Ma…
 9 7230009 English  qualifi…    78 "Bache… Female  White… 2       $150,… Now Ma…
10 7230010 English  qualifi…    47 "Maste… Male    Other… 4       $150,… Now Ma…
# … with 517 more rows, 23 more variables: ppmsacat <chr>, ppreg4 <chr>,
#   pprent <chr>, ppstaten <chr>, PPWORKA <chr>, ppemploy <chr>, Q1_a <chr>,
#   Q1_b <chr>, Q1_c <chr>, Q1_d <chr>, Q1_e <chr>, Q1_f <chr>, Q2 <chr>,
#   Q3 <chr>, Q4 <chr>, Q5 <chr>, QPID <chr>, Contact <chr>, weights_pid <dbl>,
#   `High school` <chr>, `Bachelors degree or higher` <chr>,
#   `Some college` <chr>, `Less than high school` <chr>, and abbreviated
#   variable names ¹​complete_status, ²​ppgender, ³​pphhsize, ⁴​ppmarit5

We mutate(row=row_number()) to give each row unique identification.

abc_poll_2021 %>%
  mutate(row=row_number()) %>%
  pivot_wider(names_from = ppreg4, values_from = ABCAGE)

# A tibble: 527 × 34
        id xspanish comple…¹ ppage ppeduc5 ppedu…² ppgen…³ ppethm pphhs…⁴ ppinc7
     <int> <chr>    <chr>    <int> <chr>   <chr>   <chr>   <chr>  <chr>   <chr> 
 1 7230001 English  qualifi…    68 "High … High s… Female  White… 2       $25,0…
 2 7230002 English  qualifi…    85 "Bache… Bachel… Male    White… 2       $150,…
 3 7230003 English  qualifi…    69 "High … High s… Male    White… 2       $100,…
 4 7230004 English  qualifi…    74 "Bache… Bachel… Female  White… 1       $25,0…
 5 7230005 English  qualifi…    77 "High … High s… Male    White… 3       $10,0…
 6 7230006 English  qualifi…    70 "Bache… Bachel… Male    White… 2       $75,0…
 7 7230007 English  qualifi…    26 "Maste… Bachel… Male    Other… 3       $150,…
 8 7230008 English  qualifi…    76 "Bache… Bachel… Male    Black… 2       $50,0…
 9 7230009 English  qualifi…    78 "Bache… Bachel… Female  White… 2       $150,…
10 7230010 English  qualifi…    47 "Maste… Bachel… Male    Other… 4       $150,…
# … with 517 more rows, 24 more variables: ppmarit5 <chr>, ppmsacat <chr>,
#   pprent <chr>, ppstaten <chr>, PPWORKA <chr>, ppemploy <chr>, Q1_a <chr>,
#   Q1_b <chr>, Q1_c <chr>, Q1_d <chr>, Q1_e <chr>, Q1_f <chr>, Q2 <chr>,
#   Q3 <chr>, Q4 <chr>, Q5 <chr>, QPID <chr>, Contact <chr>, weights_pid <dbl>,
#   row <int>, South <chr>, NorthEast <chr>, MidWest <chr>, West <chr>, and
#   abbreviated variable names ¹​complete_status, ²​ppeducat, ³​ppgender,
#   ⁴​pphhsize
…
