Challenge 4
…
FedFundsRate.csv⭐⭐⭐

hotel_bookings.csv⭐⭐⭐⭐

debt_in_trillions.xlsx ⭐⭐⭐⭐⭐

Code

# Reading in the  data
library(readr)
FedFundsRate <- read_csv("~/Desktop/601_Spring_2023/posts/_data/FedFundsRate.csv")

FedFundsRate

# A tibble: 904 × 10
    Year Month   Day Federal F…¹ Feder…² Feder…³ Effec…⁴ Real …⁵ Unemp…⁶ Infla…⁷
   <dbl> <dbl> <dbl>       <dbl>   <dbl>   <dbl>   <dbl>   <dbl>   <dbl>   <dbl>
 1  1954     7     1          NA      NA      NA    0.8      4.6     5.8      NA
 2  1954     8     1          NA      NA      NA    1.22    NA       6        NA
 3  1954     9     1          NA      NA      NA    1.06    NA       6.1      NA
 4  1954    10     1          NA      NA      NA    0.85     8       5.7      NA
 5  1954    11     1          NA      NA      NA    0.83    NA       5.3      NA
 6  1954    12     1          NA      NA      NA    1.28    NA       5        NA
 7  1955     1     1          NA      NA      NA    1.39    11.9     4.9      NA
 8  1955     2     1          NA      NA      NA    1.29    NA       4.7      NA
 9  1955     3     1          NA      NA      NA    1.35    NA       4.6      NA
10  1955     4     1          NA      NA      NA    1.43     6.7     4.7      NA
# … with 894 more rows, and abbreviated variable names
#   ¹​`Federal Funds Target Rate`, ²​`Federal Funds Upper Target`,
#   ³​`Federal Funds Lower Target`, ⁴​`Effective Federal Funds Rate`,
#   ⁵​`Real GDP (Percent Change)`, ⁶​`Unemployment Rate`, ⁷​`Inflation Rate`
…
# Tidy in the  data

library(readr)
FedFundsRate <- read_csv("~/Desktop/601_Spring_2023/posts/_data/FedFundsRate.csv")
FedFundsRate %>% gather('1954','1955','1956','1957','1958','1959','1960','1961','1962','1963','1964','1965','1966','1967','1968','1969','1970','1971','1972','1973','1974','1975','1976','1977','1978','1979','1980','1981','1982','1983','1984','1985','1986','1987','1988','1989','1990','1991','1992','1993','1994','1995','1996','1997','1998','1999','2000','2001','2002','2003','2004','2005','2006','2007','2008','2009','2010','2011','2012','2013','2014','2015','2016','2017','2018','2019','2020','2021','2022','2023', key = "Year")

Error in `gather()`:
! Can't subset columns that don't exist.
✖ Column `1955` doesn't exist.

Code

FedFundsRate

# A tibble: 904 × 10
    Year Month   Day Federal F…¹ Feder…² Feder…³ Effec…⁴ Real …⁵ Unemp…⁶ Infla…⁷
   <dbl> <dbl> <dbl>       <dbl>   <dbl>   <dbl>   <dbl>   <dbl>   <dbl>   <dbl>
 1  1954     7     1          NA      NA      NA    0.8      4.6     5.8      NA
 2  1954     8     1          NA      NA      NA    1.22    NA       6        NA
 3  1954     9     1          NA      NA      NA    1.06    NA       6.1      NA
 4  1954    10     1          NA      NA      NA    0.85     8       5.7      NA
 5  1954    11     1          NA      NA      NA    0.83    NA       5.3      NA
 6  1954    12     1          NA      NA      NA    1.28    NA       5        NA
 7  1955     1     1          NA      NA      NA    1.39    11.9     4.9      NA
 8  1955     2     1          NA      NA      NA    1.29    NA       4.7      NA
 9  1955     3     1          NA      NA      NA    1.35    NA       4.6      NA
10  1955     4     1          NA      NA      NA    1.43     6.7     4.7      NA
# … with 894 more rows, and abbreviated variable names
#   ¹​`Federal Funds Target Rate`, ²​`Federal Funds Upper Target`,
#   ³​`Federal Funds Lower Target`, ⁴​`Effective Federal Funds Rate`,
#   ⁵​`Real GDP (Percent Change)`, ⁶​`Unemployment Rate`, ⁷​`Inflation Rate`
…
