Challenge 4
…
We’ll be dropping 3 + 1 + 1 columns and adding 1 column. So we’ll have 28 columns after tidying.

Code

# checking out the values in columns to better understand the data
unique(bookings$is_repeated_guest)

[1] 0 1

Code

select(bookings, previous_bookings_not_canceled)

# A tibble: 119,390 × 1
   previous_bookings_not_canceled
                            <dbl>
 1                              0
 2                              0
 3                              0
 4                              0
 5                              0
 6                              0
 7                              0
 8                              0
 9                              0
10                              0
# ℹ 119,380 more rows

Code

# combining arrival date information into 1 column
tidy_bookings <- bookings %>%
  mutate(arrival_date = (str_c(arrival_date_day_of_month, arrival_date_month, arrival_date_year, sep = "/")), arrival_date = dmy(arrival_date), .after = lead_time)

# removing all the above mentioned redundant data
tidy_bookings <- tidy_bookings[,-c(5, 6, 8, 14, 16)]
tidy_bookings

# A tibble: 119,390 × 28
   hotel        is_canceled lead_time arrival_date arrival_date_week_number
   <chr>              <dbl>     <dbl> <date>                          <dbl>
 1 Resort Hotel           0       342 2015-07-01                         27
 2 Resort Hotel           0       737 2015-07-01                         27
 3 Resort Hotel           0         7 2015-07-01                         27
 4 Resort Hotel           0        13 2015-07-01                         27
 5 Resort Hotel           0        14 2015-07-01                         27
 6 Resort Hotel           0        14 2015-07-01                         27
 7 Resort Hotel           0         0 2015-07-01                         27
 8 Resort Hotel           0         9 2015-07-01                         27
 9 Resort Hotel           1        85 2015-07-01                         27
10 Resort Hotel           1        75 2015-07-01                         27
# ℹ 119,380 more rows
# ℹ 23 more variables: stays_in_weekend_nights <dbl>,
#   stays_in_week_nights <dbl>, adults <dbl>, children <dbl>, babies <dbl>,
#   country <chr>, distribution_channel <chr>, is_repeated_guest <dbl>,
#   previous_cancellations <dbl>, previous_bookings_not_canceled <dbl>,
#   reserved_room_type <chr>, assigned_room_type <chr>, booking_changes <dbl>,
#   deposit_type <chr>, agent <chr>, company <chr>, …
…
