Challenge 8
…
cast_actor_season 

# A tibble: 95 × 4
# Groups:   sid, year, gender [95]
     sid  year gender     n
   <int> <int> <chr>  <int>
 1     1  1975 female     3
 2     1  1975 male       6
 3     2  1976 female     3
 4     2  1976 male       5
 5     3  1977 female     3
 6     3  1977 male       6
 7     4  1978 female     3
 8     4  1978 male       6
 9     5  1979 female     3
10     5  1979 male      12
# ℹ 85 more rows
…
