Challenge 2
…
# A tibble: 1 × 2
  employee_count maxCounty
           <dbl> <chr>    
1           8207 COOK     

COOK is the county with the maximum number of railroad employees (8207).

Code

# retrieving information of the county with the maximum number of railroad employees
reframe(rr, employee_count = min(total_employees), minCounty = county[which(total_employees == min(total_employees))])

# A tibble: 145 × 2
   employee_count minCounty
            <dbl> <chr>    
 1              1 SITKA    
 2              1 BARBOUR  
 3              1 HENRY    
 4              1 APO      
 5              1 NEWTON   
 6              1 MONO     
 7              1 BENT     
 8              1 CHEYENNE 
 9              1 COSTILLA 
10              1 DOLORES  
# ℹ 135 more rows

From the above result, we know that there are 145 counties with only 1 railroad employee (which is the minimum employee count in any county).

Code

# Grouping in terms of state to summarise total_employees in each state and arranging accordingly
grouped_rr_state <- rr%>%
  group_by(state)%>%
  summarize(state_employees = sum(total_employees))%>%
  arrange(desc(`state_employees`))
grouped_rr_state

# A tibble: 53 × 2
   state state_employees
   <chr>           <dbl>
 1 TX              19839
 2 IL              19131
 3 NY              17050
 4 NE              13176
 5 CA              13137
 6 PA              12769
 7 OH               9056
 8 GA               8605
 9 IN               8537
10 MO               8419
# ℹ 43 more rows

From the above results we know that TX has the highest number of rail road employees (19839) and AP has the least number of railroad employees (1).

Code

# Grouping in terms of state to summarise mean total_employees in each state wrt number of counties and arranging accordingly 
grouped_rr_state_mean <- rr%>%
  group_by(state)%>%
  summarize(mean_state_employees = mean(total_employees))%>%
  arrange(desc(`mean_state_employees`))
grouped_rr_state_mean

# A tibble: 53 × 2
   state mean_state_employees
   <chr>                <dbl>
 1 DE                    498.
 2 NJ                    397.
 3 CT                    324 
 4 MA                    282.
 5 NY                    280.
 6 DC                    279 
 7 CA                    239.
 8 AZ                    210.
 9 PA                    196.
10 MD                    196.
# ℹ 43 more rows

From the above results we know that DE has the highest mean number of rail road employees (498.33) and AP has the least mean number of railroad employees (1). That is in DE, the mean number of employees in each county is 498.33.

Code

# Grouping in terms of state to summarise median total_employees in each state wrt number of counties and arranging accordingly 
grouped_rr_state_median <- rr%>%
  group_by(state)%>%
  summarize(median_state_employees = median(total_employees))%>%
  arrange(desc(`median_state_employees`))
grouped_rr_state_median

# A tibble: 53 × 2
   state median_state_employees
   <chr>                  <dbl>
 1 NJ                      296 
 2 DC                      279 
 3 MA                      271 
 4 DE                      158 
 5 CT                      125 
 6 MD                      108.
 7 AZ                       94 
 8 PA                       85 
 9 NY                       71 
10 CA                       61 
# ℹ 43 more rows
…
Verifying the number of counties in TX with the filter and count commands again. There are 221 counties as returned earlier.

Code

# Grouping in terms of state to summarise standard deviation of total_employees in each state wrt number of counties and arranging accordingly 
grouped_rr_state_sd <- rr%>%
  group_by(state)%>%
  summarize(sd_state_employees = sd(total_employees))%>%
  arrange(desc(`sd_state_employees`))
grouped_rr_state_sd

# A tibble: 53 × 2
   state sd_state_employees
   <chr>              <dbl>
 1 IL                  829.
 2 DE                  674.
 3 NY                  591.
 4 CA                  549.
 5 CT                  520.
 6 NE                  512.
 7 FL                  386.
 8 TX                  350.
 9 VA                  341.
10 NJ                  338.
# ℹ 43 more rows
…
