Challenge 7
…
Are there any variables that require mutation to be usable in your analysis stream? For example, do you need to calculate new values in order to graph them? Can string values be represented numerically? Do you need to turn any variables into factors and reorder for ease of graphics and visualization?

Document your work here.

# cumulative info based on customer type
customer_types <- tidy_bookings %>%
  group_by(hotel, arrival_date, customer_type) %>%
  count(arrival_date, hotel, customer_type, .drop = F)
customer_types

# A tibble: 3,987 × 4
# Groups:   hotel, arrival_date, customer_type [3,987]
   hotel      arrival_date customer_type       n
   <chr>      <date>       <chr>           <int>
 1 City Hotel 2015-07-01   Transient          77
 2 City Hotel 2015-07-01   Transient-Party     2
 3 City Hotel 2015-07-02   Contract           20
 4 City Hotel 2015-07-02   Transient           8
 5 City Hotel 2015-07-02   Transient-Party    21
 6 City Hotel 2015-07-03   Transient           3
 7 City Hotel 2015-07-03   Transient-Party    13
 8 City Hotel 2015-07-04   Transient           4
 9 City Hotel 2015-07-04   Transient-Party    34
10 City Hotel 2015-07-05   Transient           6
# ℹ 3,977 more rows

# cumulative info based on deposit type
deposit_types <- tidy_bookings %>%
  group_by(hotel, arrival_date, deposit_type) %>%
  count(arrival_date, hotel, deposit_type, .drop = F)
deposit_types

# A tibble: 2,074 × 4
# Groups:   hotel, arrival_date, deposit_type [2,074]
   hotel      arrival_date deposit_type     n
   <chr>      <date>       <chr>        <int>
 1 City Hotel 2015-07-01   No Deposit      79
 2 City Hotel 2015-07-02   No Deposit      49
 3 City Hotel 2015-07-03   No Deposit      16
 4 City Hotel 2015-07-04   No Deposit      15
 5 City Hotel 2015-07-04   Non Refund      23
 6 City Hotel 2015-07-05   No Deposit       8
 7 City Hotel 2015-07-06   No Deposit      30
 8 City Hotel 2015-07-07   No Deposit      19
 9 City Hotel 2015-07-08   No Deposit      40
10 City Hotel 2015-07-09   No Deposit      46
# ℹ 2,064 more rows
…
