Challenge 2
…
Code

railroad_data %>%
  summarize(IQR(total_employees))

  IQR(total_employees)
1                   58

Code

railroad_data %>%
  group_by(state) %>%
  summarize(mean(total_employees))

# A tibble: 53 x 2
   state `mean(total_employees)`
   <chr>                   <dbl>
 1 AE                        2  
 2 AK                       17.2
 3 AL                       63.5
 4 AP                        1  
 5 AR                       53.8
 6 AZ                      210. 
 7 CA                      239. 
 8 CO                       64.0
 9 CT                      324  
10 DC                      279  
# ... with 43 more rows

Code

railroad_data %>%
  group_by(state) %>%
  summarize(median(total_employees))

# A tibble: 53 x 2
   state `median(total_employees)`
   <chr>                     <dbl>
 1 AE                          2  
 2 AK                          2.5
 3 AL                         26  
 4 AP                          1  
 5 AR                         16.5
 6 AZ                         94  
 7 CA                         61  
 8 CO                         10  
 9 CT                        125  
10 DC                        279  
# ... with 43 more rows
…
railroad_data %>%
  group_by(state) %>%
  summarize(mfv(total_employees))

Warning: Returning more (or less) than 1 row per `summarise()` group was deprecated in
dplyr 1.1.0.
i Please use `reframe()` instead.
i When switching from `summarise()` to `reframe()`, remember that `reframe()`
  always returns an ungrouped data frame and adjust accordingly.

`summarise()` has grouped output by 'state'. You can override using the
`.groups` argument.

# A tibble: 165 x 2
# Groups:   state [53]
   state `mfv(total_employees)`
   <chr>                  <int>
 1 AE                         2
 2 AK                         2
 3 AL                         7
 4 AL                        11
 5 AP                         1
 6 AR                         5
 7 AZ                         3
 8 AZ                        10
 9 AZ                        18
10 AZ                        37
# ... with 155 more rows

Code

railroad_data %>%
  group_by(state) %>%
  summarize(sd(total_employees))

# A tibble: 53 x 2
   state `sd(total_employees)`
   <chr>                 <dbl>
 1 AE                     NA  
 2 AK                     34.8
 3 AL                    130. 
 4 AP                     NA  
 5 AR                    131. 
 6 AZ                    228. 
 7 CA                    549. 
 8 CO                    128. 
 9 CT                    520. 
10 DC                     NA  
# ... with 43 more rows

Code

railroad_data %>%
  group_by(state) %>%
  summarize(min(total_employees))

# A tibble: 53 x 2
   state `min(total_employees)`
   <chr>                  <int>
 1 AE                         2
 2 AK                         1
 3 AL                         1
 4 AP                         1
 5 AR                         1
 6 AZ                         3
 7 CA                         1
 8 CO                         1
 9 CT                        26
10 DC                       279
# ... with 43 more rows

Code

railroad_data %>%
  group_by(state) %>%
  summarize(max(total_employees))

# A tibble: 53 x 2
   state `max(total_employees)`
   <chr>                  <int>
 1 AE                         2
 2 AK                        88
 3 AL                       990
 4 AP                         1
 5 AR                       972
 6 AZ                       749
 7 CA                      2888
 8 CO                       553
 9 CT                      1561
10 DC                       279
# ... with 43 more rows

Code

railroad_data %>%
  group_by(state) %>%
  summarize(IQR(total_employees))

# A tibble: 53 x 2
   state `IQR(total_employees)`
   <chr>                  <dbl>
 1 AE                       0  
 2 AK                       4  
 3 AL                      47  
 4 AP                       0  
 5 AR                      33.8
 6 AZ                     296  
 7 CA                     188  
 8 CO                      39  
 9 CT                     167. 
10 DC                       0  
# ... with 43 more rows
…
