Challenge 3
…
[1] 3

As we can see above, that means that the resulting shape of the pivoted dataset will be (144,3), where there are 144 rows and 3 columns.

Pivot the Data

Code

pivot_aw <- pivot_longer(aw,cols = -`IPCC Area`, names_to = "Animal", values_to = "Value")

pivot_aw

# A tibble: 144 × 3
   `IPCC Area`         Animal             Value
   <chr>               <chr>              <dbl>
 1 Indian Subcontinent Cattle - dairy     275  
 2 Indian Subcontinent Cattle - non-dairy 110  
 3 Indian Subcontinent Buffaloes          295  
 4 Indian Subcontinent Swine - market      28  
 5 Indian Subcontinent Swine - breeding    28  
 6 Indian Subcontinent Chicken - Broilers   0.9
 7 Indian Subcontinent Chicken - Layers     1.8
 8 Indian Subcontinent Ducks                2.7
 9 Indian Subcontinent Turkeys              6.8
10 Indian Subcontinent Sheep               28  
# … with 134 more rows
…
