2003-2021 Average Debt of Various Household Expenses
…
Separate year and quarter into separate variables. Summarize average debt by type of debt.

Code

debt_trillions_long %>%
  separate("Year and Quarter", c("year", "quarter"), ":") %>%
 group_by(year, debt_type) %>%
  summarise(Avg_Debt = mean(value),
            Min_Debt = min(value),
            Max_Debt = max(value))

`summarise()` has grouped output by 'year'. You can override using the
`.groups` argument.

# A tibble: 133 × 5
# Groups:   year [19]
   year  debt_type    Avg_Debt Min_Debt Max_Debt
   <chr> <chr>           <dbl>    <dbl>    <dbl>
 1 03    Auto Loan       0.663    0.622    0.704
 2 03    Credit Card     0.693    0.688    0.698
 3 03    HE Revolving    0.268    0.242    0.302
 4 03    Mortgage        5.22     4.94     5.66 
 5 03    Other           0.472    0.449    0.486
 6 03    Student Loan    0.246    0.241    0.253
 7 03    Total           7.56     7.23     8.07 
 8 04    Auto Loan       0.736    0.72     0.751
 9 04    Credit Card     0.704    0.695    0.717
10 04    HE Revolving    0.397    0.328    0.468
# … with 123 more rows
…
