2019 AirBnB Rentals in NYC Boroughs
…
View(AB_NYC)
view(dfSummary(AB_NYC))

Switching method to 'browser'
Output file written: C:\Users\CarlinML\AppData\Local\Temp\RtmpgxJwDt\file3ba467e3f04.html

This dataset contains 48895 rows and 16 columns. Each row/observation contains information on Airbnb rentals in NYC during 2019, including the type of rental (e.g., entire home, private room, shared room), the NYC borough, the price, minimum number of nights, and number of reviews.

Per the data frame summary, the price variable contains some $0’s; sort dataframe to review before recoding.

Code

arrange(AB_NYC, price)

# A tibble: 48,895 × 16
         id name   host_id host_…¹ neigh…² neigh…³ latit…⁴ longi…⁵ room_…⁶ price
      <dbl> <chr>    <dbl> <chr>   <chr>   <chr>     <dbl>   <dbl> <chr>   <dbl>
 1 18750597 Huge …  8.99e6 Kimber… Brookl… Bedfor…    40.7   -74.0 Privat…     0
 2 20333471 ★Host…  1.32e8 Anisha  Bronx   East M…    40.8   -73.9 Privat…     0
 3 20523843 MARTI…  1.58e7 Martia… Brookl… Bushwi…    40.7   -73.9 Privat…     0
 4 20608117 Sunny…  1.64e6 Lauren  Brookl… Greenp…    40.7   -73.9 Privat…     0
 5 20624541 Moder…  1.01e7 Aymeric Brookl… Willia…    40.7   -73.9 Entire…     0
 6 20639628 Spaci…  8.63e7 Adeyemi Brookl… Bedfor…    40.7   -73.9 Privat…     0
 7 20639792 Conte…  8.63e7 Adeyemi Brookl… Bedfor…    40.7   -73.9 Privat…     0
 8 20639914 Cozy …  8.63e7 Adeyemi Brookl… Bedfor…    40.7   -73.9 Privat…     0
 9 20933849 the b…  1.37e7 Qiuchi  Manhat… Murray…    40.8   -74.0 Entire…     0
10 21291569 Coliv…  1.02e8 Sergii  Brookl… Bushwi…    40.7   -73.9 Shared…     0
# … with 48,885 more rows, 6 more variables: minimum_nights <dbl>,
#   number_of_reviews <dbl>, last_review <date>, reviews_per_month <dbl>,
#   calculated_host_listings_count <dbl>, availability_365 <dbl>, and
#   abbreviated variable names ¹​host_name, ²​neighbourhood_group,
#   ³​neighbourhood, ⁴​latitude, ⁵​longitude, ⁶​room_type

Recode price=$0 to NA.

Code

AB_NYC <- AB_NYC %>% 
  mutate_at(c("price"), ~ na_if(., 0))

arrange(AB_NYC, price)

# A tibble: 48,895 × 16
         id name   host_id host_…¹ neigh…² neigh…³ latit…⁴ longi…⁵ room_…⁶ price
      <dbl> <chr>    <dbl> <chr>   <chr>   <chr>     <dbl>   <dbl> <chr>   <dbl>
 1  1620248 Large…  2.20e6 Sally   Manhat… East V…    40.7   -74.0 Entire…    10
 2 17437106 Couch…  3.35e7 Morgan  Manhat… Harlem     40.8   -74.0 Shared…    10
 3 17952277 Newly…  6.27e7 Katie   Brookl… Bushwi…    40.7   -73.9 Privat…    10
 4 17979764 Jen A…  8.45e7 Jennif… Manhat… SoHo       40.7   -74.0 Privat…    10
 5 18490141 IT'S …  9.70e7 Maria   Queens  Jamaica    40.7   -73.8 Entire…    10
 6 18835820 Quiet…  5.28e7 Amy     Manhat… Upper …    40.8   -74.0 Entire…    10
 7 19415314 Girls…  4.73e7 Mario   Manhat… Hell's…    40.8   -74.0 Shared…    10
 8 21869057 Spaci…  1.20e7 Vishan… Brookl… Greenp…    40.7   -74.0 Entire…    10
 9 24114389 Very …  1.81e8 Salim   Manhat… Upper …    40.8   -74.0 Privat…    10
10 24412104 Cozy …  9.10e7 Maureen Manhat… Kips B…    40.7   -74.0 Privat…    10
# … with 48,885 more rows, 6 more variables: minimum_nights <dbl>,
#   number_of_reviews <dbl>, last_review <date>, reviews_per_month <dbl>,
#   calculated_host_listings_count <dbl>, availability_365 <dbl>, and
#   abbreviated variable names ¹​host_name, ²​neighbourhood_group,
#   ³​neighbourhood, ⁴​latitude, ⁵​longitude, ⁶​room_type
…
