Challenge 6 Instructions
…
knitr::opts_chunk$set(echo = TRUE, warning=FALSE, message=FALSE)

Read in and view summary of ‘FedFundsRate’ dataset.

FedRates <- read_csv ("_data/FedFundsRate.csv")
View(FedRates)
view(dfSummary(FedRates))

This dataset contains 904 rows and 10 columns. Each row contains various federal funds data points (e.g., the Effective Federal Funds Rate, including lower and upper targets, as well as unemployment and inflation rates). Monthly data is provided from 1954 to 2017.

Based on my review of the df summary, it appears that the majority of the data is from the 1st of each month, therefore I am going to run a frequency table to see how many rows are from dates other than the 1st of the month.

FedRates %>% count(Day)

# A tibble: 29 × 2
     Day     n
   <dbl> <int>
 1     1   753
 2     2     6
 3     3     3
 4     4     4
 5     5     4
 6     6    10
 7     7     4
 8     8     4
 9     9     7
10    10     3
# … with 19 more rows
…
[1] 904

FedRates <- FedRates %>%
  filter(Day == 1)
nrow(FedRates)

[1] 753

FedRates <- FedRates%>%
  mutate(date = make_date(Year, Month, Day))

select(FedRates, Year, Month, Day, date)

# A tibble: 753 × 4
    Year Month   Day date      
   <dbl> <dbl> <dbl> <date>    
 1  1954     7     1 1954-07-01
 2  1954     8     1 1954-08-01
 3  1954     9     1 1954-09-01
 4  1954    10     1 1954-10-01
 5  1954    11     1 1954-11-01
 6  1954    12     1 1954-12-01
 7  1955     1     1 1955-01-01
 8  1955     2     1 1955-02-01
 9  1955     3     1 1955-03-01
10  1955     4     1 1955-04-01
# … with 743 more rows

view(dfSummary(FedRates))

Summarise “umemployment rate” variable.

FedRates %>% 
  group_by(Year) %>%
  summarise(Avg_UR = mean(`Unemployment Rate`),
            Min_UR = min(`Unemployment Rate`),
            Max_UR = max(`Unemployment Rate`))

# A tibble: 64 × 4
    Year Avg_UR Min_UR Max_UR
   <dbl>  <dbl>  <dbl>  <dbl>
 1  1954   5.65    5      6.1
 2  1955   4.37    4      4.9
 3  1956   4.12    3.9    4.4
 4  1957   4.3     3.7    5.2
 5  1958   6.84    5.8    7.5
 6  1959   5.45    5      6  
 7  1960   5.54    4.8    6.6
 8  1961   6.69    6      7.1
 9  1962   5.57    5.4    5.8
10  1963   5.64    5.4    5.9
# … with 54 more rows
…
