Global Hotel Bookings: 2015-2017
…
Output file written: C:\Users\CarlinML\AppData\Local\Temp\RtmpszR3TJ\file41c471ac4ea0.html

Describing dataset

The ‘hotel_bookings’ dataset contains 119,390 rows and 32 columns. Each observation is that of a single hotel booking between 2015 and 2017 and provides information on type of resort, arrival date, number of nights/people, room type, country, market segment, etc.

#Create new variable for total number of guests.

Code

hotel_bookings <- hotel_bookings %>%
    mutate (guests = adults + children + babies)
select(hotel_bookings, "adults", "children", "babies", "guests")

# A tibble: 119,390 × 4
   adults children babies guests
    <dbl>    <dbl>  <dbl>  <dbl>
 1      2        0      0      2
 2      2        0      0      2
 3      1        0      0      1
 4      1        0      0      1
 5      2        0      0      2
 6      2        0      0      2
 7      2        0      0      2
 8      2        0      0      2
 9      2        0      0      2
10      2        0      0      2
# … with 119,380 more rows
…
Sort data to find outlier(s).

Code

hotel_bookings %>%
  arrange(desc(adr)) %>%
  select(hotel, adr)

# A tibble: 119,390 × 2
   hotel          adr
   <chr>        <dbl>
 1 City Hotel   5400 
 2 City Hotel    510 
 3 Resort Hotel  508 
 4 City Hotel    452.
 5 Resort Hotel  450 
 6 Resort Hotel  437 
 7 Resort Hotel  426.
 8 Resort Hotel  402 
 9 Resort Hotel  397.
10 Resort Hotel  392 
# … with 119,380 more rows
…
