Challenge 4
…
nrow(abc_poll_2021)

[1] 527

Briefly describe the data

Tidy Data (as needed)

Is your data already tidy, or is there work to be done? Be sure to anticipate your end result to provide a sanity check, and document your work here.

Code

as_tibble(abc_poll_2021)

# A tibble: 527 × 31
        id xspanish comple…¹ ppage ppeduc5 ppedu…² ppgen…³ ppethm pphhs…⁴ ppinc7
     <int> <chr>    <chr>    <int> <chr>   <chr>   <chr>   <chr>  <chr>   <chr> 
 1 7230001 English  qualifi…    68 "High … High s… Female  White… 2       $25,0…
 2 7230002 English  qualifi…    85 "Bache… Bachel… Male    White… 2       $150,…
 3 7230003 English  qualifi…    69 "High … High s… Male    White… 2       $100,…
 4 7230004 English  qualifi…    74 "Bache… Bachel… Female  White… 1       $25,0…
 5 7230005 English  qualifi…    77 "High … High s… Male    White… 3       $10,0…
 6 7230006 English  qualifi…    70 "Bache… Bachel… Male    White… 2       $75,0…
 7 7230007 English  qualifi…    26 "Maste… Bachel… Male    Other… 3       $150,…
 8 7230008 English  qualifi…    76 "Bache… Bachel… Male    Black… 2       $50,0…
 9 7230009 English  qualifi…    78 "Bache… Bachel… Female  White… 2       $150,…
10 7230010 English  qualifi…    47 "Maste… Bachel… Male    Other… 4       $150,…
# … with 517 more rows, 21 more variables: ppmarit5 <chr>, ppmsacat <chr>,
#   ppreg4 <chr>, pprent <chr>, ppstaten <chr>, PPWORKA <chr>, ppemploy <chr>,
#   Q1_a <chr>, Q1_b <chr>, Q1_c <chr>, Q1_d <chr>, Q1_e <chr>, Q1_f <chr>,
#   Q2 <chr>, Q3 <chr>, Q4 <chr>, Q5 <chr>, QPID <chr>, ABCAGE <chr>,
#   Contact <chr>, weights_pid <dbl>, and abbreviated variable names
#   ¹​complete_status, ²​ppeducat, ³​ppgender, ⁴​pphhsize
…
