Read and describe dataset
…
# A tibble: 5 × 1
  Item                  
  <chr>                 
1 Chickens              
2 Ducks                 
3 Geese and guinea fowls
4 Turkeys               
5 Pigeons, other birds  

Code

#filtering all the rows which has the Year as 2018
filter(birds_data, Year == "2018")

# A tibble: 577 × 14
   Domain Cod…¹ Domain Area …² Area  Eleme…³ Element Item …⁴ Item  Year …⁵  Year
   <chr>        <chr>    <dbl> <chr>   <dbl> <chr>     <dbl> <chr>   <dbl> <dbl>
 1 QA           Live …       2 Afgh…    5112 Stocks     1057 Chic…    2018  2018
 2 QA           Live …       3 Alba…    5112 Stocks     1057 Chic…    2018  2018
 3 QA           Live …       3 Alba…    5112 Stocks     1068 Ducks    2018  2018
 4 QA           Live …       3 Alba…    5112 Stocks     1072 Gees…    2018  2018
 5 QA           Live …       3 Alba…    5112 Stocks     1079 Turk…    2018  2018
 6 QA           Live …       4 Alge…    5112 Stocks     1057 Chic…    2018  2018
 7 QA           Live …       4 Alge…    5112 Stocks     1068 Ducks    2018  2018
 8 QA           Live …       4 Alge…    5112 Stocks     1072 Gees…    2018  2018
 9 QA           Live …       4 Alge…    5112 Stocks     1079 Turk…    2018  2018
10 QA           Live …       5 Amer…    5112 Stocks     1057 Chic…    2018  2018
# … with 567 more rows, 4 more variables: Unit <chr>, Value <dbl>, Flag <chr>,
#   `Flag Description` <chr>, and abbreviated variable names ¹​`Domain Code`,
#   ²​`Area Code`, ³​`Element Code`, ⁴​`Item Code`, ⁵​`Year Code`

Code

#finding the mean value for each item in a specific area during a specific year
birds_data %>% group_by(Year,Area,Item) %>% summarise(mean(Value), .groups = 'drop')

# A tibble: 30,977 × 4
    Year Area        Item                   `mean(Value)`
   <dbl> <chr>       <chr>                          <dbl>
 1  1961 Afghanistan Chickens                        4700
 2  1961 Africa      Chickens                      274201
 3  1961 Africa      Ducks                           6231
 4  1961 Africa      Geese and guinea fowls          3882
 5  1961 Africa      Pigeons, other birds            5800
 6  1961 Africa      Turkeys                         1213
 7  1961 Albania     Chickens                        1580
 8  1961 Albania     Ducks                             NA
 9  1961 Albania     Geese and guinea fowls            NA
10  1961 Albania     Turkeys                           NA
# … with 30,967 more rows
…
