Challenge 2
…
Generated by summarytools 1.0.1 (R version 4.2.2)
2023-03-27

Provide Grouped Summary Statistics

The data shows that California has the highest sum of employees with 13,137 and Illinois has the highest dispersion with a value of 829.15. On the other hand, AP has only one county with one employee, and AE has one county with two employees. Additionally, there are some states where the mean employees per county is quite high, such as Connecticut with 324 employees per county, and some where it is quite low, such as Hawaii with only 1.33 employees per county. Overall, the data provides information on the distribution of employees across states and their counties in the US.

Code

railroad %>%
  group_by(state) %>%
  select(state, county, total_employees) %>%
  summarize(county_count = n(), mean_employees = mean(total_employees), sum_employees = sum(total_employees), dispersion = sd(total_employees, na.rm = TRUE))

# A tibble: 53 × 5
   state county_count mean_employees sum_employees dispersion
   <chr>        <int>          <dbl>         <int>      <dbl>
 1 AE               1            2               2       NA  
 2 AK               6           17.2           103       34.8
 3 AL              67           63.5          4257      130. 
 4 AP               1            1               1       NA  
 5 AR              72           53.8          3871      131. 
 6 AZ              15          210.           3153      228. 
 7 CA              55          239.          13137      549. 
 8 CO              57           64.0          3650      128. 
 9 CT               8          324            2592      520. 
10 DC               1          279             279       NA  
# … with 43 more rows

When we group the data by county we see that some counties just have 1 state while other counties have multiple.

Code

railroad %>%
  group_by(county) %>%
  select(county, state, total_employees) %>%
  summarize(state_count = n(), mean_employees = mean(total_employees), sum_employees = sum(total_employees), dispersion = sd(total_employees, na.rm = TRUE))

# A tibble: 1,709 × 5
   county    state_count mean_employees sum_employees dispersion
   <chr>           <int>          <dbl>         <int>      <dbl>
 1 ABBEVILLE           1         124              124      NA   
 2 ACADIA              1          13               13      NA   
 3 ACCOMACK            1           4                4      NA   
 4 ADA                 1          81               81      NA   
 5 ADAIR               4           7.25            29       9.32
 6 ADAMS              12          73.2            878     155.  
 7 ADDISON             1           8                8      NA   
 8 AIKEN               1         193              193      NA   
 9 AITKIN              1          19               19      NA   
10 ALACHUA             1          22               22      NA   
# … with 1,699 more rows
…
