Challenge 3
…
Code

df2<-df%>%
  mutate(date=...1)%>%
  select(12,2:5)
df2<-df2%>%
  rename(xlarge_dozen=2,xlarge_halfdozen=3,large_dozen=4,large_halfdozen=5)
df2<-df2%>%
  mutate(date=str_remove(date," /1"))
egg<-df2%>%
  separate(date, into=c("month","year"),sep=" ")%>%
  fill(year)
egg

# A tibble: 120 × 6
   month     year  xlarge_dozen xlarge_halfdozen large_dozen large_halfdozen
   <chr>     <chr>        <dbl>            <dbl>       <dbl>           <dbl>
 1 Jan       2004          230              132         230             126 
 2 February  2004          230              134.        226.            128.
 3 March     2004          230              137         225             131 
 4 April     2004          234.             137         225             131 
 5 May       2004          236              137         225             131 
 6 June      2004          241              137         231.            134.
 7 July      2004          241              137         234.            134.
 8 August    2004          241              137         234.            134.
 9 September 2004          241              136.        234.            130.
10 October   2004          241              136.        234.            128.
# … with 110 more rows
…
Pivot the Data

I used the Pivot to get the different types of the data with their cost. In col, there are large spelling in four of the types. Thus, we could use the for the type of the egg.

Code

pivot_longer(egg, col= contains("large"),
              names_to="type_of_egg",
              values_to = "cost")

# A tibble: 480 × 4
   month    year  type_of_egg       cost
   <chr>    <chr> <chr>            <dbl>
 1 Jan      2004  xlarge_dozen      230 
 2 Jan      2004  xlarge_halfdozen  132 
 3 Jan      2004  large_dozen       230 
 4 Jan      2004  large_halfdozen   126 
 5 February 2004  xlarge_dozen      230 
 6 February 2004  xlarge_halfdozen  134.
 7 February 2004  large_dozen       226.
 8 February 2004  large_halfdozen   128.
 9 March    2004  xlarge_dozen      230 
10 March    2004  xlarge_halfdozen  137 
# … with 470 more rows
…
