PoChunYang_Challenge 2
…
Conduct some exploratory data analysis, using dplyr commands such as group_by(), select(), filter(), and summarise(). Find the central tendency (mean, median, mode) and dispersion (standard deviation, mix/max/quantile) for different subgroups within the data set.

First of all, I used cleancolumns to make the data is to read it. Then, I want to remove all the state_total rows. Next, used the group_by and summerise to get some of the detail of all the state. I am interested in NY state of railroad information so I used the filter command to do it. As below of form, there are 61 county of New York states. Besides that, the maximum of county’s railraod employment is 3685. In California state, there are 55 County that the summary gave us. Moreover, the minimum, maximum, mean, median county’s railroad employment are respectively 1, 2888, 238.9, and 61.

Code

cleancolumns <- select(statecounty,"STATE","COUNTY","TOTAL")
fix_data <- na.omit(cleancolumns)
fix_data%>%
  group_by(STATE)%>%
  summarise(total = sum(TOTAL), meantotal=mean(TOTAL),mediantotal = median(TOTAL),
            modetotal = mode(TOTAL),deviationtotal = sd(TOTAL), maxtotal = max(TOTAL),
            mintotal = min(TOTAL))

# A tibble: 53 × 8
   STATE total meantotal mediantotal modetotal deviationtotal maxtotal mintotal
   <chr> <dbl>     <dbl>       <dbl> <chr>              <dbl>    <dbl>    <dbl>
 1 AE        2       2           2   numeric             NA          2        2
 2 AK      103      17.2         2.5 numeric             34.8       88        1
 3 AL     4257      63.5        26   numeric            130.       990        1
 4 AP        1       1           1   numeric             NA          1        1
 5 AR     3871      53.8        16.5 numeric            131.       972        1
 6 AZ     3153     210.         94   numeric            228.       749        3
 7 CA    13137     239.         61   numeric            549.      2888        1
 8 CO     3650      64.0        10   numeric            128.       553        1
 9 CT     2592     324         125   numeric            520.      1561       26
10 DC      279     279         279   numeric             NA        279      279
# … with 43 more rows
…
