railroad_2012_clean_county
…
3    total_employees   Mean (sd) : 87.2 (283.6)   404 distinct values   :                    2930       0        
     [integer]         min < med < max:                                 :                    (100.0%)   (0.0%)   
                       1 < 21 < 8207                                    :                                        
                       IQR (CV) : 58 (3.3)                              :                                        
                                                                        :                                        
-----------------------------------------------------------------------------------------------------------------

Code

# the command is that I want to get each state of the all employees
railroad %>% 
  group_by(state) %>% 
  mutate(all=sum(total_employees))

# A tibble: 2,930 × 4
# Groups:   state [53]
   state county               total_employees   all
   <chr> <chr>                          <int> <int>
 1 AE    APO                                2     2
 2 AK    ANCHORAGE                          7   103
 3 AK    FAIRBANKS NORTH STAR               2   103
 4 AK    JUNEAU                             3   103
 5 AK    MATANUSKA-SUSITNA                  2   103
 6 AK    SITKA                              1   103
 7 AK    SKAGWAY MUNICIPALITY              88   103
 8 AL    AUTAUGA                          102  4257
 9 AL    BALDWIN                          143  4257
10 AL    BARBOUR                            1  4257
# … with 2,920 more rows
…
