Challenge 1
…
    state              county          total_employees  
 Length:2930        Length:2930        Min.   :   1.00  
 Class :character   Class :character   1st Qu.:   7.00  
 Mode  :character   Mode  :character   Median :  21.00  
                                       Mean   :  87.18  
                                       3rd Qu.:  65.00  
                                       Max.   :8207.00  

Sorting data based on the total number of employees in increasing order

Code

arrange(df,total_employees)

# A tibble: 2,930 × 3
   state county   total_employees
   <chr> <chr>              <dbl>
 1 AK    SITKA                  1
 2 AL    BARBOUR                1
 3 AL    HENRY                  1
 4 AP    APO                    1
 5 AR    NEWTON                 1
 6 CA    MONO                   1
 7 CO    BENT                   1
 8 CO    CHEYENNE               1
 9 CO    COSTILLA               1
10 CO    DOLORES                1
# ℹ 2,920 more rows

Sorting data based on the total number of employees in decreasing order

Code

arrange(df, desc(total_employees))

# A tibble: 2,930 × 3
   state county           total_employees
   <chr> <chr>                      <dbl>
 1 IL    COOK                        8207
 2 TX    TARRANT                     4235
 3 NE    DOUGLAS                     3797
 4 NY    SUFFOLK                     3685
 5 VA    INDEPENDENT CITY            3249
 6 FL    DUVAL                       3073
 7 CA    SAN BERNARDINO              2888
 8 CA    LOS ANGELES                 2545
 9 TX    HARRIS                      2535
10 NE    LINCOLN                     2289
# ℹ 2,920 more rows

Based on these outputs, it is evident that the county named ‘COOK’ in IL has the most employees, which is 8207. Moreover, there exist several counties where only one employee is present, which is the minimum number of employees in any given county.

Grouping railroad employees by state

Code

group <- df %>%
  group_by(state) %>%
  summarize(employees=sum(total_employees)) %>%
  arrange(desc(employees))
group

# A tibble: 53 × 2
   state employees
   <chr>     <dbl>
 1 TX        19839
 2 IL        19131
 3 NY        17050
 4 NE        13176
 5 CA        13137
 6 PA        12769
 7 OH         9056
 8 GA         8605
 9 IN         8537
10 MO         8419
# ℹ 43 more rows
…
