Challenge 3
…
Expected pivoted dataset dimensions: 144x3

Pivot the Data

Now we will pivot the data, and compare our pivoted data dimensions to the dimensions calculated above as a “sanity” check.

Code

df_pivoted<-pivot_longer(df, col =-`IPCC Area`,
                 names_to="animal_type",
                 values_to = "animal_weight")
df_pivoted

# A tibble: 144 × 3
   `IPCC Area`         animal_type        animal_weight
   <chr>               <chr>                      <dbl>
 1 Indian Subcontinent Cattle - dairy             275  
 2 Indian Subcontinent Cattle - non-dairy         110  
 3 Indian Subcontinent Buffaloes                  295  
 4 Indian Subcontinent Swine - market              28  
 5 Indian Subcontinent Swine - breeding            28  
 6 Indian Subcontinent Chicken - Broilers           0.9
 7 Indian Subcontinent Chicken - Layers             1.8
 8 Indian Subcontinent Ducks                        2.7
 9 Indian Subcontinent Turkeys                      6.8
10 Indian Subcontinent Sheep                       28  
# ℹ 134 more rows
…
