Challenge 2
…
Provide Grouped Summary Statistics

Conduct some exploratory data analysis, using dplyr commands such as group_by(), select(), filter(), and summarise(). Find the central tendency (mean, median, mode) and dispersion (standard deviation, mix/max/quantile) for different subgroups within the data set.

Code

market <- booking %>%
  group_by(market_segment)
market %>%
  select(hotel, lead_time)

# A tibble: 119,390 × 3
# Groups:   market_segment [8]
   market_segment hotel        lead_time
   <chr>          <chr>            <int>
 1 Direct         Resort Hotel       342
 2 Direct         Resort Hotel       737
 3 Direct         Resort Hotel         7
 4 Corporate      Resort Hotel        13
 5 Online TA      Resort Hotel        14
 6 Online TA      Resort Hotel        14
 7 Direct         Resort Hotel         0
 8 Direct         Resort Hotel         9
 9 Online TA      Resort Hotel        85
10 Offline TA/TO  Resort Hotel        75
# ℹ 119,380 more rows
…
