Challenge 4
…
poultry_tidy.xlsx or organiceggpoultry.xls⭐⭐

FedFundsRate.csv⭐⭐⭐

hotel_bookings.csv⭐⭐⭐⭐

debt_in_trillions.xlsx ⭐⭐⭐⭐⭐

Code

poultry_data <-readxl::read_excel("_data/poultry_tidy.xlsx")

poultry_data

# A tibble: 600 × 4
   Product  Year Month     Price_Dollar
   <chr>   <dbl> <chr>            <dbl>
 1 Whole    2013 January           2.38
 2 Whole    2013 February          2.38
 3 Whole    2013 March             2.38
 4 Whole    2013 April             2.38
 5 Whole    2013 May               2.38
 6 Whole    2013 June              2.38
 7 Whole    2013 July              2.38
 8 Whole    2013 August            2.38
 9 Whole    2013 September         2.38
10 Whole    2013 October           2.38
# … with 590 more rows
…
poultry_data <- poultry_data %>%
  mutate(Price_type = case_when(Price_Dollar < 3 ~ 'low',
                             Price_Dollar < 5 ~ 'med',
                             Price_Dollar > 5 ~ 'high'))

unique(poultry_data$Price_type)

[1] "low"  "high" "med"  NA    

Code

poultry_data

# A tibble: 600 × 6
   Product  Year Month     Price_Dollar Date       Price_type
   <chr>   <dbl> <chr>            <dbl> <date>     <chr>     
 1 Whole    2013 January           2.38 2013-01-01 low       
 2 Whole    2013 February          2.38 2013-02-01 low       
 3 Whole    2013 March             2.38 2013-03-01 low       
 4 Whole    2013 April             2.38 2013-04-01 low       
 5 Whole    2013 May               2.38 2013-05-01 low       
 6 Whole    2013 June              2.38 2013-06-01 low       
 7 Whole    2013 July              2.38 2013-07-01 low       
 8 Whole    2013 August            2.38 2013-08-01 low       
 9 Whole    2013 September         2.38 2013-09-01 low       
10 Whole    2013 October           2.38 2013-10-01 low       
# … with 590 more rows
…
