Challenge 3
…
We can see that the animal_weight data shows the count of different cattle (Buffaloes, Chicken, Turkeys etc) across different regions. There are 9 rows and 17 columns in the given dataset. The 17 columns in this dataset make it difficult to understand or work on the data further. So we can use pivot_longer() function to restructure the data making it more efficient.

There are 9 rows (observations) and (17-1) columns (variables). Hence, we will be needing 9*16 = 144 rows and 3 columns of data in the restructured data.

Pivot Data

Code

data_longer<-pivot_longer(data, col=-`IPCC Area`,
                                    names_to = "Livestock",
                                    values_to = "Weight")
print(data_longer)

# A tibble: 144 × 3
   `IPCC Area`         Livestock          Weight
   <chr>               <chr>               <dbl>
 1 Indian Subcontinent Cattle - dairy      275  
 2 Indian Subcontinent Cattle - non-dairy  110  
 3 Indian Subcontinent Buffaloes           295  
 4 Indian Subcontinent Swine - market       28  
 5 Indian Subcontinent Swine - breeding     28  
 6 Indian Subcontinent Chicken - Broilers    0.9
 7 Indian Subcontinent Chicken - Layers      1.8
 8 Indian Subcontinent Ducks                 2.7
 9 Indian Subcontinent Turkeys               6.8
10 Indian Subcontinent Sheep                28  
# … with 134 more rows
…
