Challenge 2_PriyankaThatikonda
…
Read in one (or more) of the following data sets, available in the posts/_data folder, using the correct R package and command.

railroad*.csv or StateCounty2012.xls ⭐

FAOstat*.csv or birds.csv ⭐⭐⭐

hotel_bookings.csv ⭐⭐⭐⭐

Code

data <- read_csv("_data/birds.csv")
print(data,show_col_types = FALSE)

# A tibble: 30,977 × 14
   Domain Cod…¹ Domain Area …² Area  Eleme…³ Element Item …⁴ Item  Year …⁵  Year
   <chr>        <chr>    <dbl> <chr>   <dbl> <chr>     <dbl> <chr>   <dbl> <dbl>
 1 QA           Live …       2 Afgh…    5112 Stocks     1057 Chic…    1961  1961
 2 QA           Live …       2 Afgh…    5112 Stocks     1057 Chic…    1962  1962
 3 QA           Live …       2 Afgh…    5112 Stocks     1057 Chic…    1963  1963
 4 QA           Live …       2 Afgh…    5112 Stocks     1057 Chic…    1964  1964
 5 QA           Live …       2 Afgh…    5112 Stocks     1057 Chic…    1965  1965
 6 QA           Live …       2 Afgh…    5112 Stocks     1057 Chic…    1966  1966
 7 QA           Live …       2 Afgh…    5112 Stocks     1057 Chic…    1967  1967
 8 QA           Live …       2 Afgh…    5112 Stocks     1057 Chic…    1968  1968
 9 QA           Live …       2 Afgh…    5112 Stocks     1057 Chic…    1969  1969
10 QA           Live …       2 Afgh…    5112 Stocks     1057 Chic…    1970  1970
# … with 30,967 more rows, 4 more variables: Unit <chr>, Value <dbl>,
#   Flag <chr>, `Flag Description` <chr>, and abbreviated variable names
#   ¹​`Domain Code`, ²​`Area Code`, ³​`Element Code`, ⁴​`Item Code`, ⁵​`Year Code`
…
Code

GroupByArea <- data %>%
  group_by(`Area`) %>%
  summarise(mean_stock_value = mean(Value, na.rm=TRUE),
            median_stock_value = median(Value, na.rm=TRUE),
            stock_value_sd = sd(Value, na.rm=TRUE),
            min_stock_value = min(Value, na.rm=TRUE),
            max_stock_value = max(Value, na.rm=TRUE),
            first_quartile_stock_value = quantile(Value, 0.25, na.rm=TRUE),
            third_quartile_stock_value = quantile(Value, 0.75, na.rm=TRUE))
print(GroupByArea)

# A tibble: 248 × 8
   Area                mean_st…¹ media…² stock…³ min_s…⁴ max_s…⁵ first…⁶ third…⁷
   <chr>                   <dbl>   <dbl>   <dbl>   <dbl>   <dbl>   <dbl>   <dbl>
 1 Afghanistan            8099.   6700    2.82e3    4700   14414  6222.    10565
 2 Africa               196561.  12910.   4.36e5    1213 1897326  5926.    25395
 3 Albania                2278.   1300    2.27e3     200    9494   520      3752
 4 Algeria               17621.     42.5  3.88e4      10  136078    24      2072
 5 American Samoa           41.4    38    1.40e1      24      80    35        40
 6 Americas             856356.  66924.   1.54e6     553 5796289  7497    552649
 7 Angola                 9453.   6075    8.93e3    3400   36500  4925      6930
 8 Antigua and Barbuda      93.6    85    3.97e1      43     160    60.2     130
 9 Argentina             18844.   2355    3.36e4      75  118300   530     10350
10 Armenia                2062.   1528.   2.04e3     120    8934   209.     3865
# … with 238 more rows, and abbreviated variable names ¹​mean_stock_value,
#   ²​median_stock_value, ³​stock_value_sd, ⁴​min_stock_value, ⁵​max_stock_value,
#   ⁶​first_quartile_stock_value, ⁷​third_quartile_stock_value
…
view(GroupByArea)

GroupByYear <- data %>%
  group_by(`Year`) %>%
  summarise(mean_stock_value = mean(Value, na.rm=TRUE),
            median_stock_value = median(Value, na.rm=TRUE),
            stock_value_sd = sd(Value, na.rm=TRUE),
            min_stock_value = min(Value, na.rm=TRUE),
            max_stock_value = max(Value, na.rm=TRUE),
            first_quartile_stock_value = quantile(Value, 0.25, na.rm=TRUE),
            third_quartile_stock_value = quantile(Value, 0.75, na.rm=TRUE))
print(GroupByYear)

# A tibble: 58 × 8
    Year mean_stock_value median_stock…¹ stock…² min_s…³ max_s…⁴ first…⁵ third…⁶
   <dbl>            <dbl>          <dbl>   <dbl>   <dbl>   <dbl>   <dbl>   <dbl>
 1  1961           36752.          1033  216931.       1 3906690    102.   6223.
 2  1962           37787.          1014  224935.       1 4048728    105.   6441.
 3  1963           38736.          1106  230985.       1 4163131    106.   6530.
 4  1964           39325.          1103  234108.       0 4231221    106.   6818 
 5  1965           40334.          1104  240537.       0 4349674    106    7000 
 6  1966           41229.          1088. 245576.       0 4445629    109.   7463.
 7  1967           43240.          1193  257592.       0 4666511    119    7935.
 8  1968           44420.          1252. 265750.       0 4823170    117.   7915 
 9  1969           45607.          1267  273871.       0 4988438    106    8255 
10  1970           47706.          1259  285751.       0 5209733    119    8676.
# … with 48 more rows, and abbreviated variable names ¹​median_stock_value,
#   ²​stock_value_sd, ³​min_stock_value, ⁴​max_stock_value,
#   ⁵​first_quartile_stock_value, ⁶​third_quartile_stock_value
…
