Challenge 8
…
Join Data

Be sure to include a sanity check, and double-check that case count is correct!

I would like to join data based on actor id and season id as stated previously.

snl_seasons_casts <- snl_seasons_df %>% 
  left_join(snl_casts_df, by = "sid")
snl_seasons_casts

# A tibble: 614 × 12
     sid  year first_epid.x last_epid.x n_episodes.x aid   featured first_epid.y
   <dbl> <dbl>        <dbl>       <dbl>        <dbl> <chr> <lgl>           <dbl>
 1     1  1975     19751011    19760731           24 Gild… FALSE              NA
 2     1  1975     19751011    19760731           24 Mich… FALSE              NA
 3     1  1975     19751011    19760731           24 Lara… FALSE              NA
 4     1  1975     19751011    19760731           24 Garr… FALSE              NA
 5     1  1975     19751011    19760731           24 Jane… FALSE              NA
 6     1  1975     19751011    19760731           24 Geor… FALSE              NA
 7     1  1975     19751011    19760731           24 Chev… FALSE              NA
 8     1  1975     19751011    19760731           24 John… FALSE              NA
 9     1  1975     19751011    19760731           24 Dan … FALSE              NA
10     2  1976     19760918    19770521           22 Gild… FALSE              NA
# ℹ 604 more rows
# ℹ 4 more variables: last_epid.y <dbl>, update_anchor <lgl>,
#   n_episodes.y <dbl>, season_fraction <dbl>

colnames(snl_seasons_casts)

 [1] "sid"             "year"            "first_epid.x"    "last_epid.x"    
 [5] "n_episodes.x"    "aid"             "featured"        "first_epid.y"   
 [9] "last_epid.y"     "update_anchor"   "n_episodes.y"    "season_fraction"

snl_actors_casts_seasons <- snl_actors_df %>% 
  left_join(snl_seasons_casts, by = "aid")
snl_actors_casts_seasons

# A tibble: 2,764 × 15
   aid       url   `Appearence Type` gender   sid  year first_epid.x last_epid.x
   <chr>     <chr> <chr>             <chr>  <dbl> <dbl>        <dbl>       <dbl>
 1 Kate McK… /Cas… cast              female    37  2011     20110924    20120519
 2 Kate McK… /Cas… cast              female    38  2012     20120915    20130518
 3 Kate McK… /Cas… cast              female    39  2013     20130928    20140517
 4 Kate McK… /Cas… cast              female    40  2014     20140927    20150516
 5 Kate McK… /Cas… cast              female    41  2015     20151003    20160521
 6 Kate McK… /Cas… cast              female    42  2016     20161001    20170520
 7 Kate McK… /Cas… cast              female    43  2017     20170930    20180519
 8 Kate McK… /Cas… cast              female    44  2018     20180929    20190518
 9 Kate McK… /Cas… cast              female    45  2019     20190928    20200509
10 Kate McK… /Cas… cast              female    46  2020     20201003    20210410
# ℹ 2,754 more rows
# ℹ 7 more variables: n_episodes.x <dbl>, featured <lgl>, first_epid.y <dbl>,
#   last_epid.y <dbl>, update_anchor <lgl>, n_episodes.y <dbl>,
#   season_fraction <dbl>
…
We can also answer questions like

snl_actors_casts_seasons %>% filter(year >= 2005) %>%filter(sid >= 5) 

# A tibble: 242 × 15
   aid       url   `Appearence Type` gender   sid  year first_epid.x last_epid.x
   <chr>     <chr> <chr>             <chr>  <dbl> <dbl>        <dbl>       <dbl>
 1 Kate McK… /Cas… cast              female    37  2011     20110924    20120519
 2 Kate McK… /Cas… cast              female    38  2012     20120915    20130518
 3 Kate McK… /Cas… cast              female    39  2013     20130928    20140517
 4 Kate McK… /Cas… cast              female    40  2014     20140927    20150516
 5 Kate McK… /Cas… cast              female    41  2015     20151003    20160521
 6 Kate McK… /Cas… cast              female    42  2016     20161001    20170520
 7 Kate McK… /Cas… cast              female    43  2017     20170930    20180519
 8 Kate McK… /Cas… cast              female    44  2018     20180929    20190518
 9 Kate McK… /Cas… cast              female    45  2019     20190928    20200509
10 Kate McK… /Cas… cast              female    46  2020     20201003    20210410
# ℹ 232 more rows
# ℹ 7 more variables: n_episodes.x <dbl>, featured <lgl>, first_epid.y <dbl>,
#   last_epid.y <dbl>, update_anchor <lgl>, n_episodes.y <dbl>,
#   season_fraction <dbl>
…
