Challenge 2
…
Read in one (or more) of the following data sets, available in the posts/_data folder, using the correct R package and command.

railroad*.csv or StateCounty2012.xls ⭐

FAOstat*.csv or birds.csv ⭐⭐⭐

hotel_bookings.csv ⭐⭐⭐⭐

Code

hotel_data <- read_csv("_data/hotel_bookings.csv")
print(hotel_data,show_col_types = FALSE)

# A tibble: 119,390 × 32
   hotel        is_canceled lead_time arrival_date_year arrival_date_month
   <chr>              <dbl>     <dbl>             <dbl> <chr>             
 1 Resort Hotel           0       342              2015 July              
 2 Resort Hotel           0       737              2015 July              
 3 Resort Hotel           0         7              2015 July              
 4 Resort Hotel           0        13              2015 July              
 5 Resort Hotel           0        14              2015 July              
 6 Resort Hotel           0        14              2015 July              
 7 Resort Hotel           0         0              2015 July              
 8 Resort Hotel           0         9              2015 July              
 9 Resort Hotel           1        85              2015 July              
10 Resort Hotel           1        75              2015 July              
# ℹ 119,380 more rows
# ℹ 27 more variables: arrival_date_week_number <dbl>,
#   arrival_date_day_of_month <dbl>, stays_in_weekend_nights <dbl>,
#   stays_in_week_nights <dbl>, adults <dbl>, children <dbl>, babies <dbl>,
#   meal <chr>, country <chr>, market_segment <chr>,
#   distribution_channel <chr>, is_repeated_guest <dbl>,
#   previous_cancellations <dbl>, previous_bookings_not_canceled <dbl>, …
…
Code

df<- hotel_data %>%
filter(country == "GBR")
print(df)

# A tibble: 12,129 × 32
   hotel        is_canceled lead_time arrival_date_year arrival_date_month
   <chr>              <dbl>     <dbl>             <dbl> <chr>             
 1 Resort Hotel           0         7              2015 July              
 2 Resort Hotel           0        13              2015 July              
 3 Resort Hotel           0        14              2015 July              
 4 Resort Hotel           0        14              2015 July              
 5 Resort Hotel           0         7              2015 July              
 6 Resort Hotel           0        37              2015 July              
 7 Resort Hotel           0       127              2015 July              
 8 Resort Hotel           0        95              2015 July              
 9 Resort Hotel           0        90              2015 July              
10 Resort Hotel           0       364              2015 July              
# ℹ 12,119 more rows
# ℹ 27 more variables: arrival_date_week_number <dbl>,
#   arrival_date_day_of_month <dbl>, stays_in_weekend_nights <dbl>,
#   stays_in_week_nights <dbl>, adults <dbl>, children <dbl>, babies <dbl>,
#   meal <chr>, country <chr>, market_segment <chr>,
#   distribution_channel <chr>, is_repeated_guest <dbl>,
#   previous_cancellations <dbl>, previous_bookings_not_canceled <dbl>, …
…
# A tibble: 2 × 2
  hotel        stays_in_week_nights
  <chr>                       <dbl>
1 City Hotel                 173174
2 Resort Hotel               125337

Code

hotel_wise_ct

# A tibble: 119,390 × 2
   hotel        stays_in_week_nights
   <chr>                       <dbl>
 1 Resort Hotel                    0
 2 Resort Hotel                    0
 3 Resort Hotel                    1
 4 Resort Hotel                    1
 5 Resort Hotel                    2
 6 Resort Hotel                    2
 7 Resort Hotel                    2
 8 Resort Hotel                    2
 9 Resort Hotel                    3
10 Resort Hotel                    3
# ℹ 119,380 more rows
…
