Challenge 8_PriyankaThatikonda
…
Are there any variables that require mutation to be usable in your analysis stream? For example, do you need to calculate new values in order to graph them? Can string values be represented numerically? Do you need to turn any variables into factors and reorder for ease of graphics and visualization?

Document your work here.

Join Data

Be sure to include a sanity check, and double-check that case count is correct!

seasons_casts <- seasons %>% left_join(casts,by="sid")
#sanity check
seasons_casts

# A tibble: 614 × 12
     sid  year first_ep…¹ last_epi…² n_epi…³ aid   featu…⁴ first_ep…⁵ last_epi…⁶
   <dbl> <dbl> <date>     <date>       <dbl> <chr> <lgl>   <date>     <date>    
 1     1  1975 1975-10-11 1976-07-31      24 Gild… FALSE   NA         NA        
 2     1  1975 1975-10-11 1976-07-31      24 Mich… FALSE   NA         1975-11-08
 3     1  1975 1975-10-11 1976-07-31      24 Lara… FALSE   NA         NA        
 4     1  1975 1975-10-11 1976-07-31      24 Garr… FALSE   NA         NA        
 5     1  1975 1975-10-11 1976-07-31      24 Jane… FALSE   NA         NA        
 6     1  1975 1975-10-11 1976-07-31      24 Geor… FALSE   NA         1975-10-11
 7     1  1975 1975-10-11 1976-07-31      24 Chev… FALSE   NA         NA        
 8     1  1975 1975-10-11 1976-07-31      24 John… FALSE   NA         NA        
 9     1  1975 1975-10-11 1976-07-31      24 Dan … FALSE   NA         NA        
10     2  1976 1976-09-18 1977-05-21      22 Gild… FALSE   NA         NA        
# … with 604 more rows, 3 more variables: update_anchor <lgl>,
#   n_episodes.y <dbl>, season_fraction <dbl>, and abbreviated variable names
#   ¹​first_epid.x, ²​last_epid.x, ³​n_episodes.x, ⁴​featured, ⁵​first_epid.y,
#   ⁶​last_epid.y
…
