Challenge 3
…
I anticipate the data to look smaller and more readable as I am bringing together livestock information. The dimensions that are anticipated at 144 x 3.

Pivot the Data

Now we will pivot the data, and compare our pivoted data dimensions to the dimensions calculated above as a “sanity” check.

Code

animal_data_pivoted<-pivot_longer(animal_weights_data, col=-`IPCC Area`,
                                    names_to = "Livestock",
                                    values_to = "Weight")
print(animal_data_pivoted)

# A tibble: 144 × 3
   `IPCC Area`         Livestock          Weight
   <chr>               <chr>               <dbl>
 1 Indian Subcontinent Cattle - dairy      275  
 2 Indian Subcontinent Cattle - non-dairy  110  
 3 Indian Subcontinent Buffaloes           295  
 4 Indian Subcontinent Swine - market       28  
 5 Indian Subcontinent Swine - breeding     28  
 6 Indian Subcontinent Chicken - Broilers    0.9
 7 Indian Subcontinent Chicken - Layers      1.8
 8 Indian Subcontinent Ducks                 2.7
 9 Indian Subcontinent Turkeys               6.8
10 Indian Subcontinent Sheep                28  
# ℹ 134 more rows
…
