Eggs Sold Graph Visualizations
…
$y
[1] "Quantity"

$title
[1] "Quantity of Eggs Sold 2004-2013"

attr(,"class")
[1] "labels"

eggs_two <- eggs[order(eggs$month),] %>% group_by(month, year) %>% mutate(total = `large_half_dozen`+`large_dozen`+`extra_large_half_dozen`+`extra_large_dozen`) %>% mutate(month_number = match(month, month.name)) %>% select(month, year, month_number, total)
  eggs_two

# A tibble: 120 × 4
# Groups:   month, year [120]
   month    year month_number total
   <fct>   <int>        <int> <dbl>
 1 January  2004            1  718 
 2 January  2005            1  738.
 3 January  2006            1  738.
 4 January  2007            1  739 
 5 January  2008            1  753 
 6 January  2009            1  923 
 7 January  2010            1  917 
 8 January  2011            1  913 
 9 January  2012            1  913 
10 January  2013            1  924.
# … with 110 more rows
…
