Challenge 2
…
library(tidyverse)

knitr::opts_chunk$set(echo = TRUE, warning=FALSE, message=FALSE)

Read in the Data

I have decided to use Railroads dataset. The Railroads dataset includes separate observations of total employee counts by county within US states/principalities. First, we read the data:

Code

railroad <-read_csv("_data/railroad_2012_clean_county.csv")
print(railroad)

# A tibble: 2,930 × 3
   state county               total_employees
   <chr> <chr>                          <dbl>
 1 AE    APO                                2
 2 AK    ANCHORAGE                          7
 3 AK    FAIRBANKS NORTH STAR               2
 4 AK    JUNEAU                             3
 5 AK    MATANUSKA-SUSITNA                  2
 6 AK    SITKA                              1
 7 AK    SKAGWAY MUNICIPALITY              88
 8 AL    AUTAUGA                          102
 9 AL    BALDWIN                          143
10 AL    BARBOUR                            1
# … with 2,920 more rows
…
Provide Grouped Summary Statistics

The group by function comes in handy since we can actually find some information based on state.

We can find the number of employees in the state. We see that Texas has the largest number.

Code

railroad %>%
  group_by(state) %>%
  select(total_employees) %>%
  summarize_all(sum, na.rm = TRUE) %>%
  arrange(desc(total_employees))

# A tibble: 53 × 2
   state total_employees
   <chr>           <dbl>
 1 TX              19839
 2 IL              19131
 3 NY              17050
 4 NE              13176
 5 CA              13137
 6 PA              12769
 7 OH               9056
 8 GA               8605
 9 IN               8537
10 MO               8419
# … with 43 more rows

We can also find the mean of the employees per state based on the counties:

Code

railroad%>%
  group_by(state)%>%
  select (`total_employees`)%>%
  summarize_all(mean, na.rm=TRUE) 

# A tibble: 53 × 2
   state total_employees
   <chr>           <dbl>
 1 AE                2  
 2 AK               17.2
 3 AL               63.5
 4 AP                1  
 5 AR               53.8
 6 AZ              210. 
 7 CA              239. 
 8 CO               64.0
 9 CT              324  
10 DC              279  
# … with 43 more rows

We also find the max number of employees in the county per state:

Code

railroad%>%
  group_by(state)%>%
  select (`total_employees`)%>%
  summarize_all(max, na.rm=TRUE)

# A tibble: 53 × 2
   state total_employees
   <chr>           <dbl>
 1 AE                  2
 2 AK                 88
 3 AL                990
 4 AP                  1
 5 AR                972
 6 AZ                749
 7 CA               2888
 8 CO                553
 9 CT               1561
10 DC                279
# … with 43 more rows
…
