Challenge 2
…
# Number of Employees Per State
print("The total number of employees in the states > 1000 ordered by the count:-")

[1] "The total number of employees in the states > 1000 ordered by the count:-"

Code

railroaddata %>%
  group_by(state) %>%
  summarize(state_total = sum(total_employees))  %>%
  filter(state_total > 1000)  %>%
  select(state, state_total)  %>%
  arrange(desc(state_total))

# A tibble: 42 × 2
   state state_total
   <chr>       <dbl>
 1 TX          19839
 2 IL          19131
 3 NY          17050
 4 NE          13176
 5 CA          13137
 6 PA          12769
 7 OH           9056
 8 GA           8605
 9 IN           8537
10 MO           8419
# … with 32 more rows
…
