Challenge 5
…
Are there any variables that require mutation to be usable in your analysis stream? For example, do you need to calculate new values in order to graph them? Can string values be represented numerically? Do you need to turn any variables into factors and reorder for ease of graphics and visualization?

Document your work here.

We are going to aggregate state employees count. This will be used in graphics below.

  grouped_by_state <- state_county_data %>%
    group_by(STATE) %>%
    summarize(state_total = sum(EMPLOYEES), 
    state_counties = n_distinct(COUNTY)) %>%
    select(STATE, state_total, state_counties) %>%
    arrange(desc(state_total))
  grouped_by_state

# A tibble: 54 × 3
   STATE state_total state_counties
   <chr>       <dbl>          <int>
 1 TX          19839            221
 2 IL          19131            103
 3 NY          17050             61
 4 NE          13176             89
 5 CA          13137             55
 6 PA          12769             65
 7 OH           9056             88
 8 GA           8605            152
 9 IN           8537             92
10 MO           8419            115
# … with 44 more rows
…
