Challenge 8
…
SNL Casts consists of data for around 614 actors and their first, last episode, no of episodes, season id.

SNL Seasons consists of data of the seasons which are in total 46 from 1975 - 2021

Tidy Data (as needed)

Is your data already tidy, or is there work to be done? Be sure to anticipate your end result to provide a sanity check, and document your work here.

The data is already tidied.

  non_matching_rows <- snl_actors %>%
    anti_join(snl_casts, by = "aid")
  non_matching_rows

# A tibble: 2,150 × 4
   aid               url           type  gender 
   <chr>             <chr>         <chr> <chr>  
 1 Carey Mulligan    /Guests/?3677 guest andy   
 2 Marcus Mumford    /Guests/?3679 guest male   
 3 Steve Higgins     /Crew/?StHi   crew  male   
 4 Kid Cudi          /Guests/?3678 guest unknown
 5 Timothee Chalamet /Guests/?3680 guest unknown
 6 Daniel Kaluuya    /Guests/?3675 guest male   
 7 St. Vincent       /Guests/?3676 guest unknown
 8 Jack Harlow       /Guests/?3670 guest male   
 9 Adam Levine       /Guests/?3671 guest male   
10 Nick Jonas        /Guests/?3667 guest male   
# … with 2,140 more rows

This shows there are a lot of rows in actors that are not in casts.

Join Data

We will join the necessary 3 datasets together first and then plot graphs based on them.

snl_actors_casts <- snl_actors %>%
  inner_join(snl_casts, by="aid")

snl_actors_casts_seasons <- snl_actors_casts %>%
  inner_join(snl_seasons, by="sid")
snl_actors_casts_seasons

# A tibble: 614 × 15
   aid          url   type  gender   sid featu…¹ first…² last_…³ updat…⁴ n_epi…⁵
   <chr>        <chr> <chr> <chr>  <dbl> <lgl>     <dbl>   <dbl> <lgl>     <dbl>
 1 Kate McKinn… /Cas… cast  female    37 TRUE     2.01e7      NA FALSE         5
 2 Kate McKinn… /Cas… cast  female    38 TRUE    NA           NA FALSE        21
 3 Kate McKinn… /Cas… cast  female    39 FALSE   NA           NA FALSE        21
 4 Kate McKinn… /Cas… cast  female    40 FALSE   NA           NA FALSE        21
 5 Kate McKinn… /Cas… cast  female    41 FALSE   NA           NA FALSE        21
 6 Kate McKinn… /Cas… cast  female    42 FALSE   NA           NA FALSE        21
 7 Kate McKinn… /Cas… cast  female    43 FALSE   NA           NA FALSE        21
 8 Kate McKinn… /Cas… cast  female    44 FALSE   NA           NA FALSE        21
 9 Kate McKinn… /Cas… cast  female    45 FALSE   NA           NA FALSE        18
10 Kate McKinn… /Cas… cast  female    46 FALSE   NA           NA FALSE        17
# … with 604 more rows, 5 more variables: season_fraction <dbl>, year <dbl>,
#   first_epid.y <dbl>, last_epid.y <dbl>, n_episodes.y <dbl>, and abbreviated
#   variable names ¹​featured, ²​first_epid.x, ³​last_epid.x, ⁴​update_anchor,
#   ⁵​n_episodes.x
…
