Challenge 2: Finding the Cattle Dairy Value statistics for each country from 1961 - 2018
…
#install.packages("dplyr")
library(dplyr)
#remove columns with "Item Code" values as it has contant value 882
data<-data%>%
  select(-contains("Item Code"))

Grouping by the Area and finding the mean_value

Code

data %>% 
  group_by(Area) %>% 
  summarise(mean_value = mean(Value))

# A tibble: 232 × 2
   Area                mean_value
   <chr>                    <dbl>
 1 Afghanistan            903662.
 2 Africa               18861019.
 3 Albania                275446.
 4 Algeria                599219.
 5 American Samoa           3611.
 6 Americas             56060267.
 7 Angola                 164004.
 8 Antigua and Barbuda      6402.
 9 Argentina             3279105.
10 Armenia                276119.
# … with 222 more rows

Table output by selecting Columns “Area”, “Year”, and “Value”.

Code

data %>% 
  select(Area, Year, Value)

# A tibble: 36,449 × 3
   Area         Year  Value
   <chr>       <dbl>  <dbl>
 1 Afghanistan  1961 700000
 2 Afghanistan  1961   5000
 3 Afghanistan  1961 350000
 4 Afghanistan  1962 700000
 5 Afghanistan  1962   5000
 6 Afghanistan  1962 350000
 7 Afghanistan  1963 780000
 8 Afghanistan  1963   5128
 9 Afghanistan  1963 400000
10 Afghanistan  1964 780000
# … with 36,439 more rows
…
Table Value Statistics

Find the central tendency (mean, median, mode) and dispersion (standard deviation, mix/max/quantile) for Value within the data set.

Code

#deleting the rows with Null values
data2 <- na.omit(data)
# Find the central tendency (mean, median, mode) and dispersion (standard deviation, mix/max/quantile) for different subgroups within the data set.
data2%>%
  group_by(Area)%>%
  summarize(mean.Value = mean(Value, na.rm = TRUE), median.Value = median(Value, na.rm = TRUE), min.Value = min(Value, na.rm = TRUE), max.Value = max(Value, na.rm = TRUE), sd.Value = sd(Value, na.rm = TRUE), var.Value = var(Value, na.rm = TRUE), IQR.Value = IQR(Value, na.rm = TRUE))

# A tibble: 231 × 8
   Area                mean.Va…¹ media…² min.V…³ max.V…⁴ sd.Va…⁵ var.V…⁶ IQR.V…⁷
   <chr>                   <dbl>   <dbl>   <dbl>   <dbl>   <dbl>   <dbl>   <dbl>
 1 Afghanistan           873703.  5.56e5    3592  4.05e6  1.07e6 1.14e12  1.19e6
 2 Africa              18861019.  1.51e7    4311  7.13e7  1.93e7 3.73e14  3.11e7
 3 Albania                88480.  2.53e4    6350  3.24e5  9.90e4 9.81e 9  1.52e5
 4 Algeria               277666.  1.92e5    6008  1.09e6  2.92e5 8.52e10  5.28e5
 5 American Samoa          3652.  3.15e1      16  1.38e4  5.37e3 2.88e 7  7.98e3
 6 Americas            56060267.  4.51e7   22342  1.84e8  5.50e7 3.03e15  9.12e7
 7 Angola                164317.  1.57e5    4800  4.36e5  1.36e5 1.85e10  2.8 e5
 8 Antigua and Barbuda     6414.  6.2 e3    2300  1.06e4  2.67e3 7.15e 6  5.64e3
 9 Argentina            1242484.  5.80e4   16980  8.1 e6  1.40e6 1.95e12  2.37e6
10 Armenia                47702.  1.95e4   14937  4.44e5  1.08e5 1.18e10  3.45e3
# … with 221 more rows, and abbreviated variable names ¹​mean.Value,
#   ²​median.Value, ³​min.Value, ⁴​max.Value, ⁵​sd.Value, ⁶​var.Value, ⁷​IQR.Value
…
