Challenge 2
…
We can see that Chickens have been the most popular Poultry Item across the world as its stock is significantly higher than the other items. The sum of the stocks of all other items is also less than the stock for Chickens.

Analysis of Areas

Code

birds_subset%>%
  filter(Year==2010)%>%
  group_by(Area)%>%
  summarise(Total_stocks = sum(Value))%>%
  arrange(desc(Total_stocks))

# A tibble: 238 × 2
   Area               Total_stocks
   <chr>                     <dbl>
 1 World                  22311214
 2 Asia                   12535841
 3 Eastern Asia            6906604
 4 China, mainland         6312000
 5 Americas                5635098
 6 South-eastern Asia      2570583
 7 Northern America        2379199
 8 South America           2299071
 9 Europe                  2265162
10 Southern Asia           2222019
# ℹ 228 more rows
…
Analysis by decade

We can see the trends of poultry as we go through various decades.

Code

birds_subset %>%
  mutate(Decade = 10 * floor(Year / 10)) %>%
  group_by(Item,Decade) %>%
  summarise(Avg_stocks = mean(Value),
            Median_stocks = median(Value),
            Standard_Deviation = sd(Value))

# A tibble: 30 × 5
# Groups:   Item [5]
   Item     Decade Avg_stocks Median_stocks Standard_Deviation
   <chr>     <dbl>      <dbl>         <dbl>              <dbl>
 1 Chickens   1960     83286.         4745             360089.
 2 Chickens   1970    111927.         7000             481532.
 3 Chickens   1980    162130.         9200             703217.
 4 Chickens   1990    216889.        12000            1007193.
 5 Chickens   2000    287001.        15375            1375191.
 6 Chickens   2010    361437.        18719            1732596.
 7 Ducks      1960      8323.          372.             31291.
 8 Ducks      1970     11006.          430.             42341.
 9 Ducks      1980     16187.          560.             63333.
10 Ducks      1990     26600.          485             113131.
# ℹ 20 more rows
…
