Challenge 3
…
For this challenge, we will be using the following dataset:

australian_marriage*.xls ⭐⭐⭐

Code

votes <- read_excel("_data/australian_marriage_law_postal_survey_2017_-_response_final.xls",
                        sheet="Table 2",
                        skip=6)
colnames(votes) <- c("District", "Yes", "del1", "No", rep("del2", 6), "Illegible", "del3", "No Response", rep("del4", 3))
votes <- votes[, !grepl("del", names(votes))]
votes

# A tibble: 184 × 5
   District                    Yes    No Illegible `No Response`
   <chr>                     <dbl> <dbl>     <dbl>         <dbl>
 1 New South Wales Divisions    NA    NA        NA            NA
 2 Banks                     37736 46343       247         20928
 3 Barton                    37153 47984       226         24008
 4 Bennelong                 42943 43215       244         19973
 5 Berowra                   48471 40369       212         16038
 6 Blaxland                  20406 57926       220         25883
 7 Bradfield                 53681 34927       202         17261
 8 Calare                    54091 35779       285         25342
 9 Chifley                   32871 46702       263         28180
10 Cook                      47505 38804       229         18713
# ℹ 174 more rows

We can see that this dataset will require some cleaning before it can be used. We will start with removing the NA values from the “District” column.

Code

votes <- votes[!is.na(votes$District),]
votes

# A tibble: 174 × 5
   District                    Yes    No Illegible `No Response`
   <chr>                     <dbl> <dbl>     <dbl>         <dbl>
 1 New South Wales Divisions    NA    NA        NA            NA
 2 Banks                     37736 46343       247         20928
 3 Barton                    37153 47984       226         24008
 4 Bennelong                 42943 43215       244         19973
 5 Berowra                   48471 40369       212         16038
 6 Blaxland                  20406 57926       220         25883
 7 Bradfield                 53681 34927       202         17261
 8 Calare                    54091 35779       285         25342
 9 Chifley                   32871 46702       263         28180
10 Cook                      47505 38804       229         18713
# ℹ 164 more rows

Now we can remove all the rows where the District value contains the string “(Total)” or starts with the character ‘(’. These rows provide aggregated data which can be calculated using the rest of the dataset.

Code

votes <- votes[!grepl("(Total)", votes$District), ]
votes <- votes[!grepl("^\\(", votes$District), ]
votes

# A tibble: 160 × 5
   District                    Yes    No Illegible `No Response`
   <chr>                     <dbl> <dbl>     <dbl>         <dbl>
 1 New South Wales Divisions    NA    NA        NA            NA
 2 Banks                     37736 46343       247         20928
 3 Barton                    37153 47984       226         24008
 4 Bennelong                 42943 43215       244         19973
 5 Berowra                   48471 40369       212         16038
 6 Blaxland                  20406 57926       220         25883
 7 Bradfield                 53681 34927       202         17261
 8 Calare                    54091 35779       285         25342
 9 Chifley                   32871 46702       263         28180
10 Cook                      47505 38804       229         18713
# ℹ 150 more rows
…
Code

votes$Division <- ifelse(grepl("Divisions", votes$District), votes$District, NA)
#votes$Division <- tidyr::fill(votes$Division, .direction = "down")
for (i in 2:length(votes$Division)) {
  if (is.na(votes$Division[i])) {
    votes$Division[i] <- votes$Division[i-1]
  }
}
votes <- votes[!grepl("Divisions", votes$District), ]
votes <- na.omit(votes)
votes

# A tibble: 150 × 6
   District    Yes    No Illegible `No Response` Division                 
   <chr>     <dbl> <dbl>     <dbl>         <dbl> <chr>                    
 1 Banks     37736 46343       247         20928 New South Wales Divisions
 2 Barton    37153 47984       226         24008 New South Wales Divisions
 3 Bennelong 42943 43215       244         19973 New South Wales Divisions
 4 Berowra   48471 40369       212         16038 New South Wales Divisions
 5 Blaxland  20406 57926       220         25883 New South Wales Divisions
 6 Bradfield 53681 34927       202         17261 New South Wales Divisions
 7 Calare    54091 35779       285         25342 New South Wales Divisions
 8 Chifley   32871 46702       263         28180 New South Wales Divisions
 9 Cook      47505 38804       229         18713 New South Wales Divisions
10 Cowper    57493 38317       315         25197 New South Wales Divisions
# ℹ 140 more rows
…
Therefore, we expect that the dimensions of the pivoted dataset will be \(600 * 4\).

Pivot the Data

Now we will pivot the data, and compare our pivoted data dimensions to the dimensions calculated above as a “sanity” check.

Code

votes_piv<-pivot_longer(votes, cols = Yes:`No Response`,
                 names_to="Response",
                 values_to = "Count")
votes_piv

# A tibble: 600 × 4
   District  Division                  Response    Count
   <chr>     <chr>                     <chr>       <dbl>
 1 Banks     New South Wales Divisions Yes         37736
 2 Banks     New South Wales Divisions No          46343
 3 Banks     New South Wales Divisions Illegible     247
 4 Banks     New South Wales Divisions No Response 20928
 5 Barton    New South Wales Divisions Yes         37153
 6 Barton    New South Wales Divisions No          47984
 7 Barton    New South Wales Divisions Illegible     226
 8 Barton    New South Wales Divisions No Response 24008
 9 Bennelong New South Wales Divisions Yes         42943
10 Bennelong New South Wales Divisions No          43215
# ℹ 590 more rows
…
