Challenge 3: Eggs 2004-2013
…
Here we have the monthly price paid by first receivers for USDA Certified Organic Eggs by size and carton types for January 2004 to December 2013. The unit “Price” is “cents per pound”. So, for example in January 2004, the price paid by first receivers for USDA Certified Dozen of Extra Large Eggs was 230 cents/pound. As defined in the original data, First Receivers “those entities that purchases the processed product from the poultry or egg company, such as a retailer, distributor, or manufacturer”. The term wholesale level would be appropriate in many cases.

Reading in the egg data

Code

eggs_og <- read_excel("_data/organiceggpoultry.xls",
                      sheet="Data",
                      range =cell_limits(c(6,2),c(NA,6)),
                      col_names = c("date", "xlarge_dzn", "xlarge_halfdzn", "large_dzn", "large_halfdzn")
)
eggs_og

# A tibble: 120 × 5
   date      xlarge_dzn xlarge_halfdzn large_dzn large_halfdzn
   <chr>          <dbl>          <dbl>     <dbl>         <dbl>
 1 Jan 2004        230            132       230           126 
 2 February        230            134.      226.          128.
 3 March           230            137       225           131 
 4 April           234.           137       225           131 
 5 May             236            137       225           131 
 6 June            241            137       231.          134.
 7 July            241            137       234.          134.
 8 August          241            137       234.          134.
 9 September       241            136.      234.          130.
10 October         241            136.      234.          128.
# … with 110 more rows
…
Date Format 2

In the date column, January has a year indicator, 10 of the months appear 10 times, February appears 8 times and February/1 (a leap year) appears twice. We have to delete the /1 in February (mutate) and extend the year indicator from January to the rest of the months (separate and fill).

Code

eggs <- eggs_og %>%
  mutate(date = str_remove(date, " /1")) %>%
  separate(date,into=c("month", "year"), sep=" ") %>%
  fill(year)
eggs

# A tibble: 120 × 6
   month     year  xlarge_dzn xlarge_halfdzn large_dzn large_halfdzn
   <chr>     <chr>      <dbl>          <dbl>     <dbl>         <dbl>
 1 Jan       2004        230            132       230           126 
 2 February  2004        230            134.      226.          128.
 3 March     2004        230            137       225           131 
 4 April     2004        234.           137       225           131 
 5 May       2004        236            137       225           131 
 6 June      2004        241            137       231.          134.
 7 July      2004        241            137       234.          134.
 8 August    2004        241            137       234.          134.
 9 September 2004        241            136.      234.          130.
10 October   2004        241            136.      234.          128.
# … with 110 more rows

Pivot

We need to adjust this data so that it is long data (pivot). As of right now we can look at the data nicely, but can’t do much analysis across sizes because they are in different columns. I will shift this data to month, year, “carton_type” which will combine the 4 types of cartons into one column as their names and place their values into another column labeled “price”.

Code

eggs_long <- eggs %>%
  pivot_longer(cols=3:6,
    names_to = c("carton_type"),
      values_to = "Price"
  )
eggs_long

# A tibble: 480 × 4
   month    year  carton_type    Price
   <chr>    <chr> <chr>          <dbl>
 1 Jan      2004  xlarge_dzn      230 
 2 Jan      2004  xlarge_halfdzn  132 
 3 Jan      2004  large_dzn       230 
 4 Jan      2004  large_halfdzn   126 
 5 February 2004  xlarge_dzn      230 
 6 February 2004  xlarge_halfdzn  134.
 7 February 2004  large_dzn       226.
 8 February 2004  large_halfdzn   128.
 9 March    2004  xlarge_dzn      230 
10 March    2004  xlarge_halfdzn  137 
# … with 470 more rows

Analyze

Alright, now our data is pretty succinct. We can start doing some analysis!

Code

eggs_long %>%
  arrange(desc(`Price`))

# A tibble: 480 × 4
   month    year  carton_type Price
   <chr>    <chr> <chr>       <dbl>
 1 November 2012  xlarge_dzn    290
 2 December 2012  xlarge_dzn    290
 3 Jan      2013  xlarge_dzn    290
 4 February 2013  xlarge_dzn    290
 5 March    2013  xlarge_dzn    290
 6 April    2013  xlarge_dzn    290
 7 May      2013  xlarge_dzn    290
 8 June     2013  xlarge_dzn    290
 9 July     2013  xlarge_dzn    290
10 August   2013  xlarge_dzn    290
# … with 470 more rows
…
