Understanding the FAOSTAT Country Codes
…
Rows: 1943 Columns: 7
── Column specification ────────────────────────────────────────────────────────
Delimiter: ","
chr (5): Country Group, Country, M49 Code, ISO2 Code, ISO3 Code
dbl (2): Country Group Code, Country Code

ℹ Use `spec()` to retrieve the full column specification for this data.
ℹ Specify the column types or set `show_col_types = FALSE` to quiet this message.

Code

data

# A tibble: 1,943 × 7
   `Country Group Code` `Country Group` Countr…¹ Country M49 C…² ISO2 …³ ISO3 …⁴
                  <dbl> <chr>              <dbl> <chr>   <chr>   <chr>   <chr>  
 1                 5100 Africa                 4 Algeria 012     DZ      DZA    
 2                 5100 Africa                 7 Angola  024     AO      AGO    
 3                 5100 Africa                53 Benin   204     BJ      BEN    
 4                 5100 Africa                20 Botswa… 072     BW      BWA    
 5                 5100 Africa               233 Burkin… 854     BF      BFA    
 6                 5100 Africa                29 Burundi 108     BI      BDI    
 7                 5100 Africa                35 Cabo V… 132     CV      CPV    
 8                 5100 Africa                32 Camero… 120     CM      CMR    
 9                 5100 Africa                37 Centra… 140     CF      CAF    
10                 5100 Africa                39 Chad    148     TD      TCD    
# … with 1,933 more rows, and abbreviated variable names ¹​`Country Code`,
#   ²​`M49 Code`, ³​`ISO2 Code`, ⁴​`ISO3 Code`
…
The “World”

The one Country Group that contains all of the countries is “World”, which consists of 277 Countries. If the goal was to analyze all the countries at once, the filter should be set to “World”.

Code

world <- filter(data, `Country Group` == "World")
world

# A tibble: 277 × 7
   `Country Group Code` `Country Group` Countr…¹ Country M49 C…² ISO2 …³ ISO3 …⁴
                  <dbl> <chr>              <dbl> <chr>   <chr>   <chr>   <chr>  
 1                 5000 World                  2 Afghan… 004     AF      AFG    
 2                 5000 World                284 Åland … 248     F284    ALA    
 3                 5000 World                  3 Albania 008     AL      ALB    
 4                 5000 World                  4 Algeria 012     DZ      DZA    
 5                 5000 World                  5 Americ… 016     AS      ASM    
 6                 5000 World                  6 Andorra 020     AD      AND    
 7                 5000 World                  7 Angola  024     AO      AGO    
 8                 5000 World                258 Anguil… 660     AI      AIA    
 9                 5000 World                 30 Antarc… 010     AQ      ATA    
10                 5000 World                  8 Antigu… 028     AG      ATG    
# … with 267 more rows, and abbreviated variable names ¹​`Country Code`,
#   ²​`M49 Code`, ³​`ISO2 Code`, ⁴​`ISO3 Code`
…
