Visualizing time and groups
…
Tidy Data (as needed)

Is your data already tidy, or is there work to be done? Be sure to anticipate your end result to provide a sanity check, and document your work here.

The data does not look tidy enough to use for various analyses and data visualizations. The columns-Year, Month, Day can be combined into one column-date and use it for visualizations.

fed_data_m <- fed_data %>%
  mutate(date = str_c(Month,Day,Year, sep = "/"), 
        date = mdy(date)) %>%
        select(-c(Month, Day, Year))

fed_data_m

# A tibble: 904 × 8
   Federal Funds Ta…¹ Feder…² Feder…³ Effec…⁴ Real …⁵ Unemp…⁶ Infla…⁷ date      
                <dbl>   <dbl>   <dbl>   <dbl>   <dbl>   <dbl>   <dbl> <date>    
 1                 NA      NA      NA    0.8      4.6     5.8      NA 1954-07-01
 2                 NA      NA      NA    1.22    NA       6        NA 1954-08-01
 3                 NA      NA      NA    1.06    NA       6.1      NA 1954-09-01
 4                 NA      NA      NA    0.85     8       5.7      NA 1954-10-01
 5                 NA      NA      NA    0.83    NA       5.3      NA 1954-11-01
 6                 NA      NA      NA    1.28    NA       5        NA 1954-12-01
 7                 NA      NA      NA    1.39    11.9     4.9      NA 1955-01-01
 8                 NA      NA      NA    1.29    NA       4.7      NA 1955-02-01
 9                 NA      NA      NA    1.35    NA       4.6      NA 1955-03-01
10                 NA      NA      NA    1.43     6.7     4.7      NA 1955-04-01
# … with 894 more rows, and abbreviated variable names
#   ¹​`Federal Funds Target Rate`, ²​`Federal Funds Upper Target`,
#   ³​`Federal Funds Lower Target`, ⁴​`Effective Federal Funds Rate`,
#   ⁵​`Real GDP (Percent Change)`, ⁶​`Unemployment Rate`, ⁷​`Inflation Rate`

Are there any variables that require mutation to be usable in your analysis stream? For example, do you need to calculate new values in order to graph them? Can string values be represented numerically? Do you need to turn any variables into factors and reorder for ease of graphics and visualization?

Time Dependent Visualization

select(fed_data_m, c('date', 'Effective Federal Funds Rate'))

# A tibble: 904 × 2
   date       `Effective Federal Funds Rate`
   <date>                              <dbl>
 1 1954-07-01                           0.8 
 2 1954-08-01                           1.22
 3 1954-09-01                           1.06
 4 1954-10-01                           0.85
 5 1954-11-01                           0.83
 6 1954-12-01                           1.28
 7 1955-01-01                           1.39
 8 1955-02-01                           1.29
 9 1955-03-01                           1.35
10 1955-04-01                           1.43
# … with 894 more rows

select(fed_data_m, c('date', 'Unemployment Rate'))

# A tibble: 904 × 2
   date       `Unemployment Rate`
   <date>                   <dbl>
 1 1954-07-01                 5.8
 2 1954-08-01                 6  
 3 1954-09-01                 6.1
 4 1954-10-01                 5.7
 5 1954-11-01                 5.3
 6 1954-12-01                 5  
 7 1955-01-01                 4.9
 8 1955-02-01                 4.7
 9 1955-03-01                 4.6
10 1955-04-01                 4.7
# … with 894 more rows
…
Visualizing Part-Whole Relationships

fed_filter_data <- fed_data_m %>% 
  filter(date >= '2000-07-01', date <= '2004-07-01')

fed_filter_data

# A tibble: 63 × 8
   Federal Funds Ta…¹ Feder…² Feder…³ Effec…⁴ Real …⁵ Unemp…⁶ Infla…⁷ date      
                <dbl>   <dbl>   <dbl>   <dbl>   <dbl>   <dbl>   <dbl> <date>    
 1                6.5      NA      NA    6.54     0.5     4       2.5 2000-07-01
 2                6.5      NA      NA    6.5     NA       4.1     2.6 2000-08-01
 3                6.5      NA      NA    6.52    NA       3.9     2.6 2000-09-01
 4                6.5      NA      NA    6.51     2.3     3.9     2.5 2000-10-01
 5                6.5      NA      NA    6.51    NA       3.9     2.6 2000-11-01
 6                6.5      NA      NA    6.4     NA       3.9     2.6 2000-12-01
 7                6.5      NA      NA    5.98    -1.1     4.2     2.6 2001-01-01
 8                6        NA      NA   NA       NA      NA      NA   2001-01-03
 9                5.5      NA      NA   NA       NA      NA      NA   2001-01-31
10                5.5      NA      NA    5.49    NA       4.2     2.7 2001-02-01
# … with 53 more rows, and abbreviated variable names
#   ¹​`Federal Funds Target Rate`, ²​`Federal Funds Upper Target`,
#   ³​`Federal Funds Lower Target`, ⁴​`Effective Federal Funds Rate`,
#   ⁵​`Real GDP (Percent Change)`, ⁶​`Unemployment Rate`, ⁷​`Inflation Rate`
…
