Challenge 8 Instructions
…
Join Data

Like I have mentioned previously, I will use Country Code column to join both the datasets.

df_join <- faostat_cattle_data_new %>% 
  left_join(faostat_country_data, by = "Country Code")

df_join

# A tibble: 257,061 × 20
   Domain Cod…¹ Domain Count…² Area  Eleme…³ Element Item …⁴ Item  Year …⁵  Year
   <chr>        <chr>    <dbl> <chr>   <dbl> <chr>     <dbl> <chr>   <dbl> <dbl>
 1 QL           Lives…       2 Afgh…    5318 Milk A…     882 Milk…    1961  1961
 2 QL           Lives…       2 Afgh…    5318 Milk A…     882 Milk…    1961  1961
 3 QL           Lives…       2 Afgh…    5318 Milk A…     882 Milk…    1961  1961
 4 QL           Lives…       2 Afgh…    5318 Milk A…     882 Milk…    1961  1961
 5 QL           Lives…       2 Afgh…    5318 Milk A…     882 Milk…    1961  1961
 6 QL           Lives…       2 Afgh…    5318 Milk A…     882 Milk…    1961  1961
 7 QL           Lives…       2 Afgh…    5318 Milk A…     882 Milk…    1961  1961
 8 QL           Lives…       2 Afgh…    5318 Milk A…     882 Milk…    1961  1961
 9 QL           Lives…       2 Afgh…    5318 Milk A…     882 Milk…    1961  1961
10 QL           Lives…       2 Afgh…    5318 Milk A…     882 Milk…    1961  1961
# … with 257,051 more rows, 10 more variables: Unit <chr>, Value <dbl>,
#   Flag <chr>, `Flag Description` <chr>, `Country Group Code` <dbl>,
#   `Country Group` <chr>, Country <chr>, `M49 Code` <chr>, `ISO2 Code` <chr>,
#   `ISO3 Code` <chr>, and abbreviated variable names ¹​`Domain Code`,
#   ²​`Country Code`, ³​`Element Code`, ⁴​`Item Code`, ⁵​`Year Code`
…
