Reading datasets: railroad_2012_clean_county, birds, wild_birds_data
…
#Filter county APO from the dataset 
filter(railroad, county == "APO")

# A tibble: 2 × 3
  state county total_employees
  <chr> <chr>            <dbl>
1 AE    APO                  2
2 AP    APO                  1

Code

#Filter the rows that has total_employees below 3 and above 100
filter(railroad, `total_employees` < 3 | `total_employees` > 100)

# A tibble: 809 × 3
   state county               total_employees
   <chr> <chr>                          <dbl>
 1 AE    APO                                2
 2 AK    FAIRBANKS NORTH STAR               2
 3 AK    MATANUSKA-SUSITNA                  2
 4 AK    SITKA                              1
 5 AL    AUTAUGA                          102
 6 AL    BALDWIN                          143
 7 AL    BARBOUR                            1
 8 AL    BLOUNT                           154
 9 AL    COLBERT                          199
10 AL    CULLMAN                          129
# … with 799 more rows

Code

#Arranging railroad based on total_employees and selecting state, county columns,grouping them based on state and then slicing out first 10 rows (with piping)
railroad %>%
  arrange(desc(total_employees)) %>%
  select(state,county)%>%
  group_by(state) %>%
  slice(1:10)

# A tibble: 478 × 2
# Groups:   state [53]
   state county              
   <chr> <chr>               
 1 AE    APO                 
 2 AK    SKAGWAY MUNICIPALITY
 3 AK    ANCHORAGE           
 4 AK    JUNEAU              
 5 AK    FAIRBANKS NORTH STAR
 6 AK    MATANUSKA-SUSITNA   
 7 AK    SITKA               
 8 AL    JEFFERSON           
 9 AL    MOBILE              
10 AL    COLBERT             
# … with 468 more rows
…
Code

#Filter Area Code = 3 from the dataset 
filter(birds_data, `Area Code` == 3)

# A tibble: 232 × 14
   Domain Cod…¹ Domain Area …² Area  Eleme…³ Element Item …⁴ Item  Year …⁵  Year
   <chr>        <chr>    <dbl> <chr>   <dbl> <chr>     <dbl> <chr>   <dbl> <dbl>
 1 QA           Live …       3 Alba…    5112 Stocks     1057 Chic…    1961  1961
 2 QA           Live …       3 Alba…    5112 Stocks     1057 Chic…    1962  1962
 3 QA           Live …       3 Alba…    5112 Stocks     1057 Chic…    1963  1963
 4 QA           Live …       3 Alba…    5112 Stocks     1057 Chic…    1964  1964
 5 QA           Live …       3 Alba…    5112 Stocks     1057 Chic…    1965  1965
 6 QA           Live …       3 Alba…    5112 Stocks     1057 Chic…    1966  1966
 7 QA           Live …       3 Alba…    5112 Stocks     1057 Chic…    1967  1967
 8 QA           Live …       3 Alba…    5112 Stocks     1057 Chic…    1968  1968
 9 QA           Live …       3 Alba…    5112 Stocks     1057 Chic…    1969  1969
10 QA           Live …       3 Alba…    5112 Stocks     1057 Chic…    1970  1970
# … with 222 more rows, 4 more variables: Unit <chr>, Value <dbl>, Flag <chr>,
#   `Flag Description` <chr>, and abbreviated variable names ¹​`Domain Code`,
#   ²​`Area Code`, ³​`Element Code`, ⁴​`Item Code`, ⁵​`Year Code`

Code

#Filter the rows that has Item Code as 1057 and Item as Chickens
filter(birds_data, `Item Code` == 1057 & `Item` == "Chickens")

# A tibble: 13,074 × 14
   Domain Cod…¹ Domain Area …² Area  Eleme…³ Element Item …⁴ Item  Year …⁵  Year
   <chr>        <chr>    <dbl> <chr>   <dbl> <chr>     <dbl> <chr>   <dbl> <dbl>
 1 QA           Live …       2 Afgh…    5112 Stocks     1057 Chic…    1961  1961
 2 QA           Live …       2 Afgh…    5112 Stocks     1057 Chic…    1962  1962
 3 QA           Live …       2 Afgh…    5112 Stocks     1057 Chic…    1963  1963
 4 QA           Live …       2 Afgh…    5112 Stocks     1057 Chic…    1964  1964
 5 QA           Live …       2 Afgh…    5112 Stocks     1057 Chic…    1965  1965
 6 QA           Live …       2 Afgh…    5112 Stocks     1057 Chic…    1966  1966
 7 QA           Live …       2 Afgh…    5112 Stocks     1057 Chic…    1967  1967
 8 QA           Live …       2 Afgh…    5112 Stocks     1057 Chic…    1968  1968
 9 QA           Live …       2 Afgh…    5112 Stocks     1057 Chic…    1969  1969
10 QA           Live …       2 Afgh…    5112 Stocks     1057 Chic…    1970  1970
# … with 13,064 more rows, 4 more variables: Unit <chr>, Value <dbl>,
#   Flag <chr>, `Flag Description` <chr>, and abbreviated variable names
#   ¹​`Domain Code`, ²​`Area Code`, ³​`Element Code`, ⁴​`Item Code`, ⁵​`Year Code`

Code

#Arranging data based on Value and selecting Area, Item, Value columns, grouping them based on Area and then slicing out first 10 rows (with piping)
birds_data %>%
  arrange(desc(Value)) %>%
  select(Area, Item, Value)%>%
  group_by(Area) %>%
  slice(1:10)

# A tibble: 2,474 × 3
# Groups:   Area [248]
   Area        Item     Value
   <chr>       <chr>    <dbl>
 1 Afghanistan Chickens 14414
 2 Afghanistan Chickens 14152
 3 Afghanistan Chickens 13573
 4 Afghanistan Chickens 13378
 5 Afghanistan Chickens 13212
 6 Afghanistan Chickens 13022
 7 Afghanistan Chickens 12888
 8 Afghanistan Chickens 12402
 9 Afghanistan Chickens 12156
10 Afghanistan Chickens 12053
# … with 2,464 more rows
…
Code

#Filter the rows that has Reference > 10 and Reference < 12
filter(wild_birds_data, `Reference` > 10.0 & `Reference` < 12.0)

# A tibble: 22 × 2
   Reference        `Taken from Figure 1 of Nee et al.`
   <chr>            <chr>                              
 1 10.6897349302105 3524193.2266336                    
 2 10.9430490453536 864.665387886239                   
 3 10.0837373583453 74386.4256983317                   
 4 10.4227948279533 131929.739792131                   
 5 11.0657951888437 164390.10921714                    
 6 11.7501765156051 143943.923703849                   
 7 11.911899237195  62266.8051981741                   
 8 11.8338885705264 49948.4692178362                   
 9 11.3325639394677 15.2869871955882                   
10 116.289475709079 32206.460433963                    
# … with 12 more rows
…
