Reading datasets: hotel_bookings.csv
…
 reservation_status_date total_number_of_guests total_days_stay 
 Min.   :2014-10-17      Min.   : 0.000         Min.   : 0.000  
 1st Qu.:2016-02-01      1st Qu.: 2.000         1st Qu.: 2.000  
 Median :2016-08-07      Median : 2.000         Median : 3.000  
 Mean   :2016-07-30      Mean   : 1.968         Mean   : 3.428  
 3rd Qu.:2017-02-08      3rd Qu.: 2.000         3rd Qu.: 4.000  
 Max.   :2017-09-14      Max.   :55.000         Max.   :69.000  
                         NA's   :4                              

Code

#Filter country Code = 'PRT' from the dataset 
filter(hotel_bookings_data, `country` == "PRT")

# A tibble: 48,590 × 34
   hotel  is_ca…¹ lead_…² arriv…³ arriv…⁴ arriv…⁵ arriv…⁶ stays…⁷ stays…⁸ adults
   <chr>    <dbl>   <dbl>   <dbl> <chr>     <dbl>   <dbl>   <dbl>   <dbl>  <dbl>
 1 Resor…       0     342    2015 July         27       1       0       0      2
 2 Resor…       0     737    2015 July         27       1       0       0      2
 3 Resor…       0       0    2015 July         27       1       0       2      2
 4 Resor…       0       9    2015 July         27       1       0       2      2
 5 Resor…       1      85    2015 July         27       1       0       3      2
 6 Resor…       1      75    2015 July         27       1       0       3      2
 7 Resor…       1      23    2015 July         27       1       0       4      2
 8 Resor…       0      35    2015 July         27       1       0       4      2
 9 Resor…       0      37    2015 July         27       1       0       4      2
10 Resor…       0      37    2015 July         27       1       0       4      2
# … with 48,580 more rows, 24 more variables: children <dbl>, babies <dbl>,
#   meal <chr>, country <chr>, market_segment <chr>,
#   distribution_channel <chr>, is_repeated_guest <dbl>,
#   previous_cancellations <dbl>, previous_bookings_not_canceled <dbl>,
#   reserved_room_type <chr>, assigned_room_type <chr>, booking_changes <dbl>,
#   deposit_type <chr>, agent <chr>, company <chr>, days_in_waiting_list <dbl>,
#   customer_type <chr>, average_daily_rate <dbl>, …

Code

#Filter the rows that has country as "PRT" and is not a repeated_guest
filter(hotel_bookings_data, `country` == "PRT" & `is_repeated_guest` == 0)

# A tibble: 45,340 × 34
   hotel  is_ca…¹ lead_…² arriv…³ arriv…⁴ arriv…⁵ arriv…⁶ stays…⁷ stays…⁸ adults
   <chr>    <dbl>   <dbl>   <dbl> <chr>     <dbl>   <dbl>   <dbl>   <dbl>  <dbl>
 1 Resor…       0     342    2015 July         27       1       0       0      2
 2 Resor…       0     737    2015 July         27       1       0       0      2
 3 Resor…       0       0    2015 July         27       1       0       2      2
 4 Resor…       0       9    2015 July         27       1       0       2      2
 5 Resor…       1      85    2015 July         27       1       0       3      2
 6 Resor…       1      75    2015 July         27       1       0       3      2
 7 Resor…       1      23    2015 July         27       1       0       4      2
 8 Resor…       0      35    2015 July         27       1       0       4      2
 9 Resor…       0      37    2015 July         27       1       0       4      2
10 Resor…       0      37    2015 July         27       1       0       4      2
# … with 45,330 more rows, 24 more variables: children <dbl>, babies <dbl>,
#   meal <chr>, country <chr>, market_segment <chr>,
#   distribution_channel <chr>, is_repeated_guest <dbl>,
#   previous_cancellations <dbl>, previous_bookings_not_canceled <dbl>,
#   reserved_room_type <chr>, assigned_room_type <chr>, booking_changes <dbl>,
#   deposit_type <chr>, agent <chr>, company <chr>, days_in_waiting_list <dbl>,
#   customer_type <chr>, average_daily_rate <dbl>, …

Code

#Arranging data based on average_daily_rate and selecting hotel, country, average_daily_rate columns, grouping them based on country and then slicing out first 10 rows (with piping)
hotel_bookings_data %>%
  arrange(desc(average_daily_rate)) %>%
  select(hotel, country, average_daily_rate)%>%
  group_by(country) %>%
  slice(1:10)

# A tibble: 1,220 × 3
# Groups:   country [178]
   hotel        country average_daily_rate
   <chr>        <chr>                <dbl>
 1 City Hotel   ABW                   158.
 2 City Hotel   ABW                    99 
 3 City Hotel   AGO                   305 
 4 City Hotel   AGO                   291.
 5 City Hotel   AGO                   274.
 6 City Hotel   AGO                   266.
 7 City Hotel   AGO                   266.
 8 Resort Hotel AGO                   255.
 9 Resort Hotel AGO                   255.
10 City Hotel   AGO                   252.
# … with 1,210 more rows
…
