Mutating dataset using lubridate, stringr: hotel_bookings.csv
…
Code

# Mutating the month, date, year columns to 1 column - date arrived and mutating adults, children, babies to total_number_of_guests and mutating stays_in_weekend_nights, stays_in_week_nights to total_days_stay

hotel_bookings_data_m <- hotel_bookings_data %>%
  mutate(date_arrived = str_c(arrival_date_month, arrival_date_day_of_month, arrival_date_year, sep = "/"), 
        date_arrived = mdy(date_arrived),
        total_days_stay = stays_in_weekend_nights + stays_in_week_nights,
        total_number_of_guests = adults + children + babies) %>%
  select(-c(arrival_date_month, arrival_date_day_of_month, arrival_date_year))

hotel_bookings_data_m

# A tibble: 118,902 × 32
   hotel     is_ca…¹ lead_…² arriv…³ stays…⁴ stays…⁵ adults child…⁶ babies meal 
   <chr>       <dbl>   <dbl>   <dbl>   <dbl>   <dbl>  <dbl>   <dbl>  <dbl> <chr>
 1 Resort H…       0     342      27       0       0      2       0      0 BB   
 2 Resort H…       0     737      27       0       0      2       0      0 BB   
 3 Resort H…       0       7      27       0       1      1       0      0 BB   
 4 Resort H…       0      13      27       0       1      1       0      0 BB   
 5 Resort H…       0      14      27       0       2      2       0      0 BB   
 6 Resort H…       0      14      27       0       2      2       0      0 BB   
 7 Resort H…       0       0      27       0       2      2       0      0 BB   
 8 Resort H…       0       9      27       0       2      2       0      0 FB   
 9 Resort H…       1      85      27       0       3      2       0      0 BB   
10 Resort H…       1      75      27       0       3      2       0      0 HB   
# … with 118,892 more rows, 22 more variables: country <chr>,
#   market_segment <chr>, distribution_channel <chr>, is_repeated_guest <dbl>,
#   previous_cancellations <dbl>, previous_bookings_not_canceled <dbl>,
#   reserved_room_type <chr>, assigned_room_type <chr>, booking_changes <dbl>,
#   deposit_type <chr>, agent <chr>, company <chr>, days_in_waiting_list <dbl>,
#   customer_type <chr>, average_daily_rate <dbl>,
#   required_car_parking_spaces <dbl>, total_of_special_requests <dbl>, …
…
Code

hotel_bookings_data_m

# A tibble: 118,902 × 32
   hotel     is_ca…¹ lead_…² arriv…³ stays…⁴ stays…⁵ adults child…⁶ babies meal 
   <chr>       <dbl>   <dbl>   <dbl>   <dbl>   <dbl>  <dbl>   <dbl>  <dbl> <chr>
 1 Resort H…       0     342      27       0       0      2       0      0 BB   
 2 Resort H…       0     737      27       0       0      2       0      0 BB   
 3 Resort H…       0       7      27       0       1      1       0      0 BB   
 4 Resort H…       0      13      27       0       1      1       0      0 BB   
 5 Resort H…       0      14      27       0       2      2       0      0 BB   
 6 Resort H…       0      14      27       0       2      2       0      0 BB   
 7 Resort H…       0       0      27       0       2      2       0      0 BB   
 8 Resort H…       0       9      27       0       2      2       0      0 FB   
 9 Resort H…       1      85      27       0       3      2       0      0 BB   
10 Resort H…       1      75      27       0       3      2       0      0 HB   
# … with 118,892 more rows, 22 more variables: country <chr>,
#   market_segment <chr>, distribution_channel <chr>, is_repeated_guest <dbl>,
#   previous_cancellations <dbl>, previous_bookings_not_canceled <dbl>,
#   reserved_room_type <chr>, assigned_room_type <chr>, booking_changes <dbl>,
#   deposit_type <chr>, agent <dbl>, company <dbl>, days_in_waiting_list <dbl>,
#   customer_type <chr>, average_daily_rate <dbl>,
#   required_car_parking_spaces <dbl>, total_of_special_requests <dbl>, …
…
