Challenge 2
…
Let’s look at average lead time (number of days between booking and anticipated arrival date) to get clues into when during the year each hotel is more likely to be booked far in advanced. Let’s also filter out bookings that were cancelled.

Code

library(dplyr)
hotel_bookings %>%
  filter(reservation_status == "Check-Out") %>%
  group_by(arrival_date_month, hotel) %>%
  select(lead_time) %>%
  summarize_all(mean) %>%
  ungroup() %>%
  arrange(desc(lead_time))

# A tibble: 24 × 3
   arrival_date_month hotel        lead_time
   <chr>              <chr>            <dbl>
 1 September          Resort Hotel     146. 
 2 July               City Hotel       133. 
 3 June               Resort Hotel     126. 
 4 May                Resort Hotel     107. 
 5 June               City Hotel       103. 
 6 October            Resort Hotel     103. 
 7 August             City Hotel       101. 
 8 July               Resort Hotel      96.2
 9 August             Resort Hotel      92.8
10 May                City Hotel        90.0
# … with 14 more rows
…
