Challenge 5: Public School Characteristics
…
dim(public_schools)

[1] 100729     79

Tidy Data

Problems() and Changing Data Types

When I originally read the csv file in, I got a warning message that said to call problems() for more information.

problems(public_schools)

# A tibble: 110 × 5
     row   col expected           actual   file                                 
   <int> <int> <chr>              <chr>    <chr>                                
 1 15701    73 1/0/T/F/TRUE/FALSE 184      C:/Users/Peregrine/Documents/601_Spr…
 2 15823    73 1/0/T/F/TRUE/FALSE 224      C:/Users/Peregrine/Documents/601_Spr…
 3 21611    14 1/0/T/F/TRUE/FALSE Room 121 C:/Users/Peregrine/Documents/601_Spr…
 4 44514    40 1/0/T/F/TRUE/FALSE 48       C:/Users/Peregrine/Documents/601_Spr…
 5 44518    40 1/0/T/F/TRUE/FALSE 59       C:/Users/Peregrine/Documents/601_Spr…
 6 44522    40 1/0/T/F/TRUE/FALSE 24       C:/Users/Peregrine/Documents/601_Spr…
 7 44524    40 1/0/T/F/TRUE/FALSE 30       C:/Users/Peregrine/Documents/601_Spr…
 8 44530    40 1/0/T/F/TRUE/FALSE 21       C:/Users/Peregrine/Documents/601_Spr…
 9 44536    40 1/0/T/F/TRUE/FALSE 22       C:/Users/Peregrine/Documents/601_Spr…
10 44537    40 1/0/T/F/TRUE/FALSE 29       C:/Users/Peregrine/Documents/601_Spr…
# ℹ 100 more rows
…
