Challenge 6
…
Code

year_unemploy <- fed_rates %>%
  pivot_wider(names_from = variable, values_from = value) %>%
  mutate(year=year(date)) %>%
  group_by(year) %>%
  summarise(median_rate=median(unemploy)/100) %>%
  ungroup()
year_unemploy

# A tibble: 64 × 2
    year median_rate
   <dbl>       <dbl>
 1  1954      0.0575
 2  1955      0.0425
 3  1956      0.0415
 4  1957      0.042 
 5  1958      0.069 
 6  1959      0.054 
 7  1960      0.0545
 8  1961      0.068 
 9  1962      0.0555
10  1963      0.0565
# … with 54 more rows
…
