Challenge 5
…
Tidy Data (as needed)

I’m interested in learning more about public school employment. It doesn’t take much to tidy this data for that question, because both Total enrollment and FTE are single variables in the original data.

dfPubSchoolSub <- dfPubSchool %>%
  subset(select = 
           c(NMCNTY, TOTAL, FTE, CHARTER_TEXT)) %>%
  mutate(CHARTER_TEXT = factor(CHARTER_TEXT)) %>% 
  print(n = numtoprint)

# A tibble: 100,729 × 4
   NMCNTY                            TOTAL    FTE CHARTER_TEXT
   <chr>                             <int>  <dbl> <fct>       
 1 Matanuska-Susitna Borough           447 24.9   No          
 2 North Slope Borough                  30  3     No          
 3 Kenai Peninsula Borough             167 10.4   Yes         
 4 Kenai Peninsula Borough             260 16.8   Yes         
 5 Kenai Peninsula Borough               5  0.670 No          
 6 Prince of Wales-Hyder Census Area    18  1.90  No          
 7 Hoonah-Angoon Census Area            11  0     No          
 8 Denali Borough                      737  5.79  No          
 9 Aleutians East Borough               13  1.96  No          
10 Aleutians East Borough                6  1.39  No          
11 Aleutians East Borough               94 12     No          
12 Aleutians East Borough              120 12.9   No          
# … with 100,717 more rows
…
