Challenge 4
…
  mutate(month = replace(month, month == 'Jan', 'January')) %>%
  mutate(year = replace(year, year == '/1', NA)) %>%
  fill(year) %>% # tidy the month column and separate year into its own column. 
  pivot_longer(cols = -c(month,year), names_to = "item", values_to = "price") %>% # to pivot the egg and chicken product column headings into row values under a new `item` column, with their values listed in a `price` column
  mutate(item = str_remove_all(item, '\\n')) %>% # tidy up item values and make labels consistent
  mutate(item = str_remove_all(item, '1/2 Dozen')) %>%
  mutate(item = str_replace_all(item, 'Doz\\.','Dozen')) %>%
  mutate(product = case_when( # assign the egg and chicken product variables that I recorded earlier according to each egg and chicken item
    str_detect(item, regex("^[EL]")) ~ productname[[1]],
    str_detect(item, regex("^[BTW]")) ~ productname[[2]]
    )) %>% 
  mutate(price = case_match(price, "too few" ~ NA, .default = as.double(price))) %>% # make column all double and NA
  print(n=18) # print a sample of the table

# A tibble: 1,080 × 5
   month    year  item                  price product
   <chr>    <chr> <chr>                 <dbl> <chr>  
 1 January  2004  Extra Large Dozen      230  Eggs   
 2 January  2004  Extra Large 1/2 Dozen  132  Eggs   
 3 January  2004  Large Dozen            230  Eggs   
 4 January  2004  Large 1/2 Dozen        126  Eggs   
 5 January  2004  Whole                  198. Chicken
 6 January  2004  B/S Breast             646. Chicken
 7 January  2004  Bone-in Breast          NA  Chicken
 8 January  2004  Whole Legs             194. Chicken
 9 January  2004  Thighs                  NA  Chicken
10 February 2004  Extra Large Dozen      230  Eggs   
11 February 2004  Extra Large 1/2 Dozen  134. Eggs   
12 February 2004  Large Dozen            226. Eggs   
13 February 2004  Large 1/2 Dozen        128. Eggs   
14 February 2004  Whole                  198. Chicken
15 February 2004  B/S Breast             642. Chicken
16 February 2004  Bone-in Breast          NA  Chicken
17 February 2004  Whole Legs             194. Chicken
18 February 2004  Thighs                 203  Chicken
# … with 1,062 more rows
…
I also use mutate to create a month and year column, but these variables are still character data types.

The lubridate package wants to use dates or datetimes. It can do calculations with periods such as months, but the output is still dates or datetimes rather than months. I could pick the 1st of each month to work around this limitation, but there’s another option …

The zoo package yearmon class can return a year and month combo to represent dates on in monthly units. I like that! I decided to use zoo instead of lubridate for this specific case.

Code

df_eggPoultryData$monthYear <- as.yearmon(paste(df_eggPoultryData$year, df_eggPoultryData$month), "%Y %B") # turn combine month and year strings into a yearmon data type column
df_eggPoultryData <- subset(df_eggPoultryData, select = -c(month, year)) %>%
  relocate(monthYear) %>% # we no longer need the month and year string columns
  print(n=18)

# A tibble: 1,080 × 4
   monthYear item                  price product
   <yearmon> <chr>                 <dbl> <chr>  
 1 Jan 2004  Extra Large Dozen      230  Eggs   
 2 Jan 2004  Extra Large 1/2 Dozen  132  Eggs   
 3 Jan 2004  Large Dozen            230  Eggs   
 4 Jan 2004  Large 1/2 Dozen        126  Eggs   
 5 Jan 2004  Whole                  198. Chicken
 6 Jan 2004  B/S Breast             646. Chicken
 7 Jan 2004  Bone-in Breast          NA  Chicken
 8 Jan 2004  Whole Legs             194. Chicken
 9 Jan 2004  Thighs                  NA  Chicken
10 Feb 2004  Extra Large Dozen      230  Eggs   
11 Feb 2004  Extra Large 1/2 Dozen  134. Eggs   
12 Feb 2004  Large Dozen            226. Eggs   
13 Feb 2004  Large 1/2 Dozen        128. Eggs   
14 Feb 2004  Whole                  198. Chicken
15 Feb 2004  B/S Breast             642. Chicken
16 Feb 2004  Bone-in Breast          NA  Chicken
17 Feb 2004  Whole Legs             194. Chicken
18 Feb 2004  Thighs                 203  Chicken
# … with 1,062 more rows
…
df_eggPoultryData %>% 
  group_by(month = month(monthYear, label = TRUE), item) %>% 
  summarise(
    meanPrice = mean(price, na.rm = TRUE), 
    modePrice = find_mode(price), 
    minPrice = fivenum(price, na.rm = TRUE)[1], 
    lowHingePrice = fivenum(price, na.rm = TRUE)[2], 
    medianPrice = median(price, na.rm = TRUE), 
    upHungePrice = fivenum(price, na.rm = TRUE)[4], 
    maxPrice = fivenum(price, na.rm = TRUE)[5], 
    count = n()
    )

# A tibble: 108 × 10
# Groups:   month [12]
   month item      meanP…¹ modeP…² minPr…³ lowHi…⁴ media…⁵ upHun…⁶ maxPr…⁷ count
   <ord> <chr>       <dbl>   <dbl>   <dbl>   <dbl>   <dbl>   <dbl>   <dbl> <int>
 1 Jan   B/S Brea…    650.    658.    638.    644     646.    646.    704.    10
 2 Jan   Bone-in …    390.    390.    390.    390.    390.    390.    390.    10
 3 Jan   Extra La…    161.    156.    132     136.    162.    186.    188.    10
 4 Jan   Extra La…    263.    256.    230     241     265.    286.    290     10
 5 Jan   Large 1/…    152.    148.    126     128.    153.    174.    178     10
 6 Jan   Large Do…    252.    253.    230     234.    252.    268.    278.    10
 7 Jan   Thighs       219.    217.    213     215     222     222     222     10
 8 Jan   Whole        228.    226.    198.    217     228.    238.    248     10
 9 Jan   Whole Le…    202.    198.    194.    204.    204.    204.    204.    10
10 Feb   B/S Brea…    656.    666.    638.    646.    646.    646.    704.    10
# … with 98 more rows, and abbreviated variable names ¹​meanPrice, ²​modePrice,
#   ³​minPrice, ⁴​lowHingePrice, ⁵​medianPrice, ⁶​upHungePrice, ⁷​maxPrice
…
