Challenge 3
…
I chose to read in the organic egg file, organiceggpoultry.xls. The thought of chickens always brings a smile to my face.

One tricky property of the egg data set is that the Excel file includes data in three tabs, so I can’t just read it in with read_xls(). I use excel_sheets() to return a list of data frames with data populated by each sheet in the Excel file. From the purrr library, the map() assigns each sheet from the list as a vector element. Also from purrr, set_names() gives the vector element the same name as the Excel sheet.

Messy, but a good stepping stone. Here are the three vector elements printed:

Code

listEggDFs <- map(set_names(excel_sheets("../posts/_data/organiceggpoultry.xls")),
read_xls, path = "../posts/_data/organiceggpoultry.xls") # read in all sheets as dataframes in a list

listEggDFs

$Data
# A tibble: 124 × 11
   (Certified Orga…¹ ...2  ...3  ...4  ...5  ...6  ...7  ...8  ...9  ...10 ...11
   <chr>             <chr> <chr> <chr> <chr> <lgl> <chr> <chr> <chr> <chr> <chr>
 1 <NA>               <NA>  <NA>  <NA>  <NA> NA    <NA>  <NA>  <NA>  <NA>  <NA> 
 2 USDA Certified O…  <NA>  <NA>  <NA>  <NA> NA    USDA… <NA>  <NA>  <NA>  <NA> 
 3 Price per Carton…  <NA>  <NA>  <NA>  <NA> NA    Pric… <NA>  <NA>  <NA>  <NA> 
 4 <NA>              "Ext… "Ext… "Lar… "Lar… NA    Whole B/S … Bone… Whol… Thig…
 5 Jan 2004          "230" "132" "230" "126" NA    197.5 645.5 too … 193.5 too …
 6 February          "230" "134… "226… "128… NA    197.5 642.5 too … 193.5 203  
 7 March             "230" "137" "225" "131" NA    209   642.5 too … 193.5 203  
 8 April             "234… "137" "225" "131" NA    212   642.5 too … 193.5 203  
 9 May               "236" "137" "225" "131" NA    214.5 642.5 too … 193.5 203  
10 June              "241" "137" "231… "133… NA    216.… 641   too … 201.… 200.…
# … with 114 more rows, and abbreviated variable name
#   ¹​`(Certified Organic denotes products grown and processed according to USDA's national organic standards and certified by USDA-accredited State and private certification organizations.)`

$`Organic egg prices, 2004-13`
# A tibble: 75 × 13
   Prices pa…¹ ...2  ...3  ...4  ...5  ...6  ...7  ...8  ...9  ...10 ...11 ...12
   <chr>       <chr> <chr> <chr> <chr> <chr> <chr> <chr> <chr> <chr> <chr> <chr>
 1 "Year"      Jan.  Feb.  Mar.  Apr.  May   June  July  Aug.  Sep.  Oct.  Nov. 
 2 "2013"      <NA>  <NA>  <NA>  <NA>  <NA>  Cent… <NA>  <NA>  <NA>  <NA>  <NA> 
 3 "Certified… <NA>  <NA>  <NA>  <NA>  <NA>  <NA>  <NA>  <NA>  <NA>  <NA>  <NA> 
 4 "Extra Lar… 290   290   290   290   290   290   290   290   290   290   290  
 5 "Extra Lar… 188.… 188.… 188.… 188.… 188.… 188.… 188.… 188.… 188.… 188.… 188.…
 6 "Large \nD… 267.5 267.5 267.5 267.5 267.5 267.5 267.5 267.5 267.5 267.5 267.5
 7 "Large \n1… 178   178   178   178   178   178   178   178   178   178   178  
 8  <NA>       Jan.  Feb.  Mar.  Apr.  May   June  July  Aug.  Sep.  Oct.  Nov. 
 9 "2012"      <NA>  <NA>  <NA>  <NA>  <NA>  Cent… <NA>  <NA>  <NA>  <NA>  <NA> 
10 "Certified… <NA>  <NA>  <NA>  <NA>  <NA>  <NA>  <NA>  <NA>  <NA>  <NA>  <NA> 
# … with 65 more rows, 1 more variable: ...13 <chr>, and abbreviated variable
#   name
#   ¹​`Prices paid by first receiver for USDA certified organic eggs, monthly, 2004-13 1/`

$`Organic poultry prices, 2004-13`
# A tibble: 100 × 13
   Prices pa…¹ ...2  ...3  ...4  ...5  ...6  ...7  ...8  ...9  ...10 ...11 ...12
   <chr>       <chr> <chr> <chr> <chr> <chr> <chr> <chr> <chr> <chr> <chr> <chr>
 1 Year        Jan.  Feb.  Mar.  Apr.  May   June  July  Aug.  Sep.  Oct.  Nov. 
 2 2013        <NA>  <NA>  <NA>  <NA>  <NA>  Cent… <NA>  <NA>  <NA>  <NA>  <NA> 
 3 Organic yo… <NA>  <NA>  <NA>  <NA>  <NA>  <NA>  <NA>  <NA>  <NA>  <NA>  <NA> 
 4 Whole       238.5 238.5 238.5 238.5 238.5 238.5 238.5 238.5 238.5 238.5 238.5
 5 B/S Breast  703.… 703.… 703.… 703.… 703.… 703.… 703.… 703.… 703.… 703.… 703.…
 6 Bone-in Br… 390.5 390.5 390.5 390.5 390.5 390.5 390.5 390.5 390.5 390.5 390.5
 7 Whole Legs  203.5 203.5 203.5 203.5 203.5 203.5 203.5 203.5 203.5 203.5 203.5
 8 Thighs      216.… 216.… 216.… 216.… 216.… 216.… 216.… 216.… 216.… 216.… 216.…
 9 <NA>        Jan.  Feb.  Mar.  Apr.  May   June  July  Aug.  Sep.  Oct.  Nov. 
10 2012        <NA>  <NA>  <NA>  <NA>  <NA>  Cent… <NA>  <NA>  <NA>  <NA>  <NA> 
# … with 90 more rows, 1 more variable: ...13 <chr>, and abbreviated variable
#   name
#   ¹​`Prices paid by first receiver for USDA certified organic poultry, monthly, 2004-13 1/`

The next step is to use map() again to assign each data frame in the list to its own variable. This will let me tidy each data frame separately. This is useful because each Excel sheet is organized in a different way, and therefore I must use different commands to tidy each sheet. For clarity of reference, I chose data frame variable names similar to the source file sheet names.

We now have three data frames from one Excel workbook. Here is each data frame printed:

Code

df_eggPoultryData <- map(names(listEggDFs), ~assign(.x, listEggDFs[[.x]], envir = .GlobalEnv))[[1]] # assign the first df in the list to a separate df
df_eggPrices <- map(names(listEggDFs), ~assign(.x, listEggDFs[[.x]], envir = .GlobalEnv))[[2]] # assign the second df in the list to a separate df
df_poultryPrices <- map(names(listEggDFs), ~assign(.x, listEggDFs[[.x]], envir = .GlobalEnv))[[3]] # assign the third df in the list to a separate df

df_eggPoultryData

# A tibble: 124 × 11
   (Certified Orga…¹ ...2  ...3  ...4  ...5  ...6  ...7  ...8  ...9  ...10 ...11
   <chr>             <chr> <chr> <chr> <chr> <lgl> <chr> <chr> <chr> <chr> <chr>
 1 <NA>               <NA>  <NA>  <NA>  <NA> NA    <NA>  <NA>  <NA>  <NA>  <NA> 
 2 USDA Certified O…  <NA>  <NA>  <NA>  <NA> NA    USDA… <NA>  <NA>  <NA>  <NA> 
 3 Price per Carton…  <NA>  <NA>  <NA>  <NA> NA    Pric… <NA>  <NA>  <NA>  <NA> 
 4 <NA>              "Ext… "Ext… "Lar… "Lar… NA    Whole B/S … Bone… Whol… Thig…
 5 Jan 2004          "230" "132" "230" "126" NA    197.5 645.5 too … 193.5 too …
 6 February          "230" "134… "226… "128… NA    197.5 642.5 too … 193.5 203  
 7 March             "230" "137" "225" "131" NA    209   642.5 too … 193.5 203  
 8 April             "234… "137" "225" "131" NA    212   642.5 too … 193.5 203  
 9 May               "236" "137" "225" "131" NA    214.5 642.5 too … 193.5 203  
10 June              "241" "137" "231… "133… NA    216.… 641   too … 201.… 200.…
# … with 114 more rows, and abbreviated variable name
#   ¹​`(Certified Organic denotes products grown and processed according to USDA's national organic standards and certified by USDA-accredited State and private certification organizations.)`

Code

df_eggPrices

# A tibble: 75 × 13
   Prices pa…¹ ...2  ...3  ...4  ...5  ...6  ...7  ...8  ...9  ...10 ...11 ...12
   <chr>       <chr> <chr> <chr> <chr> <chr> <chr> <chr> <chr> <chr> <chr> <chr>
 1 "Year"      Jan.  Feb.  Mar.  Apr.  May   June  July  Aug.  Sep.  Oct.  Nov. 
 2 "2013"      <NA>  <NA>  <NA>  <NA>  <NA>  Cent… <NA>  <NA>  <NA>  <NA>  <NA> 
 3 "Certified… <NA>  <NA>  <NA>  <NA>  <NA>  <NA>  <NA>  <NA>  <NA>  <NA>  <NA> 
 4 "Extra Lar… 290   290   290   290   290   290   290   290   290   290   290  
 5 "Extra Lar… 188.… 188.… 188.… 188.… 188.… 188.… 188.… 188.… 188.… 188.… 188.…
 6 "Large \nD… 267.5 267.5 267.5 267.5 267.5 267.5 267.5 267.5 267.5 267.5 267.5
 7 "Large \n1… 178   178   178   178   178   178   178   178   178   178   178  
 8  <NA>       Jan.  Feb.  Mar.  Apr.  May   June  July  Aug.  Sep.  Oct.  Nov. 
 9 "2012"      <NA>  <NA>  <NA>  <NA>  <NA>  Cent… <NA>  <NA>  <NA>  <NA>  <NA> 
10 "Certified… <NA>  <NA>  <NA>  <NA>  <NA>  <NA>  <NA>  <NA>  <NA>  <NA>  <NA> 
# … with 65 more rows, 1 more variable: ...13 <chr>, and abbreviated variable
#   name
#   ¹​`Prices paid by first receiver for USDA certified organic eggs, monthly, 2004-13 1/`

Code

df_poultryPrices

# A tibble: 100 × 13
   Prices pa…¹ ...2  ...3  ...4  ...5  ...6  ...7  ...8  ...9  ...10 ...11 ...12
   <chr>       <chr> <chr> <chr> <chr> <chr> <chr> <chr> <chr> <chr> <chr> <chr>
 1 Year        Jan.  Feb.  Mar.  Apr.  May   June  July  Aug.  Sep.  Oct.  Nov. 
 2 2013        <NA>  <NA>  <NA>  <NA>  <NA>  Cent… <NA>  <NA>  <NA>  <NA>  <NA> 
 3 Organic yo… <NA>  <NA>  <NA>  <NA>  <NA>  <NA>  <NA>  <NA>  <NA>  <NA>  <NA> 
 4 Whole       238.5 238.5 238.5 238.5 238.5 238.5 238.5 238.5 238.5 238.5 238.5
 5 B/S Breast  703.… 703.… 703.… 703.… 703.… 703.… 703.… 703.… 703.… 703.… 703.…
 6 Bone-in Br… 390.5 390.5 390.5 390.5 390.5 390.5 390.5 390.5 390.5 390.5 390.5
 7 Whole Legs  203.5 203.5 203.5 203.5 203.5 203.5 203.5 203.5 203.5 203.5 203.5
 8 Thighs      216.… 216.… 216.… 216.… 216.… 216.… 216.… 216.… 216.… 216.… 216.…
 9 <NA>        Jan.  Feb.  Mar.  Apr.  May   June  July  Aug.  Sep.  Oct.  Nov. 
10 2012        <NA>  <NA>  <NA>  <NA>  <NA>  Cent… <NA>  <NA>  <NA>  <NA>  <NA> 
# … with 90 more rows, 1 more variable: ...13 <chr>, and abbreviated variable
#   name
#   ¹​`Prices paid by first receiver for USDA certified organic poultry, monthly, 2004-13 1/`
…
