Challenge_3
…
Import data

Use the date col in eggs form

Code

date<-read_excel("_data/organiceggpoultry.xls",
                      sheet="Data",
                      range =cell_limits(c(6,2),c(NA,2)),
                      col_names = c("date")
                 )
date

# A tibble: 120 × 1
   date     
   <chr>    
 1 Jan 2004 
 2 February 
 3 March    
 4 April    
 5 May      
 6 June     
 7 July     
 8 August   
 9 September
10 October  
# … with 110 more rows
…
