Challenge_7
…
   Min. 1st Qu.  Median    Mean 3rd Qu.    Max. 
  0.000   2.000   2.000   1.968   2.000  55.000 

Time Dependent Visualization

According to the date column I processed previously,I grouped the rows by month and use summarise() to calculate the total guests number of each month from 2015 to 2017.

hotel_month<-hotel_month%>%
  group_by(date) %>%
  summarise(month_total = sum(total_guests)) %>%
  ungroup() %>%
  mutate(month_total = as.integer(month_total))
hotel_month

# A tibble: 26 × 2
   date    month_total
   <chr>         <int>
 1 2015-10        9084
 2 2015-11        3807
 3 2015-12        5470
 4 2015-7         5715
 5 2015-8         8031
 6 2015-9         9726
 7 2016-1         3835
 8 2016-10       11960
 9 2016-11        8005
10 2016-12        7726
# … with 16 more rows
…
