Challenge_2
…
According to the dataset,we can notice that it provide the number of adults, children and baby.Let’s take a look at the relationship between the type of occupant and the month of occupancy.

Code

df %>%
  select(arrival_date_month,children,adults,babies)%>%
  group_by(arrival_date_month)

# A tibble: 119,390 × 4
# Groups:   arrival_date_month [12]
   arrival_date_month children adults babies
   <chr>                 <int>  <int>  <int>
 1 July                      0      2      0
 2 July                      0      2      0
 3 July                      0      1      0
 4 July                      0      1      0
 5 July                      0      2      0
 6 July                      0      2      0
 7 July                      0      2      0
 8 July                      0      2      0
 9 July                      0      2      0
10 July                      0      2      0
# … with 119,380 more rows
…
